Test Parameters:
	filename: graph20.txt
	numRuns: 300
	colors: 4
	max generations: 4000
	population size: 10
	mutation chance: 0.8
	tournament size: 5
	tournament chance: 0.5

Summary:
300 tests were run. 100.0% of them succeeded.
Of the successes, the average number iterations was 129.62 (min 20, max 966).
Of the failures, the average conflicts in the best result was 0.00 (min 999999999, max 0)

All results:
Success  Iterations  Conflicts  Color Sequence
   True          32          0  (0, 1, 3, 1, 3, 1, 3, 2, 1, 0, 1, 0, 2, 0, 1, 1, 3, 0, 1, 2)
   True          53          0  (1, 3, 0, 3, 1, 2, 3, 2, 1, 0, 3, 0, 3, 0, 1, 3, 2, 0, 2, 3)
   True          71          0  (0, 3, 1, 3, 1, 2, 3, 2, 0, 3, 0, 1, 3, 0, 2, 0, 1, 3, 2, 0)
   True          83          0  (0, 3, 2, 3, 0, 3, 2, 1, 0, 2, 3, 1, 2, 1, 0, 0, 1, 2, 1, 3)
   True          82          0  (3, 1, 0, 1, 0, 0, 1, 2, 0, 1, 3, 2, 3, 1, 0, 0, 2, 1, 2, 3)
   True         111          0  (1, 0, 2, 0, 2, 3, 2, 3, 0, 2, 0, 1, 2, 0, 1, 0, 3, 1, 3, 2)
   True          59          0  (1, 0, 2, 0, 1, 3, 2, 3, 0, 2, 2, 1, 2, 1, 0, 1, 3, 0, 2, 1)
   True          25          0  (1, 0, 3, 0, 3, 0, 3, 2, 0, 1, 1, 2, 3, 2, 1, 3, 2, 0, 1, 3)
   True          97          0  (0, 3, 2, 3, 0, 2, 3, 1, 2, 0, 3, 1, 0, 3, 2, 3, 1, 2, 1, 0)
   True         107          0  (3, 1, 2, 1, 3, 2, 1, 0, 2, 1, 2, 0, 1, 3, 2, 2, 0, 1, 0, 3)
   True         119          0  (1, 0, 2, 0, 1, 3, 0, 3, 2, 0, 2, 1, 0, 2, 1, 1, 3, 0, 3, 2)
   True          77          0  (1, 3, 0, 3, 0, 0, 3, 2, 0, 3, 1, 2, 1, 2, 3, 1, 2, 3, 2, 0)
   True         104          0  (2, 3, 0, 3, 2, 1, 3, 1, 0, 3, 0, 2, 3, 2, 0, 0, 1, 3, 0, 2)
   True          25          0  (3, 0, 2, 0, 3, 1, 0, 1, 3, 2, 2, 2, 0, 2, 3, 3, 1, 0, 1, 2)
   True         100          0  (3, 0, 2, 0, 2, 0, 2, 1, 0, 2, 3, 1, 3, 1, 2, 3, 1, 0, 1, 3)
   True         107          0  (1, 3, 0, 3, 0, 2, 0, 2, 3, 0, 3, 1, 0, 3, 1, 3, 2, 1, 2, 0)
   True         177          0  (0, 1, 3, 1, 3, 2, 3, 2, 0, 3, 1, 1, 3, 1, 0, 1, 2, 0, 1, 3)
   True         137          0  (2, 0, 3, 0, 2, 3, 0, 1, 3, 0, 0, 2, 0, 2, 3, 2, 1, 3, 1, 0)
   True          64          0  (1, 2, 0, 2, 1, 3, 2, 3, 1, 0, 2, 0, 2, 1, 0, 2, 3, 0, 2, 1)
   True          48          0  (2, 0, 1, 0, 2, 0, 1, 3, 0, 2, 0, 3, 2, 3, 1, 0, 3, 1, 3, 2)
   True         173          0  (3, 1, 0, 1, 3, 0, 1, 2, 0, 1, 0, 3, 2, 3, 1, 0, 3, 1, 2, 0)
   True         224          0  (2, 1, 0, 1, 2, 0, 1, 3, 0, 2, 0, 3, 2, 3, 1, 0, 3, 1, 3, 2)
   True          70          0  (2, 3, 1, 3, 2, 0, 1, 0, 2, 3, 1, 3, 1, 2, 3, 2, 0, 3, 0, 1)
   True         142          0  (0, 3, 1, 3, 0, 3, 1, 2, 3, 0, 3, 2, 0, 2, 1, 3, 2, 1, 2, 3)
   True          96          0  (2, 1, 3, 1, 3, 3, 1, 0, 3, 2, 1, 0, 2, 0, 3, 3, 0, 2, 0, 1)
   True          20          0  (3, 2, 1, 2, 1, 2, 1, 0, 3, 2, 3, 0, 1, 0, 2, 1, 0, 2, 0, 3)
   True          97          0  (2, 0, 1, 0, 1, 0, 1, 3, 0, 1, 0, 2, 1, 2, 0, 0, 3, 2, 0, 1)
   True          56          0  (2, 1, 3, 1, 3, 3, 1, 0, 3, 2, 1, 0, 2, 1, 3, 3, 1, 2, 1, 0)
   True          48          0  (1, 0, 3, 0, 3, 2, 0, 2, 3, 1, 1, 1, 0, 1, 3, 3, 2, 0, 2, 1)
   True          99          0  (1, 2, 3, 2, 1, 0, 3, 0, 2, 3, 2, 1, 3, 1, 2, 2, 1, 3, 2, 0)
   True          95          0  (2, 3, 0, 3, 2, 3, 0, 1, 3, 2, 3, 1, 2, 1, 0, 3, 1, 0, 3, 2)
   True         226          0  (0, 2, 1, 2, 1, 1, 2, 3, 1, 2, 0, 0, 2, 0, 1, 1, 3, 2, 3, 0)
   True          47          0  (1, 3, 0, 3, 0, 0, 3, 2, 0, 1, 3, 2, 1, 3, 2, 0, 3, 1, 3, 0)
   True          47          0  (0, 3, 2, 3, 2, 3, 2, 1, 0, 2, 0, 1, 2, 1, 3, 0, 1, 3, 0, 2)
   True         139          0  (1, 3, 0, 3, 1, 0, 3, 2, 0, 3, 0, 2, 1, 2, 0, 0, 2, 3, 2, 1)
   True         128          0  (3, 0, 1, 0, 3, 2, 0, 2, 1, 3, 0, 3, 0, 1, 3, 0, 2, 1, 2, 0)
   True         177          0  (2, 3, 1, 3, 1, 3, 1, 0, 3, 2, 3, 2, 0, 1, 3, 3, 1, 2, 3, 0)
   True          59          0  (3, 2, 0, 2, 0, 0, 2, 1, 0, 3, 2, 3, 1, 3, 0, 0, 2, 3, 2, 1)
   True         126          0  (1, 3, 0, 3, 1, 0, 3, 2, 0, 3, 0, 1, 3, 2, 0, 0, 2, 3, 2, 1)
   True         173          0  (2, 1, 3, 1, 3, 3, 1, 0, 3, 1, 2, 0, 1, 0, 3, 3, 0, 1, 0, 2)
   True         226          0  (1, 0, 3, 0, 3, 0, 3, 2, 0, 1, 1, 2, 1, 3, 0, 3, 2, 0, 2, 1)
   True         131          0  (3, 0, 1, 0, 1, 2, 1, 2, 3, 0, 0, 0, 1, 0, 3, 1, 2, 3, 2, 0)
   True         332          0  (1, 3, 2, 3, 1, 2, 3, 0, 2, 3, 2, 0, 3, 1, 0, 2, 1, 3, 0, 2)
   True          40          0  (0, 1, 3, 1, 3, 1, 3, 2, 1, 0, 1, 2, 0, 2, 1, 3, 2, 0, 1, 3)
   True         175          0  (1, 3, 0, 3, 1, 0, 3, 2, 0, 1, 3, 2, 1, 2, 0, 3, 2, 0, 2, 1)
   True         241          0  (1, 0, 2, 0, 1, 3, 0, 3, 1, 2, 0, 2, 0, 1, 2, 0, 3, 2, 3, 1)
   True         333          0  (2, 1, 3, 1, 3, 1, 3, 0, 1, 2, 1, 2, 3, 2, 1, 1, 0, 2, 0, 3)
   True         119          0  (3, 1, 0, 1, 3, 2, 1, 2, 0, 3, 1, 3, 1, 3, 0, 1, 2, 0, 2, 1)
   True         307          0  (2, 3, 1, 3, 1, 3, 1, 0, 3, 1, 2, 0, 2, 0, 1, 2, 0, 3, 0, 2)
   True         200          0  (3, 0, 2, 0, 3, 2, 0, 1, 2, 3, 2, 1, 3, 1, 2, 2, 1, 0, 2, 3)
   True         114          0  (1, 0, 2, 0, 1, 0, 2, 3, 1, 2, 0, 3, 2, 1, 3, 1, 0, 2, 0, 1)
   True          89          0  (2, 0, 1, 0, 1, 0, 1, 3, 0, 2, 0, 3, 1, 3, 2, 0, 3, 2, 3, 0)
   True          51          0  (2, 3, 0, 3, 0, 3, 0, 1, 3, 0, 3, 2, 0, 1, 2, 3, 1, 2, 1, 0)
   True          53          0  (1, 0, 2, 0, 2, 2, 0, 3, 2, 1, 0, 1, 3, 0, 1, 2, 0, 1, 0, 2)
   True          36          0  (2, 3, 1, 3, 1, 1, 3, 0, 1, 2, 3, 0, 3, 0, 2, 1, 0, 2, 0, 1)
   True          43          0  (1, 2, 3, 2, 1, 3, 2, 0, 3, 2, 3, 1, 2, 0, 3, 1, 0, 2, 3, 1)
   True         184          0  (0, 3, 1, 3, 0, 2, 3, 2, 1, 3, 1, 0, 3, 1, 2, 1, 0, 3, 2, 1)
   True          64          0  (3, 2, 0, 2, 0, 2, 0, 1, 3, 2, 3, 1, 0, 1, 3, 3, 1, 2, 3, 0)
   True         269          0  (3, 1, 0, 1, 0, 2, 1, 2, 0, 1, 3, 3, 1, 3, 0, 0, 3, 1, 3, 2)
   True          34          0  (2, 3, 1, 3, 2, 0, 3, 0, 1, 3, 1, 2, 3, 1, 0, 1, 2, 3, 0, 1)
   True          48          0  (3, 2, 1, 2, 1, 0, 2, 0, 3, 1, 2, 1, 2, 1, 3, 2, 0, 3, 2, 1)
   True         223          0  (0, 1, 2, 1, 0, 2, 1, 3, 0, 2, 1, 3, 1, 3, 2, 1, 3, 2, 3, 0)
   True         216          0  (2, 0, 1, 0, 1, 1, 0, 3, 1, 0, 2, 2, 0, 2, 3, 1, 2, 0, 3, 1)
   True          22          0  (3, 2, 1, 2, 1, 2, 1, 0, 2, 3, 3, 0, 1, 0, 3, 1, 0, 2, 3, 1)
   True         186          0  (2, 3, 0, 3, 2, 3, 0, 1, 3, 0, 3, 1, 0, 1, 3, 2, 1, 0, 1, 2)
   True          57          0  (2, 1, 3, 1, 2, 0, 3, 0, 2, 1, 3, 1, 3, 2, 1, 3, 0, 1, 0, 3)
   True         304          0  (2, 1, 0, 1, 2, 1, 0, 3, 1, 0, 0, 3, 2, 3, 1, 2, 3, 1, 0, 2)
   True         128          0  (1, 2, 0, 2, 1, 0, 2, 3, 0, 1, 0, 3, 1, 2, 0, 0, 3, 2, 3, 1)
   True          48          0  (2, 3, 1, 3, 2, 0, 3, 0, 2, 3, 3, 1, 3, 2, 1, 2, 0, 1, 3, 2)
   True          68          0  (2, 0, 1, 0, 1, 1, 0, 3, 1, 2, 0, 3, 2, 0, 3, 1, 0, 2, 0, 1)
   True          41          0  (0, 3, 2, 3, 0, 1, 2, 1, 3, 2, 3, 0, 2, 0, 3, 0, 1, 2, 3, 0)
   True         137          0  (0, 3, 2, 3, 2, 1, 3, 1, 2, 3, 0, 0, 3, 2, 1, 2, 0, 3, 1, 2)
   True          42          0  (3, 1, 0, 1, 3, 2, 1, 2, 3, 1, 0, 0, 1, 3, 2, 3, 0, 1, 0, 3)
   True         165          0  (2, 0, 1, 0, 1, 0, 1, 3, 0, 2, 0, 3, 2, 1, 0, 1, 3, 2, 3, 1)
   True          46          0  (2, 1, 3, 1, 2, 3, 1, 0, 2, 3, 1, 0, 1, 0, 3, 2, 0, 3, 0, 1)
   True          52          0  (3, 1, 0, 1, 0, 1, 0, 2, 1, 3, 3, 2, 3, 2, 0, 0, 2, 1, 2, 3)
   True          34          0  (0, 1, 2, 1, 2, 3, 1, 3, 2, 0, 1, 0, 1, 2, 0, 2, 3, 0, 3, 2)
   True         278          0  (2, 0, 3, 0, 3, 3, 0, 1, 3, 0, 2, 1, 0, 2, 3, 3, 1, 0, 1, 2)
   True         183          0  (2, 0, 3, 0, 3, 3, 0, 1, 3, 2, 0, 1, 0, 1, 2, 0, 1, 2, 1, 0)
   True         176          0  (1, 2, 3, 2, 1, 3, 2, 0, 3, 2, 2, 0, 2, 0, 3, 1, 0, 3, 0, 2)
   True          27          0  (2, 0, 3, 0, 2, 3, 0, 1, 3, 0, 3, 2, 1, 2, 0, 3, 2, 0, 1, 3)
   True         135          0  (2, 1, 0, 1, 2, 0, 1, 3, 0, 1, 0, 3, 1, 2, 3, 0, 2, 1, 3, 0)
   True         112          0  (1, 0, 2, 0, 2, 3, 0, 3, 1, 0, 1, 2, 0, 1, 3, 1, 2, 0, 3, 1)
   True          77          0  (1, 2, 3, 2, 3, 2, 3, 0, 2, 1, 2, 0, 1, 3, 0, 2, 3, 1, 0, 2)
   True         136          0  (1, 0, 2, 0, 2, 2, 0, 3, 2, 0, 0, 3, 0, 3, 1, 2, 3, 1, 0, 2)
   True         119          0  (3, 0, 1, 0, 1, 2, 0, 2, 3, 0, 3, 1, 0, 3, 1, 3, 2, 0, 2, 3)
   True         152          0  (2, 0, 1, 0, 2, 0, 1, 3, 0, 2, 0, 2, 1, 3, 2, 0, 3, 1, 3, 0)
   True         133          0  (1, 0, 2, 0, 2, 0, 2, 3, 0, 1, 0, 1, 2, 1, 0, 2, 3, 1, 3, 2)
   True         117          0  (1, 0, 2, 0, 2, 2, 0, 3, 2, 0, 1, 3, 1, 3, 0, 2, 3, 0, 1, 2)
   True          36          0  (3, 0, 2, 0, 2, 2, 0, 1, 2, 0, 0, 1, 3, 1, 0, 2, 1, 3, 1, 2)
   True         124          0  (1, 0, 3, 0, 1, 3, 0, 2, 3, 0, 3, 2, 1, 2, 3, 1, 2, 0, 2, 1)
   True          84          0  (2, 3, 1, 3, 1, 3, 1, 0, 3, 2, 3, 0, 2, 0, 1, 3, 0, 2, 0, 3)
   True         167          0  (2, 3, 1, 3, 1, 3, 1, 0, 2, 1, 3, 0, 1, 0, 2, 3, 0, 2, 3, 1)
   True          92          0  (1, 0, 3, 0, 1, 0, 3, 2, 0, 3, 0, 2, 3, 2, 0, 0, 2, 3, 0, 1)
   True         111          0  (2, 0, 1, 0, 2, 0, 1, 3, 2, 1, 0, 3, 1, 3, 2, 2, 0, 1, 0, 3)
   True          51          0  (3, 0, 2, 0, 2, 1, 0, 1, 3, 0, 3, 2, 0, 2, 3, 3, 1, 0, 3, 2)
   True          74          0  (1, 2, 3, 2, 3, 2, 3, 0, 1, 2, 1, 0, 3, 1, 2, 3, 0, 2, 0, 1)
   True         161          0  (1, 3, 0, 3, 1, 2, 0, 2, 3, 1, 3, 1, 0, 1, 3, 3, 2, 0, 3, 1)
   True         195          0  (2, 0, 3, 0, 3, 1, 3, 1, 2, 0, 2, 0, 3, 0, 2, 3, 1, 0, 1, 3)
   True         137          0  (2, 1, 3, 1, 3, 3, 1, 0, 3, 1, 2, 0, 2, 1, 3, 3, 0, 1, 0, 2)
   True          44          0  (3, 0, 2, 0, 2, 0, 2, 1, 0, 2, 0, 3, 2, 3, 0, 0, 1, 3, 0, 2)
   True         131          0  (2, 0, 1, 0, 2, 0, 1, 3, 2, 1, 0, 3, 1, 2, 3, 2, 0, 1, 3, 2)
   True         187          0  (0, 1, 2, 1, 0, 2, 1, 3, 0, 1, 2, 3, 1, 3, 0, 0, 3, 1, 3, 2)
   True         100          0  (2, 1, 0, 1, 2, 0, 1, 3, 0, 1, 0, 2, 1, 2, 0, 0, 2, 1, 0, 3)
   True         258          0  (1, 0, 3, 0, 1, 0, 3, 2, 1, 3, 0, 2, 3, 2, 1, 0, 2, 3, 2, 0)
   True          69          0  (1, 3, 0, 3, 0, 0, 3, 2, 0, 3, 3, 2, 1, 2, 0, 0, 2, 1, 2, 3)
   True         215          0  (2, 1, 0, 1, 0, 0, 1, 3, 0, 2, 2, 2, 1, 3, 2, 0, 3, 1, 3, 0)
   True         247          0  (2, 0, 1, 0, 1, 0, 1, 3, 0, 2, 2, 2, 1, 2, 0, 1, 3, 0, 3, 1)
   True         288          0  (3, 0, 2, 0, 3, 2, 0, 1, 3, 0, 0, 1, 0, 3, 2, 3, 1, 2, 1, 0)
   True         102          0  (2, 3, 0, 3, 2, 1, 3, 1, 0, 3, 3, 2, 3, 0, 2, 2, 1, 0, 1, 3)
   True         269          0  (1, 3, 0, 3, 1, 0, 3, 2, 0, 3, 3, 2, 1, 2, 3, 1, 2, 0, 3, 1)
   True         150          0  (0, 2, 3, 2, 0, 3, 2, 1, 3, 0, 3, 1, 2, 1, 3, 3, 1, 2, 1, 0)
   True         130          0  (3, 0, 2, 0, 2, 1, 2, 1, 3, 2, 3, 0, 2, 0, 3, 3, 1, 0, 1, 2)
   True         100          0  (2, 1, 0, 1, 2, 0, 1, 3, 0, 1, 0, 3, 2, 3, 1, 2, 3, 1, 3, 0)
   True         217          0  (3, 2, 1, 2, 3, 1, 2, 0, 1, 2, 2, 0, 2, 0, 1, 3, 0, 1, 2, 3)
   True          40          0  (2, 3, 0, 3, 2, 0, 3, 1, 0, 2, 3, 1, 3, 2, 0, 3, 1, 0, 1, 2)
   True          72          0  (2, 1, 0, 1, 2, 0, 1, 3, 0, 1, 0, 3, 2, 1, 0, 0, 3, 1, 3, 2)
   True          73          0  (2, 3, 0, 3, 0, 1, 3, 1, 2, 3, 2, 0, 3, 2, 1, 2, 0, 3, 1, 2)
   True          48          0  (3, 1, 2, 1, 2, 0, 1, 0, 3, 1, 3, 2, 1, 2, 3, 2, 0, 1, 3, 2)
   True          47          0  (3, 2, 1, 2, 1, 2, 1, 0, 2, 1, 3, 3, 1, 3, 2, 3, 0, 2, 3, 1)
   True          31          0  (3, 2, 1, 2, 1, 2, 1, 0, 3, 2, 2, 0, 1, 0, 3, 1, 0, 3, 0, 2)
   True         158          0  (3, 2, 0, 2, 0, 1, 2, 1, 3, 2, 2, 0, 2, 0, 3, 0, 1, 3, 2, 0)
   True          46          0  (1, 3, 0, 3, 1, 3, 0, 2, 1, 3, 0, 2, 0, 2, 1, 1, 2, 3, 2, 0)
   True          75          0  (0, 1, 2, 1, 2, 1, 2, 3, 1, 2, 0, 3, 0, 3, 1, 0, 3, 1, 3, 0)
   True         128          0  (0, 3, 2, 3, 2, 1, 3, 1, 2, 3, 3, 0, 3, 2, 0, 2, 1, 0, 1, 2)
   True          71          0  (2, 0, 1, 0, 1, 3, 0, 3, 2, 0, 2, 1, 0, 2, 1, 2, 3, 0, 3, 2)
   True          64          0  (1, 3, 2, 3, 2, 2, 3, 0, 2, 1, 3, 1, 3, 0, 2, 2, 0, 1, 0, 3)
   True          34          0  (0, 3, 1, 3, 0, 1, 3, 2, 0, 3, 1, 2, 3, 0, 2, 0, 1, 3, 1, 0)
   True         110          0  (2, 3, 1, 3, 2, 3, 1, 0, 2, 1, 3, 0, 1, 2, 0, 2, 3, 1, 3, 2)
   True         102          0  (3, 2, 0, 2, 0, 0, 2, 1, 0, 3, 2, 1, 3, 1, 0, 0, 2, 3, 2, 1)
   True          43          0  (3, 1, 2, 1, 2, 2, 1, 0, 3, 1, 1, 0, 1, 0, 3, 2, 0, 3, 1, 2)
   True         215          0  (3, 1, 0, 1, 3, 0, 1, 2, 0, 1, 0, 3, 1, 2, 3, 0, 2, 1, 2, 0)
   True         136          0  (2, 1, 0, 1, 2, 1, 0, 3, 1, 0, 1, 2, 3, 2, 1, 1, 2, 0, 1, 3)
   True          55          0  (3, 1, 2, 1, 3, 2, 1, 0, 2, 1, 2, 3, 1, 0, 3, 3, 0, 1, 0, 2)
   True          72          0  (1, 0, 3, 0, 1, 2, 3, 2, 0, 1, 3, 1, 3, 1, 0, 3, 2, 0, 2, 1)
   True         134          0  (1, 3, 2, 3, 2, 3, 2, 0, 1, 2, 3, 0, 2, 0, 1, 3, 0, 1, 0, 2)
   True          45          0  (3, 1, 2, 1, 3, 0, 1, 0, 3, 1, 2, 2, 1, 3, 2, 3, 0, 1, 0, 3)
   True          69          0  (0, 2, 1, 2, 1, 3, 1, 3, 0, 2, 0, 2, 1, 0, 2, 1, 3, 2, 0, 1)
   True         111          0  (1, 2, 3, 2, 3, 2, 3, 0, 2, 1, 2, 0, 1, 3, 2, 2, 3, 1, 2, 0)
   True          66          0  (2, 1, 3, 1, 3, 0, 3, 0, 1, 3, 2, 2, 3, 2, 1, 2, 0, 1, 2, 3)
   True         438          0  (3, 0, 1, 0, 3, 1, 0, 2, 1, 0, 1, 3, 0, 2, 1, 1, 3, 0, 1, 2)
   True         156          0  (0, 3, 1, 3, 1, 1, 3, 2, 1, 3, 0, 0, 2, 0, 3, 1, 0, 3, 0, 2)
   True         190          0  (0, 3, 1, 3, 1, 3, 1, 2, 3, 0, 3, 0, 2, 0, 3, 3, 1, 0, 3, 2)
   True         123          0  (1, 0, 2, 0, 2, 3, 0, 3, 1, 0, 1, 2, 0, 2, 1, 1, 3, 0, 1, 2)
   True         238          0  (1, 0, 2, 0, 1, 2, 0, 3, 2, 1, 0, 3, 1, 0, 2, 0, 3, 2, 3, 0)
   True         326          0  (3, 2, 0, 2, 0, 0, 2, 1, 0, 3, 2, 1, 3, 2, 1, 0, 2, 3, 1, 0)
   True         135          0  (3, 0, 1, 0, 3, 0, 1, 2, 3, 0, 1, 2, 1, 2, 0, 3, 2, 0, 1, 3)
   True          55          0  (1, 2, 0, 2, 0, 2, 0, 3, 2, 0, 1, 3, 0, 3, 2, 1, 3, 2, 3, 1)
   True          46          0  (0, 1, 2, 1, 0, 1, 2, 3, 1, 2, 1, 0, 2, 0, 1, 1, 3, 2, 1, 0)
   True         109          0  (3, 1, 0, 1, 3, 0, 1, 2, 3, 0, 1, 2, 1, 3, 0, 1, 2, 0, 2, 1)
   True         127          0  (2, 3, 0, 3, 0, 3, 0, 1, 3, 2, 3, 1, 0, 1, 3, 3, 1, 2, 3, 0)
   True         101          0  (3, 1, 2, 1, 3, 2, 1, 0, 2, 3, 1, 3, 1, 0, 2, 1, 0, 2, 0, 1)
   True         250          0  (1, 0, 2, 0, 1, 2, 0, 3, 2, 1, 0, 1, 0, 3, 2, 0, 3, 2, 3, 0)
   True         318          0  (3, 1, 2, 1, 3, 2, 1, 0, 3, 1, 1, 0, 1, 3, 2, 3, 0, 2, 1, 3)
   True         300          0  (1, 0, 3, 0, 3, 3, 0, 2, 3, 0, 1, 2, 0, 1, 2, 3, 1, 0, 1, 3)
   True         265          0  (0, 1, 3, 1, 3, 2, 1, 2, 3, 1, 1, 0, 1, 3, 0, 3, 2, 0, 2, 1)
   True          45          0  (3, 0, 2, 0, 2, 0, 2, 1, 0, 2, 0, 3, 2, 1, 0, 0, 1, 3, 1, 2)
   True         336          0  (0, 3, 2, 3, 2, 2, 3, 1, 2, 0, 3, 0, 3, 1, 0, 2, 1, 0, 1, 3)
   True         113          0  (3, 1, 0, 1, 0, 0, 1, 2, 0, 3, 1, 3, 2, 1, 3, 0, 1, 3, 2, 0)
   True         233          0  (3, 1, 2, 1, 3, 2, 1, 0, 3, 2, 1, 0, 1, 3, 2, 1, 0, 2, 1, 3)
   True         105          0  (3, 0, 1, 0, 3, 1, 0, 2, 1, 3, 1, 2, 3, 2, 0, 1, 2, 0, 2, 1)
   True          56          0  (1, 3, 0, 3, 1, 3, 0, 2, 1, 3, 3, 2, 0, 2, 3, 1, 2, 0, 2, 1)
   True          69          0  (0, 1, 2, 1, 0, 1, 2, 3, 0, 2, 2, 3, 2, 3, 1, 0, 3, 1, 3, 0)
   True         176          0  (1, 0, 3, 0, 1, 0, 3, 2, 0, 3, 0, 2, 3, 2, 1, 0, 2, 3, 2, 0)
   True          74          0  (3, 0, 1, 0, 1, 0, 1, 2, 3, 1, 3, 2, 1, 2, 0, 3, 2, 0, 2, 1)
   True          32          0  (3, 2, 1, 2, 3, 2, 1, 0, 2, 1, 1, 0, 1, 0, 2, 3, 0, 2, 0, 3)
   True          36          0  (0, 1, 2, 1, 0, 3, 2, 3, 1, 2, 2, 0, 2, 0, 1, 0, 3, 1, 3, 2)
   True          51          0  (0, 1, 2, 1, 2, 3, 2, 3, 0, 2, 0, 1, 2, 1, 0, 0, 3, 1, 0, 2)
   True         142          0  (2, 1, 3, 1, 2, 3, 1, 0, 3, 2, 1, 0, 2, 0, 3, 1, 0, 3, 1, 2)
   True         154          0  (1, 3, 2, 3, 2, 3, 2, 0, 3, 2, 3, 1, 2, 1, 3, 3, 0, 1, 3, 2)
   True         112          0  (1, 2, 0, 2, 1, 2, 0, 3, 2, 0, 2, 1, 3, 1, 2, 2, 1, 0, 2, 3)
   True          51          0  (2, 1, 3, 1, 2, 1, 3, 0, 2, 3, 1, 0, 3, 0, 1, 1, 0, 3, 1, 2)
   True         313          0  (0, 1, 2, 1, 0, 1, 2, 3, 1, 2, 2, 0, 2, 0, 1, 0, 3, 1, 3, 0)
   True          63          0  (2, 3, 1, 3, 1, 3, 1, 0, 3, 1, 2, 2, 1, 0, 3, 2, 0, 3, 2, 1)
   True         119          0  (0, 1, 3, 1, 3, 1, 3, 2, 1, 3, 0, 2, 0, 2, 1, 0, 2, 1, 2, 0)
   True         128          0  (3, 1, 0, 1, 0, 0, 1, 2, 0, 1, 3, 2, 1, 2, 3, 3, 2, 1, 3, 0)
   True         162          0  (0, 1, 2, 1, 2, 2, 1, 3, 0, 2, 0, 3, 1, 0, 2, 0, 3, 1, 3, 0)
   True          45          0  (1, 2, 0, 2, 0, 3, 0, 3, 2, 1, 1, 1, 0, 1, 2, 0, 3, 2, 3, 0)
   True          25          0  (0, 1, 3, 1, 0, 1, 3, 2, 1, 3, 1, 0, 3, 0, 2, 1, 0, 3, 2, 1)
   True         132          0  (1, 3, 0, 3, 0, 0, 3, 2, 0, 3, 1, 1, 2, 1, 3, 0, 1, 3, 2, 0)
   True          34          0  (0, 2, 3, 2, 3, 1, 2, 1, 0, 2, 0, 3, 2, 0, 3, 0, 1, 2, 1, 0)
   True         138          0  (3, 0, 2, 0, 2, 2, 0, 1, 2, 3, 3, 1, 3, 1, 0, 2, 1, 0, 1, 3)
   True         195          0  (1, 2, 0, 2, 1, 2, 0, 3, 2, 0, 2, 3, 1, 3, 0, 2, 3, 0, 3, 1)
   True          46          0  (2, 1, 3, 1, 2, 1, 3, 0, 2, 3, 1, 0, 3, 2, 0, 2, 1, 3, 1, 2)
   True          55          0  (0, 1, 2, 1, 2, 1, 2, 3, 1, 0, 1, 0, 2, 3, 1, 2, 3, 0, 3, 2)
   True         148          0  (3, 0, 2, 0, 2, 0, 2, 1, 0, 2, 0, 1, 2, 3, 0, 0, 1, 3, 0, 2)
   True         107          0  (2, 1, 0, 1, 0, 3, 1, 3, 0, 1, 2, 2, 1, 0, 3, 0, 2, 1, 2, 0)
   True         121          0  (0, 1, 2, 1, 0, 3, 2, 3, 1, 2, 1, 0, 2, 0, 3, 1, 0, 2, 3, 1)
   True          93          0  (3, 1, 0, 1, 3, 0, 1, 2, 0, 1, 1, 2, 3, 2, 0, 3, 2, 0, 1, 3)
   True          98          0  (2, 0, 3, 0, 3, 3, 0, 1, 2, 0, 2, 1, 0, 2, 1, 2, 3, 0, 1, 2)
   True         154          0  (1, 3, 2, 3, 1, 0, 2, 0, 1, 3, 2, 3, 2, 1, 3, 2, 0, 3, 0, 2)
   True          54          0  (0, 1, 2, 1, 2, 1, 2, 3, 1, 0, 1, 3, 2, 3, 1, 1, 3, 0, 3, 2)
   True         213          0  (1, 3, 0, 3, 1, 3, 0, 2, 3, 1, 3, 2, 1, 2, 3, 3, 2, 0, 3, 1)
   True         133          0  (2, 3, 0, 3, 0, 1, 0, 1, 2, 0, 3, 3, 0, 3, 2, 3, 1, 2, 3, 0)
   True         148          0  (0, 1, 2, 1, 0, 2, 1, 3, 2, 1, 2, 3, 0, 3, 2, 0, 3, 1, 2, 0)
   True          99          0  (2, 1, 3, 1, 2, 0, 1, 0, 3, 1, 1, 2, 1, 2, 3, 2, 0, 3, 0, 1)
   True          89          0  (1, 3, 0, 3, 0, 2, 3, 2, 1, 0, 3, 0, 3, 0, 1, 3, 2, 1, 2, 3)
   True         299          0  (2, 0, 1, 0, 1, 3, 1, 3, 0, 2, 2, 2, 1, 2, 0, 1, 3, 0, 2, 1)
   True          39          0  (3, 0, 1, 0, 1, 2, 1, 2, 3, 0, 3, 0, 1, 3, 0, 3, 2, 0, 3, 1)
   True          80          0  (2, 0, 3, 0, 2, 1, 3, 1, 0, 3, 0, 2, 3, 2, 0, 0, 2, 3, 0, 1)
   True          75          0  (1, 0, 2, 0, 1, 2, 0, 3, 1, 2, 0, 3, 0, 3, 2, 1, 3, 2, 0, 1)
   True         157          0  (3, 2, 0, 2, 0, 1, 0, 1, 2, 3, 3, 3, 0, 2, 3, 0, 1, 2, 1, 0)
   True         165          0  (3, 1, 2, 1, 2, 0, 1, 0, 3, 1, 3, 2, 1, 3, 0, 3, 2, 1, 0, 3)
   True         186          0  (2, 3, 1, 3, 1, 0, 1, 0, 2, 3, 2, 3, 1, 2, 3, 2, 0, 3, 0, 2)
   True          93          0  (3, 2, 1, 2, 3, 0, 1, 0, 3, 1, 2, 2, 1, 2, 0, 3, 2, 1, 2, 3)
   True         120          0  (0, 2, 3, 2, 0, 3, 2, 1, 3, 0, 2, 1, 2, 0, 3, 2, 1, 3, 2, 0)
   True         440          0  (1, 2, 3, 2, 3, 3, 2, 0, 1, 2, 2, 0, 2, 1, 3, 3, 0, 1, 0, 2)
   True          44          0  (3, 1, 0, 1, 0, 1, 0, 2, 1, 3, 1, 2, 0, 2, 3, 0, 2, 3, 1, 0)
   True          97          0  (0, 2, 3, 2, 3, 1, 3, 1, 0, 3, 0, 2, 3, 2, 0, 0, 1, 2, 1, 3)
   True         393          0  (2, 3, 1, 3, 1, 3, 1, 0, 3, 1, 2, 2, 1, 0, 3, 2, 0, 3, 2, 1)
   True          80          0  (0, 1, 2, 1, 2, 2, 1, 3, 2, 0, 1, 0, 1, 3, 0, 1, 3, 0, 3, 1)
   True         133          0  (1, 0, 2, 0, 2, 2, 0, 3, 2, 1, 0, 1, 3, 0, 2, 2, 0, 1, 0, 3)
   True         265          0  (0, 3, 1, 3, 0, 2, 1, 2, 0, 1, 3, 3, 1, 0, 3, 0, 2, 1, 3, 0)
   True         273          0  (0, 2, 3, 2, 3, 2, 3, 1, 2, 0, 2, 0, 3, 1, 2, 3, 1, 0, 2, 3)
   True          55          0  (3, 2, 1, 2, 1, 2, 1, 0, 2, 3, 2, 0, 3, 0, 2, 1, 0, 3, 0, 1)
   True          81          0  (1, 0, 3, 0, 1, 3, 0, 2, 1, 0, 3, 2, 0, 1, 2, 1, 3, 0, 2, 1)
   True         115          0  (1, 2, 3, 2, 3, 3, 2, 0, 1, 3, 2, 0, 2, 0, 1, 2, 0, 1, 0, 3)
   True          39          0  (0, 2, 3, 2, 0, 2, 3, 1, 0, 3, 2, 1, 3, 1, 2, 0, 1, 3, 2, 0)
   True         130          0  (0, 3, 1, 3, 1, 1, 3, 2, 0, 1, 3, 2, 3, 2, 0, 3, 2, 0, 2, 3)
   True         182          0  (2, 0, 1, 0, 1, 1, 0, 3, 1, 2, 2, 3, 2, 3, 0, 1, 3, 0, 2, 1)
   True          55          0  (1, 2, 0, 2, 1, 0, 2, 3, 1, 0, 2, 3, 2, 3, 0, 1, 3, 0, 3, 2)
   True         190          0  (3, 2, 0, 2, 0, 0, 2, 1, 0, 2, 2, 1, 2, 1, 3, 0, 1, 3, 2, 0)
   True          47          0  (0, 3, 2, 3, 0, 3, 2, 1, 3, 0, 3, 1, 0, 1, 2, 3, 1, 2, 1, 0)
   True          73          0  (3, 1, 2, 1, 2, 2, 1, 0, 2, 1, 3, 0, 1, 3, 0, 2, 3, 1, 3, 2)
   True          75          0  (3, 0, 2, 0, 3, 0, 2, 1, 3, 2, 2, 1, 2, 1, 0, 3, 1, 0, 1, 3)
   True          73          0  (3, 0, 1, 0, 1, 0, 1, 2, 0, 1, 3, 3, 1, 2, 3, 3, 2, 0, 3, 1)
   True          95          0  (3, 1, 0, 1, 0, 2, 1, 2, 0, 1, 3, 3, 1, 0, 3, 3, 2, 1, 3, 0)
   True         175          0  (2, 1, 3, 1, 3, 3, 1, 0, 3, 1, 2, 2, 1, 2, 3, 3, 2, 1, 2, 0)
   True          41          0  (0, 1, 3, 1, 0, 1, 3, 2, 1, 3, 3, 0, 3, 0, 1, 0, 2, 1, 3, 0)
   True         115          0  (1, 3, 0, 3, 0, 3, 0, 2, 3, 0, 1, 2, 1, 0, 3, 1, 2, 3, 2, 0)
   True         133          0  (3, 2, 1, 2, 1, 2, 1, 0, 3, 1, 3, 0, 1, 0, 2, 3, 0, 2, 0, 3)
   True         256          0  (0, 3, 2, 3, 0, 2, 3, 1, 2, 0, 3, 1, 3, 1, 0, 3, 1, 2, 1, 3)
   True         177          0  (0, 2, 3, 2, 3, 1, 2, 1, 3, 0, 2, 0, 2, 3, 0, 3, 1, 0, 1, 3)
   True          95          0  (1, 0, 2, 0, 1, 0, 2, 3, 0, 2, 0, 3, 2, 3, 0, 0, 3, 2, 3, 1)
   True         135          0  (2, 0, 1, 0, 1, 0, 1, 3, 0, 2, 0, 3, 2, 1, 3, 0, 1, 2, 3, 0)
   True          41          0  (0, 2, 1, 2, 1, 2, 1, 3, 2, 0, 2, 0, 3, 1, 0, 2, 1, 0, 3, 2)
   True         966          0  (0, 1, 3, 1, 3, 2, 3, 2, 0, 3, 1, 1, 3, 0, 1, 1, 2, 0, 2, 3)
   True          59          0  (2, 3, 1, 3, 2, 0, 3, 0, 2, 3, 1, 1, 3, 2, 1, 1, 0, 3, 1, 2)
   True          46          0  (0, 2, 1, 2, 0, 1, 2, 3, 0, 1, 1, 3, 2, 0, 1, 0, 3, 2, 1, 0)
   True          73          0  (3, 0, 2, 0, 2, 0, 2, 1, 0, 2, 3, 1, 3, 2, 0, 3, 1, 0, 1, 3)
   True          52          0  (0, 1, 3, 1, 3, 3, 1, 2, 3, 1, 0, 0, 2, 0, 1, 3, 0, 1, 0, 3)
   True         467          0  (3, 1, 2, 1, 2, 2, 1, 0, 2, 3, 1, 3, 0, 1, 3, 2, 1, 3, 1, 2)
   True          78          0  (0, 1, 2, 1, 0, 3, 2, 3, 0, 1, 2, 1, 2, 0, 1, 0, 3, 1, 3, 2)
   True         100          0  (2, 3, 1, 3, 1, 1, 3, 0, 1, 2, 3, 2, 0, 3, 2, 1, 3, 2, 0, 1)
   True          69          0  (0, 3, 2, 3, 0, 1, 2, 1, 3, 0, 2, 0, 2, 0, 3, 2, 1, 3, 2, 0)
   True          76          0  (3, 1, 2, 1, 3, 1, 2, 0, 1, 3, 2, 0, 3, 2, 1, 2, 0, 1, 0, 3)
   True          88          0  (0, 2, 3, 2, 0, 2, 3, 1, 0, 2, 3, 1, 3, 1, 2, 3, 1, 2, 1, 3)
   True         269          0  (3, 2, 1, 2, 3, 1, 2, 0, 3, 1, 2, 0, 2, 0, 3, 3, 0, 1, 0, 2)
   True         337          0  (3, 0, 1, 0, 3, 2, 0, 2, 3, 0, 1, 1, 0, 3, 1, 3, 2, 0, 2, 3)
   True         314          0  (0, 2, 3, 2, 3, 3, 2, 1, 3, 2, 0, 0, 2, 1, 3, 0, 1, 2, 1, 0)
   True         138          0  (0, 1, 3, 1, 0, 3, 1, 2, 3, 1, 3, 0, 1, 0, 3, 3, 2, 1, 3, 0)
   True          74          0  (2, 3, 0, 3, 0, 0, 3, 1, 0, 3, 3, 1, 3, 2, 0, 0, 1, 2, 1, 3)
   True         132          0  (2, 3, 0, 3, 0, 0, 3, 1, 0, 2, 3, 1, 2, 3, 0, 0, 3, 2, 3, 1)
   True          53          0  (1, 0, 2, 0, 1, 0, 2, 3, 0, 2, 0, 1, 2, 1, 3, 0, 1, 2, 3, 0)
   True          91          0  (2, 3, 0, 3, 2, 3, 0, 1, 2, 0, 3, 1, 0, 1, 3, 2, 1, 0, 1, 2)
   True         106          0  (0, 3, 1, 3, 1, 3, 1, 2, 3, 1, 0, 2, 0, 2, 3, 0, 2, 3, 2, 0)
   True         130          0  (0, 3, 1, 3, 0, 3, 1, 2, 3, 0, 1, 0, 1, 2, 3, 1, 2, 3, 2, 1)
   True         128          0  (2, 1, 0, 1, 2, 0, 1, 3, 0, 2, 1, 3, 2, 3, 0, 1, 3, 0, 1, 2)
   True          70          0  (2, 0, 3, 0, 3, 0, 3, 1, 2, 3, 2, 1, 3, 2, 0, 2, 1, 0, 1, 2)
   True          75          0  (0, 3, 2, 3, 0, 1, 3, 1, 2, 0, 3, 0, 3, 0, 2, 3, 1, 2, 3, 0)
   True          99          0  (1, 0, 2, 0, 1, 2, 0, 3, 2, 0, 2, 3, 1, 3, 2, 2, 3, 0, 3, 1)
   True          67          0  (0, 1, 2, 1, 0, 1, 2, 3, 0, 2, 1, 3, 2, 0, 3, 0, 1, 2, 1, 0)
   True         103          0  (2, 0, 3, 0, 2, 0, 3, 1, 0, 2, 3, 1, 2, 3, 0, 3, 1, 0, 1, 3)
   True          74          0  (2, 1, 3, 1, 2, 0, 3, 0, 1, 3, 1, 2, 3, 2, 1, 1, 0, 3, 1, 2)
   True         111          0  (1, 0, 2, 0, 2, 0, 2, 3, 1, 0, 0, 3, 2, 3, 1, 2, 3, 1, 0, 2)
   True          89          0  (2, 0, 1, 0, 1, 3, 1, 3, 2, 0, 2, 0, 1, 2, 0, 2, 3, 0, 2, 1)
   True         213          0  (3, 1, 2, 1, 2, 0, 1, 0, 3, 1, 3, 2, 1, 2, 3, 3, 0, 1, 0, 2)
   True         117          0  (3, 2, 1, 2, 3, 0, 2, 0, 3, 2, 1, 1, 2, 1, 3, 3, 1, 2, 1, 0)
   True         144          0  (3, 1, 2, 1, 3, 0, 1, 0, 2, 1, 2, 3, 1, 3, 0, 2, 3, 1, 0, 2)
   True          35          0  (1, 0, 2, 0, 1, 3, 0, 3, 1, 0, 2, 2, 0, 2, 3, 1, 2, 0, 3, 1)
   True         177          0  (1, 3, 0, 3, 1, 0, 3, 2, 0, 3, 0, 2, 3, 2, 1, 1, 2, 3, 2, 0)
   True          80          0  (1, 0, 2, 0, 2, 3, 2, 3, 0, 1, 0, 1, 2, 0, 1, 0, 3, 1, 3, 2)
   True         357          0  (3, 0, 2, 0, 3, 0, 2, 1, 3, 0, 2, 1, 2, 1, 0, 2, 1, 0, 1, 2)
   True         184          0  (3, 2, 1, 2, 1, 2, 1, 0, 2, 1, 2, 0, 3, 1, 2, 2, 0, 3, 2, 1)
   True          74          0  (1, 3, 2, 3, 2, 2, 3, 0, 2, 1, 3, 1, 0, 3, 1, 2, 3, 1, 0, 2)
   True         249          0  (1, 2, 3, 2, 3, 3, 2, 0, 3, 2, 1, 0, 2, 0, 1, 3, 0, 2, 0, 3)
   True         134          0  (3, 0, 2, 0, 2, 2, 0, 1, 2, 3, 3, 1, 0, 1, 3, 2, 1, 0, 1, 2)
   True         282          0  (1, 2, 0, 2, 0, 2, 0, 3, 1, 2, 1, 3, 0, 1, 2, 1, 3, 2, 3, 1)
   True         140          0  (0, 1, 2, 1, 0, 3, 1, 3, 2, 0, 1, 0, 1, 0, 2, 1, 3, 2, 1, 0)
   True          29          0  (0, 3, 1, 3, 0, 1, 3, 2, 1, 3, 1, 0, 2, 0, 3, 1, 0, 3, 1, 2)
   True         224          0  (0, 1, 2, 1, 2, 1, 2, 3, 1, 0, 1, 3, 0, 2, 3, 1, 2, 0, 3, 1)
   True         139          0  (0, 2, 1, 2, 1, 3, 2, 3, 0, 2, 2, 1, 2, 0, 1, 1, 3, 0, 3, 2)
   True         134          0  (0, 3, 2, 3, 0, 2, 3, 1, 2, 3, 3, 1, 3, 1, 2, 0, 1, 2, 1, 0)
   True          69          0  (2, 3, 0, 3, 2, 3, 0, 1, 3, 0, 3, 1, 0, 2, 3, 3, 2, 0, 3, 1)
   True         163          0  (3, 0, 1, 0, 3, 0, 1, 2, 0, 3, 1, 2, 3, 2, 1, 1, 2, 0, 1, 3)
   True         158          0  (1, 0, 3, 0, 3, 3, 0, 2, 3, 0, 1, 1, 2, 1, 3, 3, 1, 0, 1, 2)
   True          44          0  (2, 1, 3, 1, 2, 3, 1, 0, 3, 2, 1, 0, 1, 0, 3, 1, 0, 3, 0, 2)
   True          70          0  (0, 3, 2, 3, 2, 2, 3, 1, 2, 3, 0, 0, 3, 1, 0, 0, 1, 3, 0, 2)
   True         107          0  (3, 2, 1, 2, 1, 1, 2, 0, 1, 2, 3, 3, 2, 3, 1, 3, 0, 2, 0, 3)
   True         295          0  (3, 0, 1, 0, 3, 0, 1, 2, 0, 3, 1, 2, 3, 1, 0, 1, 2, 0, 2, 3)
   True         174          0  (2, 0, 1, 0, 1, 3, 0, 3, 2, 0, 0, 1, 0, 1, 2, 1, 3, 2, 3, 1)
   True          73          0  (2, 0, 3, 0, 3, 3, 0, 1, 2, 3, 0, 1, 0, 1, 2, 0, 1, 2, 1, 0)
   True         227          0  (0, 1, 2, 1, 0, 2, 1, 3, 0, 1, 1, 3, 1, 3, 2, 0, 3, 2, 3, 0)
   True         257          0  (3, 0, 1, 0, 1, 1, 0, 2, 1, 3, 0, 3, 2, 0, 3, 1, 0, 3, 0, 1)
   True          31          0  (2, 0, 3, 0, 2, 3, 0, 1, 3, 0, 3, 1, 0, 2, 3, 3, 2, 0, 3, 1)
   True          63          0  (3, 2, 0, 2, 0, 0, 2, 1, 0, 3, 2, 3, 2, 1, 3, 0, 1, 3, 1, 2)
   True          33          0  (0, 1, 2, 1, 0, 3, 1, 3, 0, 1, 2, 2, 1, 0, 2, 0, 3, 1, 2, 0)
   True         215          0  (2, 0, 1, 0, 1, 3, 1, 3, 0, 1, 0, 2, 1, 2, 0, 0, 3, 2, 3, 1)
   True         127          0  (1, 0, 2, 0, 2, 2, 0, 3, 1, 2, 0, 3, 0, 3, 1, 0, 3, 1, 3, 0)
   True         136          0  (2, 1, 3, 1, 2, 3, 1, 0, 3, 1, 3, 0, 2, 1, 3, 3, 0, 1, 3, 2)
