Test Parameters:
	filename: graph20.txt
	numRuns: 300
	colors: 4
	max generations: 4000
	population size: 30
	mutation chance: 0.8
	tournament size: 15
	tournament chance: 0.5

Summary:
300 tests were run. 100.0% of them succeeded.
Of the successes, the average number iterations was 55.49 (min 5, max 732).
Of the failures, the average conflicts in the best result was 0.00 (min 999999999, max 0)

All results:
Success  Iterations  Conflicts  Color Sequence
   True         302          0  (0, 2, 1, 2, 0, 2, 1, 3, 2, 1, 1, 0, 1, 0, 2, 0, 3, 2, 1, 0)
   True          20          0  (3, 0, 1, 0, 1, 0, 1, 2, 0, 3, 0, 2, 3, 1, 0, 0, 2, 3, 0, 1)
   True          19          0  (1, 0, 2, 0, 1, 2, 0, 3, 2, 1, 0, 3, 1, 3, 0, 0, 3, 2, 3, 1)
   True          53          0  (3, 0, 2, 0, 2, 0, 2, 1, 0, 2, 0, 1, 3, 2, 0, 0, 1, 3, 0, 2)
   True          15          0  (2, 0, 3, 0, 3, 3, 0, 1, 3, 0, 2, 2, 0, 1, 2, 3, 1, 0, 2, 3)
   True          17          0  (0, 1, 2, 1, 2, 1, 2, 3, 1, 0, 1, 0, 3, 2, 1, 1, 2, 0, 1, 3)
   True          50          0  (1, 3, 2, 3, 2, 2, 3, 0, 1, 2, 3, 0, 3, 0, 2, 3, 0, 1, 0, 3)
   True          34          0  (1, 2, 0, 2, 0, 2, 0, 3, 2, 1, 1, 3, 0, 1, 2, 0, 3, 2, 3, 0)
   True          15          0  (3, 2, 1, 2, 3, 0, 2, 0, 3, 2, 1, 1, 2, 3, 0, 3, 1, 2, 0, 3)
   True          23          0  (1, 0, 2, 0, 2, 0, 2, 3, 0, 1, 1, 1, 2, 3, 0, 2, 3, 0, 3, 1)
   True          15          0  (2, 1, 3, 1, 2, 0, 3, 0, 1, 2, 1, 2, 3, 2, 1, 1, 0, 3, 1, 2)
   True         103          0  (1, 3, 2, 3, 1, 2, 3, 0, 2, 1, 3, 1, 3, 0, 2, 3, 0, 2, 3, 1)
   True         410          0  (0, 3, 1, 3, 0, 1, 3, 2, 1, 3, 3, 0, 3, 0, 1, 0, 2, 1, 3, 0)
   True          42          0  (1, 0, 3, 0, 1, 2, 3, 2, 1, 3, 0, 0, 3, 0, 2, 1, 0, 3, 0, 1)
   True          78          0  (3, 1, 0, 1, 0, 0, 1, 2, 0, 3, 1, 3, 1, 2, 0, 0, 2, 3, 2, 1)
   True          27          0  (1, 3, 0, 3, 1, 0, 3, 2, 0, 3, 3, 2, 1, 2, 0, 1, 2, 0, 3, 1)
   True          16          0  (0, 1, 3, 1, 3, 2, 1, 2, 3, 0, 1, 0, 1, 3, 0, 1, 2, 0, 2, 1)
   True          52          0  (1, 0, 2, 0, 2, 3, 2, 3, 1, 0, 1, 0, 2, 0, 1, 1, 3, 0, 1, 2)
   True          10          0  (3, 2, 0, 2, 3, 0, 2, 1, 3, 2, 2, 1, 2, 1, 0, 3, 1, 0, 1, 3)
   True         250          0  (2, 1, 3, 1, 3, 1, 3, 0, 1, 3, 2, 0, 2, 3, 1, 2, 0, 1, 2, 3)
   True          23          0  (1, 2, 3, 2, 3, 3, 2, 0, 3, 1, 1, 0, 1, 0, 3, 3, 0, 2, 0, 1)
   True          18          0  (2, 3, 1, 3, 1, 3, 1, 0, 3, 2, 2, 0, 2, 0, 3, 1, 0, 3, 2, 1)
   True          14          0  (0, 1, 3, 1, 0, 1, 3, 2, 1, 0, 1, 2, 0, 3, 1, 1, 2, 3, 2, 0)
   True         151          0  (3, 1, 0, 1, 0, 0, 1, 2, 0, 3, 1, 2, 1, 2, 3, 1, 2, 3, 2, 0)
   True          15          0  (0, 1, 3, 1, 3, 2, 1, 2, 0, 1, 1, 3, 1, 3, 0, 3, 2, 0, 2, 3)
   True          35          0  (1, 2, 3, 2, 1, 3, 2, 0, 3, 1, 2, 0, 1, 2, 3, 2, 0, 3, 0, 1)
   True         506          0  (0, 1, 3, 1, 0, 1, 3, 2, 1, 3, 3, 0, 3, 0, 1, 0, 2, 1, 3, 0)
   True          30          0  (1, 0, 2, 0, 1, 3, 2, 3, 1, 2, 0, 0, 2, 1, 3, 1, 0, 2, 3, 1)
   True          14          0  (2, 3, 0, 3, 2, 1, 3, 1, 0, 3, 0, 2, 3, 0, 1, 0, 2, 3, 1, 0)
   True           8          0  (1, 0, 2, 0, 1, 3, 2, 3, 0, 1, 2, 1, 2, 1, 0, 2, 3, 0, 3, 1)
   True          15          0  (0, 3, 1, 3, 1, 1, 3, 2, 1, 3, 3, 0, 3, 2, 1, 1, 2, 0, 2, 3)
   True          98          0  (3, 0, 1, 0, 1, 1, 0, 2, 1, 3, 0, 2, 3, 2, 0, 0, 2, 3, 0, 1)
   True          75          0  (1, 3, 2, 3, 1, 0, 3, 0, 1, 3, 3, 2, 3, 1, 2, 1, 0, 2, 0, 1)
   True          25          0  (1, 3, 0, 3, 0, 2, 3, 2, 0, 1, 3, 1, 3, 0, 1, 0, 2, 1, 3, 0)
   True          92          0  (1, 3, 2, 3, 1, 3, 2, 0, 1, 2, 3, 0, 2, 0, 1, 1, 3, 2, 3, 0)
   True          55          0  (2, 1, 3, 1, 3, 0, 3, 0, 1, 3, 1, 2, 3, 1, 2, 1, 0, 2, 0, 1)
   True          27          0  (0, 1, 2, 1, 0, 2, 1, 3, 2, 0, 1, 3, 1, 3, 2, 1, 3, 2, 3, 1)
   True          21          0  (2, 0, 3, 0, 3, 0, 3, 1, 0, 2, 0, 1, 2, 3, 1, 0, 3, 2, 1, 0)
   True          12          0  (1, 2, 0, 2, 1, 3, 2, 3, 1, 2, 0, 0, 2, 1, 0, 1, 3, 2, 0, 1)
   True          15          0  (1, 3, 0, 3, 1, 0, 3, 2, 0, 1, 0, 2, 1, 3, 0, 0, 2, 3, 2, 1)
   True          33          0  (0, 2, 1, 2, 0, 3, 1, 3, 0, 1, 1, 2, 1, 2, 0, 0, 3, 2, 3, 1)
   True          13          0  (2, 0, 1, 0, 2, 0, 1, 3, 2, 1, 0, 3, 1, 2, 3, 2, 0, 1, 3, 2)
   True          12          0  (1, 0, 2, 0, 1, 0, 2, 3, 1, 0, 0, 3, 2, 3, 0, 1, 3, 2, 0, 1)
   True          33          0  (1, 3, 0, 3, 1, 3, 0, 2, 1, 0, 0, 2, 0, 2, 3, 1, 2, 3, 0, 1)
   True          11          0  (3, 2, 1, 2, 3, 2, 1, 0, 2, 3, 1, 0, 3, 0, 1, 1, 0, 2, 0, 3)
   True          32          0  (1, 3, 2, 3, 1, 2, 3, 0, 2, 1, 2, 0, 1, 3, 2, 2, 0, 3, 0, 1)
   True          41          0  (2, 0, 1, 0, 1, 3, 1, 3, 2, 0, 2, 0, 1, 2, 0, 2, 3, 0, 3, 2)
   True          29          0  (1, 2, 0, 2, 0, 3, 2, 3, 0, 2, 1, 1, 2, 1, 3, 0, 1, 2, 3, 0)
   True          97          0  (3, 0, 1, 0, 3, 2, 1, 2, 3, 1, 0, 0, 1, 0, 2, 3, 0, 1, 2, 3)
   True          15          0  (1, 3, 0, 3, 0, 3, 0, 2, 1, 0, 3, 2, 0, 1, 3, 3, 2, 1, 3, 0)
   True          20          0  (1, 0, 2, 0, 2, 3, 0, 3, 1, 2, 0, 2, 0, 1, 2, 0, 3, 1, 3, 0)
   True          19          0  (1, 2, 3, 2, 1, 0, 2, 0, 1, 3, 2, 3, 2, 1, 3, 1, 0, 3, 2, 1)
   True          12          0  (2, 0, 1, 0, 1, 1, 0, 3, 1, 2, 0, 3, 0, 2, 1, 0, 3, 2, 3, 0)
   True          69          0  (3, 2, 1, 2, 3, 0, 2, 0, 3, 2, 1, 1, 2, 3, 0, 3, 1, 2, 0, 3)
   True          78          0  (1, 2, 3, 2, 3, 3, 2, 0, 3, 1, 2, 0, 1, 2, 0, 3, 2, 1, 2, 3)
   True          15          0  (1, 2, 0, 2, 1, 0, 2, 3, 0, 2, 0, 1, 3, 1, 2, 0, 1, 2, 3, 0)
   True          11          0  (1, 2, 0, 2, 1, 2, 0, 3, 2, 1, 2, 1, 0, 3, 1, 2, 3, 0, 3, 2)
   True          20          0  (1, 3, 2, 3, 2, 2, 3, 0, 2, 3, 1, 1, 0, 1, 3, 2, 1, 3, 0, 2)
   True          10          0  (1, 2, 3, 2, 3, 3, 2, 0, 1, 3, 2, 0, 2, 0, 3, 2, 0, 1, 0, 2)
   True          38          0  (2, 3, 1, 3, 2, 1, 3, 0, 2, 3, 1, 0, 3, 2, 0, 2, 1, 3, 1, 2)
   True          22          0  (0, 2, 3, 2, 0, 3, 2, 1, 3, 2, 2, 0, 2, 0, 3, 0, 1, 3, 1, 2)
   True         233          0  (1, 0, 2, 0, 1, 2, 0, 3, 2, 0, 0, 1, 0, 1, 2, 1, 3, 2, 0, 1)
   True          13          0  (1, 2, 3, 2, 1, 3, 2, 0, 3, 2, 2, 1, 2, 1, 3, 1, 0, 3, 2, 1)
   True          14          0  (3, 1, 0, 1, 3, 2, 1, 2, 0, 1, 0, 3, 1, 3, 0, 3, 2, 1, 0, 3)
   True          27          0  (0, 1, 2, 1, 0, 1, 2, 3, 1, 0, 2, 3, 0, 2, 1, 2, 3, 1, 2, 0)
   True          17          0  (0, 2, 1, 2, 0, 2, 1, 3, 2, 0, 2, 3, 0, 3, 2, 2, 3, 1, 3, 0)
   True          38          0  (1, 2, 0, 2, 0, 3, 0, 3, 2, 1, 1, 1, 0, 1, 2, 0, 3, 2, 1, 0)
   True          51          0  (3, 0, 1, 0, 3, 1, 0, 2, 1, 3, 0, 2, 3, 0, 1, 0, 2, 1, 2, 3)
   True           8          0  (0, 1, 2, 1, 0, 3, 1, 3, 2, 1, 1, 0, 1, 2, 0, 0, 3, 2, 3, 1)
   True          34          0  (1, 2, 0, 2, 0, 2, 0, 3, 2, 1, 2, 1, 0, 3, 2, 0, 3, 1, 3, 0)
   True          17          0  (2, 0, 3, 0, 2, 3, 0, 1, 2, 0, 3, 1, 0, 2, 1, 2, 3, 0, 3, 2)
   True          17          0  (3, 0, 1, 0, 3, 0, 1, 2, 0, 1, 1, 3, 1, 3, 0, 3, 2, 0, 2, 1)
   True          16          0  (3, 0, 1, 0, 3, 0, 1, 2, 0, 1, 0, 2, 3, 2, 1, 0, 2, 1, 2, 3)
   True          47          0  (3, 0, 1, 0, 1, 1, 0, 2, 1, 0, 3, 3, 2, 0, 1, 1, 3, 0, 3, 2)
   True         100          0  (1, 2, 3, 2, 3, 0, 3, 0, 1, 2, 2, 2, 3, 2, 1, 3, 0, 1, 2, 3)
   True          12          0  (2, 3, 0, 3, 2, 1, 0, 1, 2, 3, 0, 3, 0, 3, 2, 0, 1, 3, 1, 0)
   True          13          0  (1, 2, 0, 2, 0, 3, 0, 3, 1, 0, 2, 2, 0, 2, 1, 2, 3, 1, 3, 2)
   True          35          0  (0, 3, 2, 3, 2, 2, 3, 1, 2, 0, 3, 1, 0, 3, 2, 2, 3, 0, 3, 1)
   True          16          0  (2, 1, 3, 1, 2, 3, 1, 0, 3, 2, 1, 0, 1, 2, 3, 1, 0, 3, 0, 1)
   True          57          0  (0, 1, 3, 1, 0, 2, 3, 2, 1, 3, 1, 0, 3, 0, 2, 1, 0, 3, 2, 1)
   True          13          0  (2, 1, 0, 1, 2, 1, 0, 3, 1, 0, 1, 3, 2, 3, 1, 1, 3, 0, 3, 2)
   True          17          0  (0, 1, 2, 1, 0, 1, 2, 3, 0, 1, 2, 3, 2, 3, 1, 0, 3, 1, 2, 0)
   True          17          0  (3, 0, 1, 0, 3, 0, 1, 2, 0, 3, 0, 2, 1, 3, 0, 0, 2, 1, 0, 3)
   True          13          0  (0, 1, 3, 1, 3, 3, 1, 2, 3, 0, 1, 0, 2, 1, 0, 3, 1, 0, 1, 2)
   True          17          0  (0, 2, 3, 2, 0, 2, 3, 1, 2, 0, 3, 1, 0, 1, 2, 3, 1, 2, 3, 0)
   True          13          0  (2, 3, 0, 3, 2, 0, 3, 1, 0, 3, 0, 1, 2, 3, 0, 2, 1, 3, 1, 2)
   True          25          0  (0, 2, 3, 2, 3, 2, 3, 1, 2, 3, 0, 1, 3, 1, 0, 0, 1, 2, 1, 3)
   True          92          0  (1, 3, 2, 3, 1, 2, 3, 0, 2, 1, 3, 0, 1, 0, 2, 3, 0, 2, 3, 1)
   True          52          0  (3, 0, 2, 0, 3, 0, 2, 1, 3, 2, 2, 1, 2, 3, 0, 3, 1, 0, 1, 2)
   True          78          0  (3, 2, 1, 2, 1, 2, 1, 0, 3, 2, 3, 0, 1, 0, 2, 1, 0, 2, 0, 1)
   True         129          0  (1, 3, 2, 3, 1, 2, 3, 0, 1, 3, 2, 0, 3, 0, 1, 1, 2, 3, 2, 0)
   True           9          0  (0, 3, 1, 3, 0, 1, 3, 2, 1, 0, 1, 2, 3, 0, 1, 1, 2, 3, 1, 0)
   True          62          0  (0, 1, 3, 1, 0, 2, 1, 2, 3, 1, 3, 0, 1, 0, 3, 0, 2, 1, 2, 0)
   True          24          0  (3, 1, 2, 1, 2, 1, 2, 0, 1, 2, 3, 0, 3, 0, 1, 3, 0, 1, 0, 3)
   True          24          0  (0, 3, 1, 3, 0, 1, 3, 2, 1, 3, 3, 2, 0, 2, 1, 0, 2, 1, 2, 0)
   True          51          0  (0, 2, 3, 2, 0, 2, 3, 1, 2, 3, 2, 1, 0, 3, 2, 2, 1, 3, 2, 0)
   True           6          0  (0, 2, 1, 2, 0, 3, 1, 3, 2, 1, 2, 0, 1, 0, 2, 2, 0, 1, 2, 3)
   True          17          0  (0, 3, 2, 3, 2, 2, 3, 1, 2, 3, 3, 1, 0, 1, 3, 2, 1, 0, 1, 2)
   True          22          0  (3, 0, 1, 0, 1, 0, 1, 2, 0, 3, 0, 2, 1, 2, 3, 0, 2, 3, 2, 0)
   True          90          0  (2, 0, 1, 0, 1, 0, 1, 3, 0, 2, 0, 2, 1, 2, 0, 1, 3, 2, 0, 1)
   True           7          0  (3, 2, 0, 2, 3, 1, 0, 1, 3, 0, 2, 2, 0, 2, 3, 3, 1, 0, 1, 2)
   True          26          0  (0, 1, 2, 1, 2, 3, 2, 3, 1, 0, 1, 0, 2, 1, 0, 1, 3, 0, 3, 2)
   True          40          0  (2, 0, 3, 0, 2, 0, 3, 1, 0, 2, 3, 2, 3, 2, 0, 3, 1, 0, 3, 2)
   True          19          0  (2, 3, 0, 3, 0, 3, 0, 1, 3, 2, 2, 1, 2, 0, 3, 0, 1, 3, 1, 2)
   True          29          0  (2, 0, 3, 0, 3, 3, 0, 1, 2, 0, 2, 1, 0, 1, 3, 2, 1, 0, 1, 2)
   True          43          0  (0, 3, 1, 3, 0, 1, 3, 2, 1, 0, 3, 2, 0, 2, 3, 3, 2, 1, 2, 0)
   True           7          0  (2, 0, 3, 0, 2, 1, 3, 1, 2, 3, 0, 0, 3, 2, 1, 2, 0, 3, 1, 2)
   True          34          0  (3, 0, 2, 0, 3, 1, 2, 1, 0, 3, 0, 3, 2, 0, 3, 0, 1, 2, 1, 0)
   True         424          0  (2, 3, 0, 3, 2, 3, 0, 1, 3, 2, 0, 1, 2, 0, 3, 0, 1, 3, 0, 2)
   True         197          0  (3, 2, 0, 2, 3, 2, 0, 1, 2, 3, 0, 3, 0, 3, 2, 0, 1, 2, 1, 3)
   True          63          0  (2, 3, 0, 3, 0, 0, 3, 1, 0, 2, 3, 2, 3, 1, 2, 3, 1, 2, 3, 0)
   True          12          0  (2, 1, 3, 1, 3, 3, 1, 0, 2, 1, 1, 0, 1, 0, 2, 3, 0, 2, 1, 3)
   True          10          0  (0, 3, 1, 3, 0, 1, 3, 2, 0, 3, 1, 2, 3, 0, 2, 0, 1, 3, 1, 0)
   True           5          0  (0, 2, 1, 2, 0, 3, 2, 3, 1, 0, 1, 0, 2, 0, 1, 1, 3, 2, 1, 0)
   True          55          0  (2, 1, 3, 1, 3, 1, 3, 0, 2, 1, 1, 0, 3, 0, 1, 3, 0, 2, 0, 3)
   True          39          0  (3, 1, 0, 1, 3, 0, 1, 2, 0, 1, 1, 3, 1, 3, 0, 3, 2, 0, 2, 3)
   True          20          0  (0, 3, 1, 3, 0, 1, 3, 2, 0, 1, 1, 2, 3, 2, 0, 0, 2, 3, 2, 1)
   True          93          0  (0, 1, 3, 1, 0, 1, 3, 2, 1, 3, 1, 2, 3, 2, 1, 1, 0, 3, 1, 2)
   True           8          0  (0, 3, 1, 3, 1, 2, 3, 2, 0, 3, 0, 1, 3, 1, 2, 0, 1, 3, 2, 0)
   True          53          0  (3, 2, 0, 2, 0, 0, 2, 1, 0, 2, 3, 1, 3, 1, 2, 0, 1, 2, 3, 0)
   True          12          0  (1, 0, 2, 0, 2, 0, 2, 3, 0, 1, 1, 3, 2, 1, 0, 2, 3, 0, 3, 2)
   True          47          0  (2, 1, 0, 1, 2, 3, 0, 3, 1, 0, 1, 2, 0, 2, 1, 1, 2, 0, 1, 3)
   True           9          0  (2, 3, 0, 3, 2, 0, 3, 1, 0, 3, 0, 1, 3, 1, 0, 2, 1, 3, 0, 2)
   True          19          0  (1, 3, 2, 3, 2, 2, 3, 0, 2, 3, 3, 0, 1, 0, 3, 2, 0, 1, 0, 2)
   True           8          0  (2, 1, 3, 1, 2, 1, 3, 0, 1, 2, 3, 0, 2, 0, 1, 3, 0, 1, 0, 3)
   True          29          0  (2, 1, 0, 1, 2, 3, 0, 3, 1, 0, 0, 2, 0, 2, 1, 2, 3, 1, 0, 2)
   True         187          0  (3, 2, 0, 2, 3, 1, 0, 1, 3, 0, 2, 2, 0, 3, 1, 3, 2, 0, 2, 3)
   True          38          0  (3, 2, 1, 2, 3, 2, 1, 0, 3, 1, 2, 0, 1, 3, 0, 3, 2, 1, 2, 3)
   True           9          0  (3, 2, 1, 2, 1, 1, 2, 0, 1, 2, 2, 3, 2, 0, 3, 1, 0, 3, 0, 1)
   True          10          0  (1, 2, 3, 2, 3, 3, 2, 0, 1, 3, 1, 0, 2, 0, 3, 1, 0, 2, 0, 1)
   True           9          0  (2, 0, 1, 0, 1, 0, 1, 3, 0, 1, 0, 3, 2, 3, 1, 0, 3, 2, 3, 0)
   True          15          0  (1, 2, 3, 2, 1, 3, 2, 0, 3, 1, 3, 0, 1, 0, 2, 3, 0, 2, 0, 1)
   True         202          0  (0, 1, 2, 1, 2, 2, 1, 3, 0, 2, 1, 3, 1, 0, 2, 1, 3, 0, 3, 1)
   True          25          0  (2, 0, 1, 0, 1, 1, 0, 3, 1, 2, 0, 2, 3, 0, 1, 1, 0, 2, 0, 3)
   True          31          0  (1, 0, 2, 0, 2, 2, 0, 3, 2, 1, 0, 3, 1, 0, 3, 2, 0, 1, 0, 2)
   True          13          0  (2, 1, 0, 1, 0, 1, 0, 3, 2, 1, 1, 3, 0, 2, 1, 0, 3, 2, 3, 0)
   True          13          0  (1, 2, 3, 2, 3, 3, 2, 0, 1, 3, 1, 0, 2, 0, 1, 1, 0, 2, 1, 3)
   True         732          0  (2, 1, 3, 1, 2, 0, 3, 0, 2, 3, 1, 1, 3, 2, 0, 2, 1, 3, 1, 2)
   True          11          0  (3, 2, 1, 2, 3, 0, 2, 0, 1, 2, 1, 3, 2, 3, 1, 3, 0, 2, 0, 3)
   True          16          0  (3, 2, 0, 2, 0, 0, 2, 1, 0, 3, 2, 3, 1, 2, 3, 0, 2, 3, 1, 0)
   True          51          0  (3, 1, 2, 1, 2, 2, 1, 0, 2, 1, 3, 3, 1, 3, 0, 2, 3, 1, 0, 2)
   True          20          0  (1, 2, 0, 2, 1, 2, 0, 3, 1, 0, 2, 3, 0, 3, 1, 2, 3, 0, 3, 2)
   True          43          0  (0, 1, 2, 1, 0, 2, 1, 3, 0, 2, 1, 3, 1, 3, 2, 1, 3, 2, 3, 1)
   True          20          0  (0, 1, 3, 1, 0, 1, 3, 2, 1, 3, 1, 2, 3, 0, 1, 1, 0, 3, 1, 2)
   True          87          0  (0, 3, 1, 3, 0, 2, 1, 2, 0, 1, 3, 3, 1, 0, 2, 0, 3, 1, 2, 0)
   True          24          0  (2, 1, 3, 1, 3, 3, 1, 0, 3, 1, 1, 0, 2, 0, 1, 3, 0, 2, 1, 3)
   True          17          0  (0, 3, 1, 3, 1, 3, 1, 2, 3, 1, 3, 2, 1, 2, 0, 3, 2, 0, 3, 1)
   True          24          0  (2, 3, 1, 3, 2, 3, 1, 0, 3, 1, 3, 0, 2, 0, 1, 3, 0, 1, 0, 2)
   True          42          0  (0, 2, 1, 2, 0, 3, 1, 3, 2, 0, 2, 0, 1, 2, 0, 2, 3, 1, 3, 2)
   True          27          0  (0, 3, 2, 3, 2, 2, 3, 1, 2, 0, 0, 0, 3, 1, 2, 2, 1, 3, 1, 0)
   True          13          0  (3, 2, 1, 2, 3, 1, 2, 0, 1, 2, 2, 0, 3, 0, 2, 3, 0, 1, 0, 3)
   True          27          0  (2, 3, 0, 3, 2, 1, 0, 1, 2, 3, 0, 3, 0, 2, 3, 2, 1, 3, 1, 2)
   True          13          0  (1, 3, 2, 3, 1, 2, 3, 0, 2, 3, 2, 1, 0, 3, 2, 2, 1, 3, 2, 0)
   True          19          0  (2, 1, 3, 1, 2, 0, 3, 0, 1, 3, 1, 2, 3, 2, 1, 1, 0, 3, 1, 2)
   True          17          0  (2, 0, 1, 0, 2, 0, 1, 3, 0, 2, 1, 2, 1, 3, 0, 1, 3, 0, 1, 2)
   True           7          0  (1, 0, 3, 0, 3, 3, 0, 2, 3, 0, 1, 2, 0, 1, 2, 3, 1, 0, 2, 3)
   True          24          0  (2, 3, 0, 3, 0, 3, 0, 1, 3, 0, 2, 2, 0, 2, 3, 2, 1, 3, 2, 0)
   True          19          0  (3, 1, 0, 1, 0, 1, 0, 2, 3, 0, 3, 2, 0, 3, 1, 3, 2, 1, 3, 0)
   True          17          0  (3, 1, 0, 1, 0, 0, 1, 2, 0, 3, 1, 3, 2, 1, 3, 0, 1, 3, 1, 2)
   True          39          0  (1, 3, 0, 3, 0, 0, 3, 2, 1, 3, 1, 2, 3, 2, 1, 1, 0, 3, 1, 2)
   True          16          0  (2, 0, 1, 0, 1, 3, 1, 3, 2, 0, 2, 0, 1, 0, 2, 2, 3, 0, 3, 1)
   True          13          0  (2, 1, 3, 1, 2, 0, 3, 0, 1, 2, 1, 2, 3, 1, 2, 1, 0, 3, 0, 1)
   True         218          0  (0, 2, 3, 2, 0, 3, 2, 1, 3, 0, 2, 0, 2, 0, 3, 2, 1, 3, 2, 0)
   True          20          0  (0, 2, 1, 2, 1, 1, 2, 3, 1, 0, 2, 0, 3, 2, 0, 1, 2, 0, 2, 1)
   True          31          0  (3, 0, 1, 0, 1, 2, 1, 2, 3, 1, 0, 0, 1, 0, 3, 0, 2, 3, 2, 0)
   True          11          0  (2, 1, 3, 1, 2, 0, 1, 0, 2, 1, 3, 3, 1, 2, 3, 3, 0, 1, 3, 2)
   True          10          0  (2, 0, 1, 0, 2, 3, 0, 3, 2, 0, 0, 1, 0, 2, 1, 2, 3, 1, 0, 2)
   True          77          0  (0, 1, 2, 1, 2, 1, 2, 3, 0, 1, 1, 3, 2, 0, 1, 2, 3, 0, 1, 2)
   True         248          0  (0, 1, 3, 1, 0, 3, 1, 2, 0, 3, 1, 2, 1, 0, 3, 0, 2, 3, 2, 0)
   True          84          0  (0, 3, 1, 3, 1, 1, 3, 2, 1, 0, 3, 2, 0, 3, 2, 1, 3, 0, 2, 1)
   True          11          0  (1, 0, 2, 0, 1, 3, 2, 3, 0, 2, 2, 1, 2, 1, 0, 1, 3, 0, 2, 1)
   True          11          0  (2, 0, 3, 0, 2, 0, 3, 1, 0, 3, 0, 1, 2, 3, 0, 0, 1, 3, 1, 2)
   True           6          0  (0, 1, 3, 1, 3, 3, 1, 2, 3, 1, 0, 0, 1, 2, 3, 3, 2, 1, 2, 0)
   True          15          0  (0, 2, 3, 2, 3, 1, 3, 1, 2, 0, 0, 0, 3, 0, 2, 3, 1, 2, 0, 3)
   True          31          0  (2, 1, 3, 1, 3, 1, 3, 0, 1, 2, 2, 2, 3, 2, 1, 3, 0, 1, 0, 3)
   True          45          0  (1, 2, 3, 2, 1, 3, 2, 0, 3, 2, 3, 0, 1, 2, 3, 1, 0, 2, 0, 1)
   True         157          0  (2, 0, 1, 0, 2, 3, 0, 3, 1, 2, 0, 2, 0, 2, 1, 0, 3, 1, 0, 2)
   True          21          0  (2, 1, 0, 1, 2, 0, 1, 3, 2, 0, 0, 3, 1, 3, 0, 2, 3, 1, 0, 2)
   True          64          0  (3, 0, 1, 0, 1, 0, 1, 2, 0, 3, 3, 2, 1, 2, 0, 1, 2, 0, 2, 1)
   True          30          0  (0, 1, 2, 1, 2, 3, 2, 3, 0, 1, 1, 1, 2, 1, 0, 2, 3, 0, 1, 2)
   True          28          0  (2, 3, 1, 3, 2, 1, 3, 0, 1, 3, 1, 0, 3, 2, 0, 1, 2, 3, 0, 1)
   True         582          0  (1, 3, 2, 3, 1, 3, 2, 0, 3, 1, 2, 0, 2, 0, 3, 2, 0, 3, 2, 1)
   True          83          0  (3, 2, 1, 2, 1, 0, 1, 0, 3, 2, 2, 2, 1, 2, 3, 1, 0, 3, 0, 1)
   True           9          0  (0, 2, 1, 2, 1, 3, 2, 3, 1, 0, 2, 0, 2, 1, 0, 2, 3, 0, 3, 1)
   True          83          0  (0, 3, 2, 3, 2, 3, 2, 1, 3, 0, 3, 1, 2, 1, 0, 2, 1, 0, 1, 3)
   True         191          0  (0, 2, 3, 2, 3, 1, 3, 1, 2, 3, 0, 0, 3, 0, 2, 0, 1, 2, 1, 3)
   True          18          0  (1, 2, 0, 2, 0, 3, 0, 3, 2, 0, 1, 1, 0, 1, 2, 1, 3, 2, 3, 0)
   True          37          0  (1, 2, 3, 2, 3, 0, 3, 0, 1, 2, 2, 2, 3, 2, 1, 3, 0, 1, 0, 3)
   True          85          0  (1, 2, 3, 2, 1, 0, 3, 0, 1, 3, 3, 2, 3, 2, 1, 1, 0, 2, 0, 3)
   True          14          0  (1, 0, 3, 0, 1, 2, 3, 2, 1, 0, 0, 0, 3, 0, 1, 1, 2, 3, 2, 0)
   True         604          0  (1, 0, 2, 0, 1, 0, 2, 3, 0, 1, 2, 1, 2, 3, 0, 2, 3, 0, 2, 1)
   True          38          0  (1, 3, 0, 3, 0, 2, 3, 2, 1, 0, 1, 0, 3, 1, 0, 1, 2, 3, 2, 1)
   True          96          0  (3, 2, 1, 2, 3, 2, 1, 0, 2, 1, 2, 0, 3, 0, 1, 2, 0, 1, 0, 3)
   True          58          0  (0, 1, 3, 1, 3, 2, 3, 2, 1, 3, 0, 0, 3, 0, 1, 0, 2, 1, 2, 3)
   True          23          0  (1, 0, 3, 0, 3, 0, 3, 2, 0, 3, 0, 2, 3, 2, 0, 0, 2, 1, 0, 3)
   True          10          0  (1, 3, 0, 3, 0, 3, 0, 2, 3, 0, 1, 2, 1, 0, 3, 1, 2, 3, 2, 0)
   True          20          0  (0, 2, 3, 2, 0, 1, 3, 1, 0, 2, 3, 2, 3, 0, 2, 0, 1, 2, 1, 3)
   True          21          0  (0, 3, 1, 3, 1, 2, 1, 2, 3, 1, 3, 0, 1, 3, 0, 3, 2, 0, 2, 3)
   True           9          0  (1, 3, 2, 3, 1, 2, 3, 0, 2, 3, 3, 0, 1, 3, 2, 1, 0, 2, 0, 3)
   True          26          0  (3, 1, 0, 1, 3, 0, 1, 2, 0, 3, 0, 3, 1, 3, 0, 0, 2, 1, 2, 3)
   True         157          0  (0, 1, 3, 1, 0, 2, 3, 2, 0, 3, 1, 1, 3, 1, 0, 0, 1, 3, 1, 2)
   True         206          0  (3, 0, 2, 0, 3, 2, 0, 1, 2, 0, 2, 3, 1, 3, 0, 2, 3, 0, 2, 1)
   True          11          0  (0, 1, 3, 1, 3, 3, 1, 2, 3, 1, 0, 2, 1, 0, 2, 3, 0, 1, 0, 3)
   True          16          0  (2, 0, 1, 0, 1, 0, 1, 3, 0, 2, 0, 3, 1, 2, 0, 0, 3, 2, 3, 1)
   True          15          0  (0, 2, 3, 2, 3, 2, 3, 1, 0, 3, 0, 1, 3, 1, 0, 0, 1, 2, 0, 3)
   True          21          0  (0, 3, 2, 3, 0, 1, 2, 1, 3, 2, 3, 0, 2, 3, 1, 3, 0, 2, 1, 3)
   True         138          0  (2, 1, 0, 1, 2, 1, 0, 3, 1, 2, 0, 2, 0, 2, 1, 0, 3, 1, 0, 2)
   True          25          0  (3, 0, 1, 0, 3, 1, 0, 2, 1, 0, 1, 3, 0, 2, 3, 1, 2, 0, 2, 1)
   True          24          0  (3, 0, 1, 0, 1, 1, 0, 2, 1, 3, 0, 3, 2, 0, 3, 1, 0, 3, 2, 1)
   True         197          0  (2, 3, 0, 3, 0, 0, 3, 1, 0, 2, 3, 1, 2, 1, 0, 0, 3, 2, 3, 1)
   True          14          0  (1, 2, 0, 2, 1, 0, 2, 3, 1, 2, 0, 3, 2, 3, 1, 0, 3, 2, 3, 0)
   True          53          0  (3, 1, 2, 1, 2, 2, 1, 0, 2, 3, 1, 0, 3, 0, 1, 2, 0, 3, 0, 2)
   True          32          0  (2, 3, 1, 3, 1, 0, 3, 0, 1, 3, 2, 2, 3, 2, 0, 1, 2, 3, 0, 1)
   True          11          0  (3, 0, 1, 0, 3, 0, 1, 2, 0, 1, 0, 3, 2, 3, 1, 0, 3, 1, 2, 0)
   True           8          0  (2, 3, 1, 3, 2, 0, 3, 0, 1, 2, 3, 2, 3, 1, 2, 3, 0, 1, 0, 3)
   True          25          0  (1, 3, 2, 3, 1, 3, 2, 0, 3, 2, 2, 0, 1, 2, 3, 1, 0, 3, 2, 1)
   True          72          0  (0, 1, 3, 1, 3, 3, 1, 2, 0, 1, 0, 2, 1, 0, 2, 0, 3, 1, 2, 0)
   True          41          0  (3, 0, 1, 0, 1, 0, 1, 2, 0, 3, 0, 3, 2, 1, 0, 0, 1, 3, 0, 2)
   True          87          0  (1, 3, 0, 3, 0, 3, 0, 2, 3, 0, 3, 1, 0, 2, 3, 3, 2, 1, 2, 0)
   True          89          0  (0, 3, 1, 3, 0, 3, 1, 2, 3, 1, 3, 0, 1, 0, 3, 3, 2, 1, 3, 0)
   True          18          0  (0, 3, 2, 3, 0, 1, 2, 1, 0, 2, 3, 3, 2, 0, 3, 0, 1, 2, 1, 0)
   True          11          0  (0, 3, 2, 3, 0, 2, 3, 1, 0, 3, 2, 1, 3, 0, 2, 2, 1, 3, 1, 0)
   True          11          0  (0, 3, 2, 3, 0, 1, 3, 1, 0, 3, 3, 2, 3, 2, 0, 0, 1, 2, 1, 3)
   True          24          0  (3, 2, 1, 2, 1, 0, 1, 0, 3, 1, 2, 2, 1, 2, 3, 2, 0, 3, 0, 1)
   True           6          0  (2, 3, 0, 3, 0, 1, 0, 1, 3, 0, 2, 2, 0, 2, 3, 2, 1, 3, 1, 2)
   True          40          0  (2, 3, 0, 3, 0, 3, 0, 1, 3, 2, 2, 2, 0, 2, 3, 0, 1, 3, 2, 0)
   True         154          0  (1, 0, 3, 0, 1, 0, 3, 2, 0, 3, 3, 2, 1, 2, 0, 1, 2, 0, 3, 1)
   True          23          0  (0, 1, 3, 1, 3, 1, 3, 2, 0, 1, 1, 2, 3, 0, 1, 3, 2, 0, 1, 3)
   True          11          0  (2, 1, 3, 1, 2, 0, 3, 0, 2, 3, 3, 1, 3, 1, 2, 2, 0, 1, 0, 3)
   True          23          0  (0, 3, 1, 3, 1, 1, 3, 2, 1, 0, 3, 0, 3, 2, 0, 3, 2, 0, 2, 3)
   True          77          0  (2, 3, 1, 3, 2, 1, 3, 0, 2, 3, 1, 0, 3, 2, 0, 2, 1, 3, 0, 2)
   True          16          0  (2, 1, 3, 1, 3, 3, 1, 0, 3, 2, 1, 0, 2, 1, 0, 3, 1, 2, 1, 3)
   True           6          0  (2, 3, 0, 3, 2, 1, 0, 1, 2, 0, 3, 3, 0, 2, 3, 2, 1, 0, 1, 2)
   True          90          0  (3, 2, 1, 2, 3, 2, 1, 0, 2, 1, 2, 3, 1, 0, 3, 2, 0, 1, 0, 2)
   True          14          0  (3, 2, 0, 2, 3, 1, 2, 1, 0, 2, 2, 3, 2, 3, 0, 3, 1, 0, 1, 3)
   True          10          0  (3, 0, 2, 0, 3, 0, 2, 1, 0, 2, 2, 1, 2, 3, 0, 3, 1, 0, 1, 3)
   True          48          0  (2, 0, 3, 0, 2, 0, 3, 1, 0, 2, 3, 1, 3, 2, 0, 3, 1, 0, 1, 3)
   True          12          0  (0, 3, 2, 3, 2, 1, 2, 1, 0, 2, 3, 3, 2, 3, 0, 3, 1, 0, 3, 2)
   True          47          0  (0, 3, 1, 3, 1, 3, 1, 2, 3, 0, 0, 2, 0, 1, 3, 1, 2, 3, 2, 0)
   True         312          0  (1, 0, 2, 0, 2, 3, 2, 3, 1, 0, 1, 0, 2, 1, 0, 1, 3, 0, 1, 2)
   True          72          0  (2, 1, 3, 1, 3, 0, 3, 0, 2, 3, 1, 1, 3, 1, 2, 1, 0, 2, 0, 1)
   True          13          0  (1, 2, 3, 2, 1, 2, 3, 0, 2, 3, 2, 1, 3, 0, 2, 2, 0, 3, 0, 1)
   True         104          0  (3, 2, 1, 2, 1, 1, 2, 0, 1, 3, 3, 0, 3, 2, 1, 1, 0, 2, 0, 3)
   True          98          0  (1, 0, 3, 0, 3, 2, 3, 2, 0, 3, 1, 1, 3, 0, 1, 1, 2, 0, 2, 3)
   True          41          0  (2, 1, 3, 1, 3, 1, 3, 0, 1, 2, 1, 2, 3, 0, 2, 1, 0, 2, 0, 3)
   True          13          0  (1, 0, 3, 0, 1, 0, 3, 2, 1, 0, 3, 2, 3, 1, 0, 1, 2, 0, 2, 1)
   True           8          0  (1, 0, 2, 0, 2, 2, 0, 3, 2, 1, 0, 1, 0, 1, 2, 2, 3, 1, 3, 0)
   True          14          0  (3, 0, 1, 0, 3, 2, 1, 2, 0, 1, 0, 3, 1, 3, 0, 3, 2, 1, 0, 3)
   True         212          0  (0, 2, 1, 2, 1, 3, 1, 3, 0, 2, 2, 2, 1, 2, 0, 1, 3, 0, 2, 1)
   True          12          0  (3, 1, 2, 1, 2, 2, 1, 0, 2, 1, 3, 3, 0, 3, 2, 2, 3, 1, 3, 0)
   True         166          0  (0, 1, 2, 1, 0, 3, 2, 3, 0, 2, 1, 1, 2, 1, 0, 0, 1, 2, 1, 3)
   True          19          0  (2, 1, 3, 1, 2, 3, 1, 0, 2, 1, 3, 0, 1, 0, 3, 2, 0, 1, 0, 2)
   True          39          0  (0, 3, 1, 3, 0, 1, 3, 2, 1, 3, 3, 2, 3, 0, 1, 0, 2, 1, 2, 3)
   True          20          0  (0, 3, 2, 3, 2, 3, 2, 1, 3, 2, 3, 1, 0, 1, 3, 3, 1, 0, 3, 2)
   True          63          0  (2, 0, 3, 0, 3, 0, 3, 1, 0, 3, 2, 1, 2, 1, 3, 2, 1, 0, 1, 2)
   True          37          0  (3, 1, 0, 1, 0, 0, 1, 2, 0, 3, 1, 3, 2, 1, 3, 0, 1, 3, 2, 0)
   True          60          0  (1, 0, 2, 0, 1, 3, 0, 3, 1, 2, 0, 2, 0, 1, 2, 1, 3, 2, 3, 1)
   True          64          0  (1, 3, 2, 3, 2, 2, 3, 0, 2, 1, 3, 0, 1, 3, 0, 2, 3, 1, 0, 2)
   True           8          0  (1, 3, 0, 3, 1, 3, 0, 2, 3, 0, 3, 2, 0, 2, 1, 1, 2, 0, 2, 3)
   True          12          0  (3, 0, 2, 0, 3, 1, 2, 1, 3, 0, 2, 0, 2, 3, 0, 2, 1, 0, 2, 3)
   True          15          0  (0, 1, 2, 1, 0, 1, 2, 3, 0, 1, 1, 3, 2, 3, 0, 0, 3, 2, 3, 1)
   True          74          0  (1, 3, 2, 3, 1, 3, 2, 0, 3, 1, 2, 0, 1, 0, 2, 2, 0, 3, 2, 1)
   True          21          0  (1, 0, 2, 0, 1, 3, 2, 3, 1, 2, 0, 0, 2, 1, 0, 0, 3, 2, 3, 1)
   True          12          0  (2, 0, 1, 0, 1, 0, 1, 3, 0, 1, 0, 3, 1, 3, 0, 0, 3, 2, 3, 1)
   True          20          0  (0, 3, 1, 3, 0, 2, 1, 2, 0, 1, 1, 3, 1, 3, 0, 0, 2, 3, 2, 1)
   True          17          0  (2, 1, 0, 1, 2, 0, 1, 3, 0, 2, 0, 3, 1, 2, 0, 0, 3, 1, 0, 2)
   True          21          0  (3, 2, 0, 2, 0, 1, 2, 1, 3, 0, 3, 0, 2, 3, 0, 3, 1, 2, 1, 3)
   True          60          0  (1, 2, 3, 2, 3, 3, 2, 0, 3, 2, 1, 0, 1, 0, 2, 1, 0, 2, 0, 1)
   True          56          0  (2, 3, 0, 3, 0, 3, 0, 1, 3, 2, 3, 1, 2, 0, 1, 3, 0, 2, 1, 3)
   True          16          0  (0, 2, 3, 2, 3, 1, 3, 1, 2, 0, 2, 0, 3, 2, 0, 3, 1, 0, 1, 2)
   True          44          0  (3, 1, 2, 1, 2, 2, 1, 0, 3, 1, 3, 0, 1, 0, 3, 2, 0, 1, 3, 2)
   True          13          0  (2, 1, 0, 1, 2, 1, 0, 3, 1, 0, 1, 2, 3, 2, 0, 1, 2, 0, 1, 3)
   True          13          0  (1, 3, 0, 3, 1, 3, 0, 2, 3, 0, 0, 1, 0, 1, 3, 1, 2, 3, 2, 0)
   True         160          0  (2, 3, 1, 3, 1, 3, 1, 0, 3, 2, 2, 0, 1, 0, 3, 1, 0, 3, 2, 1)
   True          15          0  (2, 0, 3, 0, 3, 0, 3, 1, 0, 3, 2, 1, 3, 2, 0, 2, 1, 0, 1, 2)
   True          44          0  (2, 0, 1, 0, 1, 3, 0, 3, 2, 1, 0, 1, 0, 2, 1, 0, 3, 2, 3, 0)
   True          44          0  (2, 1, 0, 1, 0, 1, 0, 3, 1, 2, 1, 2, 3, 0, 1, 1, 0, 2, 1, 3)
   True          62          0  (1, 0, 3, 0, 3, 0, 3, 2, 0, 3, 1, 1, 3, 2, 0, 1, 2, 0, 1, 3)
   True          30          0  (2, 3, 1, 3, 1, 1, 3, 0, 2, 1, 3, 0, 3, 0, 2, 3, 0, 2, 0, 3)
   True         182          0  (2, 0, 3, 0, 2, 3, 0, 1, 3, 0, 0, 2, 0, 2, 3, 2, 1, 3, 1, 0)
   True          75          0  (3, 0, 1, 0, 3, 0, 1, 2, 0, 1, 0, 2, 1, 3, 0, 0, 2, 1, 0, 3)
   True         386          0  (0, 3, 2, 3, 0, 1, 2, 1, 0, 3, 2, 3, 2, 0, 3, 0, 1, 3, 2, 0)
   True          22          0  (1, 3, 2, 3, 1, 2, 3, 0, 2, 3, 3, 0, 1, 0, 2, 1, 0, 2, 0, 1)
   True          13          0  (1, 0, 3, 0, 1, 0, 3, 2, 0, 3, 3, 1, 3, 2, 1, 1, 2, 0, 2, 3)
   True          40          0  (2, 0, 1, 0, 1, 3, 1, 3, 2, 0, 0, 0, 1, 0, 2, 1, 3, 2, 0, 1)
   True          24          0  (0, 2, 3, 2, 3, 3, 2, 1, 3, 0, 0, 1, 0, 1, 2, 3, 1, 2, 0, 3)
   True          32          0  (1, 0, 3, 0, 3, 0, 3, 2, 0, 3, 1, 1, 3, 1, 0, 1, 2, 0, 1, 3)
   True           7          0  (0, 1, 2, 1, 0, 1, 2, 3, 1, 2, 1, 3, 2, 0, 1, 1, 3, 2, 3, 0)
   True          14          0  (0, 3, 2, 3, 2, 1, 2, 1, 0, 3, 3, 3, 2, 0, 3, 2, 1, 0, 3, 2)
   True          26          0  (0, 2, 1, 2, 1, 2, 1, 3, 2, 0, 2, 3, 0, 3, 2, 1, 3, 0, 2, 1)
   True          16          0  (3, 2, 1, 2, 1, 2, 1, 0, 2, 3, 3, 3, 1, 3, 2, 1, 0, 2, 0, 3)
   True         179          0  (2, 1, 3, 1, 3, 0, 3, 0, 1, 2, 1, 2, 3, 1, 2, 3, 0, 2, 1, 3)
   True          28          0  (2, 0, 1, 0, 2, 3, 1, 3, 2, 0, 0, 0, 1, 0, 2, 2, 3, 1, 3, 0)
   True          25          0  (2, 0, 3, 0, 2, 0, 3, 1, 2, 0, 0, 1, 3, 2, 0, 2, 1, 3, 1, 2)
   True           9          0  (3, 2, 0, 2, 3, 0, 2, 1, 0, 2, 0, 1, 2, 1, 0, 0, 1, 2, 0, 3)
   True          75          0  (0, 2, 3, 2, 3, 2, 3, 1, 2, 0, 2, 0, 1, 0, 2, 2, 3, 0, 2, 1)
   True          43          0  (1, 0, 2, 0, 1, 2, 0, 3, 2, 0, 2, 1, 0, 1, 3, 2, 1, 0, 3, 2)
   True          97          0  (1, 3, 0, 3, 1, 3, 0, 2, 3, 0, 0, 2, 1, 0, 3, 1, 2, 3, 2, 1)
   True          15          0  (3, 2, 0, 2, 3, 0, 2, 1, 0, 2, 0, 1, 2, 3, 1, 0, 3, 2, 1, 0)
   True          42          0  (1, 2, 3, 2, 3, 0, 2, 0, 1, 2, 2, 3, 2, 3, 1, 3, 0, 1, 0, 2)
