Test Parameters:
	filename: graph50.txt
	numRuns: 50
	colors: 4
	max generations: 10000
	population size: 30
	mutation chance: 0.8
	tournament size: 15
	tournament chance: 0.5

Summary:
50 tests were run. 84.0% of them succeeded.
Of the successes, the average number iterations was 1475.43 (min 34, max 9531).
Of the failures, the average conflicts in the best result was 1.00 (min 1, max 1)

All results:
Success  Iterations  Conflicts  Color Sequence
   True         457          0  (0, 1, 2, 3, 0, 1, 0, 3, 2, 3, 1, 3, 1, 3, 3, 1, 3, 0, 2, 2, 2, 0, 1, 0, 1, 3, 2, 1, 1, 1, 3, 1, 2, 2, 0, 2, 3, 3, 0, 0, 3, 1, 0, 2, 2, 1, 1, 2, 3, 0)
  False        9999          1  (0, 3, 2, 0, 1, 2, 2, 1, 3, 0, 1, 0, 1, 2, 0, 1, 1, 2, 3, 3, 3, 0, 2, 0, 2, 2, 3, 1, 1, 2, 2, 2, 3, 3, 1, 3, 0, 2, 0, 1, 1, 0, 0, 3, 0, 1, 2, 3, 3, 0)
  False        9999          1  (1, 0, 3, 3, 1, 2, 1, 3, 0, 0, 1, 3, 2, 3, 2, 1, 1, 3, 1, 2, 1, 0, 2, 0, 3, 1, 3, 0, 3, 0, 2, 2, 3, 1, 2, 0, 3, 2, 1, 1, 0, 0, 1, 3, 1, 0, 0, 3, 2, 1)
   True         353          0  (1, 3, 2, 2, 0, 2, 1, 2, 0, 3, 0, 2, 3, 2, 1, 0, 1, 2, 1, 1, 3, 0, 3, 0, 2, 3, 1, 0, 1, 2, 3, 3, 2, 3, 0, 2, 1, 3, 0, 0, 1, 2, 0, 1, 3, 2, 2, 3, 1, 0)
   True         200          0  (2, 0, 3, 3, 2, 3, 2, 3, 1, 1, 0, 3, 0, 1, 1, 2, 0, 3, 1, 0, 3, 3, 2, 1, 2, 1, 0, 2, 2, 2, 1, 3, 2, 3, 0, 3, 1, 1, 2, 0, 0, 2, 0, 3, 3, 3, 2, 1, 0, 3)
   True        1652          0  (0, 2, 3, 3, 0, 1, 0, 3, 2, 1, 0, 0, 1, 3, 2, 0, 0, 3, 2, 2, 3, 0, 3, 1, 0, 3, 2, 1, 2, 0, 3, 3, 2, 3, 1, 0, 2, 2, 1, 3, 0, 0, 3, 1, 3, 0, 0, 2, 1, 3)
   True         239          0  (3, 0, 1, 1, 3, 1, 3, 1, 0, 0, 2, 1, 2, 0, 0, 1, 3, 3, 0, 2, 3, 1, 2, 0, 2, 0, 3, 1, 2, 0, 0, 1, 2, 3, 1, 3, 2, 1, 2, 0, 3, 3, 0, 2, 0, 3, 3, 1, 1, 0)
   True         328          0  (1, 0, 3, 2, 1, 0, 1, 2, 3, 0, 2, 1, 0, 2, 0, 2, 2, 1, 3, 3, 3, 1, 0, 1, 2, 0, 3, 2, 2, 2, 0, 0, 1, 3, 0, 3, 1, 1, 2, 0, 3, 2, 0, 3, 3, 3, 2, 1, 1, 0)
   True         206          0  (0, 2, 3, 1, 0, 2, 0, 1, 3, 1, 0, 1, 2, 1, 2, 0, 0, 3, 0, 2, 0, 3, 2, 3, 1, 0, 0, 1, 1, 1, 2, 2, 1, 0, 3, 3, 2, 2, 1, 0, 3, 1, 0, 3, 0, 3, 1, 2, 3, 0)
  False        9999          1  (1, 2, 3, 3, 0, 2, 1, 3, 0, 1, 2, 3, 2, 1, 1, 2, 3, 0, 1, 3, 0, 0, 2, 0, 2, 2, 3, 2, 3, 2, 2, 2, 1, 0, 1, 1, 3, 3, 0, 0, 3, 2, 0, 1, 0, 2, 2, 1, 1, 0)
   True        1514          0  (0, 2, 3, 3, 0, 1, 0, 3, 2, 2, 1, 3, 1, 2, 2, 3, 3, 0, 0, 1, 0, 3, 1, 0, 1, 0, 2, 3, 1, 2, 0, 1, 2, 0, 3, 2, 1, 0, 3, 3, 0, 1, 3, 2, 2, 1, 0, 2, 3, 1)
   True         366          0  (3, 2, 0, 0, 1, 0, 3, 0, 1, 3, 2, 0, 2, 3, 3, 1, 2, 0, 1, 2, 0, 0, 3, 0, 2, 3, 2, 1, 2, 2, 1, 1, 0, 0, 1, 0, 3, 2, 3, 1, 2, 3, 3, 0, 0, 1, 2, 0, 3, 1)
   True        3271          0  (3, 0, 1, 1, 2, 2, 2, 1, 0, 0, 2, 2, 3, 0, 3, 2, 1, 1, 0, 3, 0, 2, 3, 2, 1, 0, 1, 2, 3, 1, 0, 0, 3, 0, 2, 1, 3, 3, 2, 0, 1, 1, 0, 2, 0, 1, 1, 3, 3, 2)
   True        2206          0  (1, 3, 2, 2, 0, 2, 0, 2, 3, 3, 1, 2, 1, 2, 3, 2, 0, 0, 0, 1, 1, 3, 1, 2, 0, 0, 0, 2, 2, 2, 1, 1, 3, 1, 3, 3, 0, 1, 2, 2, 0, 3, 2, 0, 2, 0, 1, 3, 3, 2)
   True         426          0  (2, 1, 0, 0, 2, 1, 2, 0, 3, 1, 2, 2, 1, 0, 3, 2, 2, 0, 3, 3, 2, 2, 1, 0, 0, 0, 3, 1, 3, 1, 1, 1, 3, 2, 3, 2, 0, 3, 0, 1, 2, 2, 1, 0, 1, 2, 2, 3, 3, 0)
   True        2026          0  (0, 3, 2, 2, 1, 3, 0, 1, 2, 3, 0, 1, 3, 2, 3, 1, 1, 2, 0, 0, 2, 1, 3, 0, 0, 3, 2, 1, 0, 0, 3, 3, 2, 2, 1, 2, 3, 1, 0, 0, 1, 2, 0, 3, 3, 2, 2, 3, 1, 0)
  False        9999          1  (3, 2, 0, 0, 3, 1, 3, 1, 0, 1, 2, 3, 2, 1, 1, 0, 2, 3, 0, 2, 2, 3, 1, 0, 0, 1, 2, 0, 0, 0, 1, 3, 0, 2, 3, 3, 1, 2, 0, 2, 1, 3, 3, 1, 1, 1, 0, 2, 2, 3)
   True         840          0  (2, 0, 3, 1, 2, 1, 2, 1, 3, 1, 0, 1, 0, 3, 2, 2, 0, 3, 3, 0, 3, 1, 2, 1, 1, 3, 0, 1, 0, 1, 3, 2, 1, 3, 2, 2, 0, 0, 1, 3, 3, 1, 3, 2, 0, 2, 1, 0, 3, 2)
   True        6459          0  (1, 2, 0, 0, 3, 0, 1, 0, 3, 1, 2, 1, 2, 1, 1, 2, 1, 3, 0, 0, 0, 3, 2, 3, 2, 1, 0, 2, 0, 2, 2, 2, 3, 0, 3, 3, 1, 0, 1, 2, 0, 1, 1, 3, 1, 2, 0, 3, 3, 1)
  False        9999          1  (0, 2, 3, 3, 0, 2, 0, 3, 1, 2, 1, 0, 2, 3, 0, 0, 3, 3, 1, 1, 3, 0, 2, 0, 1, 3, 1, 2, 1, 2, 2, 2, 0, 3, 0, 0, 1, 3, 3, 2, 1, 1, 1, 0, 2, 2, 3, 0, 0, 2)
   True         718          0  (3, 0, 1, 1, 3, 2, 3, 1, 0, 0, 3, 1, 2, 0, 2, 3, 1, 1, 0, 2, 0, 1, 2, 0, 1, 0, 3, 3, 3, 1, 2, 2, 3, 0, 3, 1, 2, 3, 0, 0, 1, 1, 0, 2, 2, 2, 1, 3, 3, 2)
   True         724          0  (3, 2, 1, 3, 0, 1, 0, 1, 2, 2, 0, 0, 1, 2, 2, 0, 3, 3, 2, 1, 3, 0, 1, 0, 1, 3, 2, 0, 1, 0, 3, 1, 2, 3, 2, 2, 1, 3, 0, 0, 3, 1, 0, 2, 0, 1, 3, 2, 2, 0)
   True          34          0  (2, 1, 3, 3, 2, 0, 2, 0, 3, 0, 2, 2, 1, 3, 1, 2, 2, 3, 3, 1, 0, 0, 1, 3, 3, 3, 2, 2, 2, 2, 1, 0, 3, 0, 1, 0, 3, 2, 3, 1, 2, 3, 3, 0, 0, 0, 2, 1, 1, 0)
   True         863          0  (1, 3, 2, 2, 0, 0, 0, 2, 3, 3, 1, 2, 1, 3, 3, 2, 1, 0, 3, 1, 1, 2, 0, 2, 2, 0, 3, 2, 1, 2, 0, 0, 3, 1, 3, 3, 0, 2, 1, 1, 2, 3, 1, 0, 0, 0, 2, 3, 1, 0)
   True          68          0  (1, 2, 0, 3, 1, 0, 1, 0, 3, 3, 2, 1, 0, 2, 3, 2, 1, 1, 2, 0, 1, 3, 0, 2, 0, 1, 1, 2, 2, 2, 0, 3, 2, 1, 3, 3, 0, 1, 2, 2, 1, 3, 2, 0, 2, 0, 1, 3, 3, 0)
  False        9999          1  (0, 2, 3, 1, 0, 2, 0, 1, 3, 1, 2, 1, 2, 1, 0, 0, 0, 3, 0, 2, 3, 3, 2, 3, 2, 0, 0, 1, 2, 2, 1, 1, 3, 3, 1, 3, 0, 2, 3, 1, 2, 3, 3, 0, 3, 1, 2, 0, 0, 1)
   True         566          0  (0, 3, 2, 2, 1, 3, 0, 2, 1, 0, 3, 2, 3, 0, 0, 3, 2, 1, 0, 2, 2, 1, 3, 0, 3, 0, 2, 3, 3, 3, 0, 3, 0, 2, 0, 2, 1, 3, 1, 0, 2, 1, 1, 2, 1, 2, 3, 0, 2, 1)
   True        9531          0  (0, 3, 1, 1, 2, 2, 0, 2, 1, 3, 0, 2, 3, 1, 3, 1, 3, 2, 1, 0, 2, 2, 0, 1, 1, 3, 3, 1, 1, 1, 0, 2, 1, 2, 0, 2, 3, 3, 1, 0, 0, 1, 0, 2, 2, 2, 1, 3, 3, 2)
   True         223          0  (0, 2, 3, 3, 0, 1, 0, 1, 3, 1, 2, 0, 1, 3, 0, 0, 2, 3, 2, 2, 2, 0, 1, 0, 3, 3, 3, 1, 2, 0, 1, 1, 0, 2, 1, 0, 3, 1, 2, 2, 3, 0, 2, 3, 2, 0, 0, 1, 1, 2)
   True         704          0  (2, 0, 3, 3, 1, 0, 2, 1, 3, 0, 1, 1, 0, 3, 2, 1, 2, 3, 2, 2, 3, 1, 0, 3, 0, 3, 2, 1, 0, 2, 3, 1, 0, 3, 1, 2, 0, 3, 0, 1, 3, 0, 0, 2, 2, 2, 3, 1, 1, 2)
   True         979          0  (1, 3, 0, 0, 1, 2, 1, 2, 0, 2, 3, 1, 3, 2, 2, 3, 1, 1, 0, 0, 0, 1, 2, 3, 3, 2, 0, 3, 3, 3, 2, 2, 3, 0, 2, 0, 1, 2, 1, 3, 0, 0, 3, 1, 1, 0, 0, 2, 2, 1)
   True         465          0  (1, 0, 3, 3, 2, 3, 1, 3, 2, 1, 0, 1, 0, 1, 1, 2, 1, 3, 3, 0, 0, 2, 0, 2, 2, 3, 1, 2, 1, 2, 3, 3, 2, 0, 3, 0, 1, 3, 2, 2, 0, 0, 2, 1, 1, 1, 0, 3, 3, 1)
   True         296          0  (1, 2, 0, 0, 3, 0, 1, 0, 3, 1, 3, 1, 2, 1, 1, 3, 1, 2, 0, 0, 2, 3, 2, 3, 3, 2, 1, 3, 0, 3, 2, 0, 3, 2, 1, 1, 0, 0, 3, 2, 2, 3, 2, 1, 2, 1, 3, 0, 0, 1)
   True        2191          0  (2, 3, 0, 1, 2, 0, 2, 0, 3, 1, 3, 1, 0, 1, 1, 3, 1, 2, 3, 0, 2, 2, 0, 2, 3, 1, 3, 3, 3, 3, 0, 0, 2, 2, 1, 2, 0, 3, 1, 1, 3, 2, 1, 0, 2, 0, 3, 2, 1, 0)
   True        5419          0  (2, 0, 3, 1, 2, 1, 2, 1, 0, 1, 2, 1, 3, 0, 1, 2, 3, 0, 0, 3, 0, 1, 2, 0, 2, 0, 3, 2, 3, 2, 2, 1, 0, 0, 1, 1, 3, 2, 0, 0, 2, 1, 0, 3, 3, 1, 2, 3, 0, 1)
   True         214          0  (2, 1, 0, 0, 3, 0, 3, 0, 1, 1, 2, 0, 2, 1, 1, 0, 3, 3, 1, 2, 2, 3, 2, 1, 0, 1, 0, 0, 0, 0, 1, 2, 0, 2, 3, 2, 1, 0, 3, 3, 1, 1, 3, 2, 1, 1, 0, 2, 2, 3)
   True        4530          0  (2, 1, 0, 0, 2, 1, 2, 3, 0, 3, 2, 2, 1, 3, 3, 2, 3, 1, 0, 0, 1, 2, 1, 2, 0, 1, 3, 2, 3, 0, 1, 1, 0, 1, 2, 0, 3, 1, 2, 2, 3, 0, 2, 3, 1, 3, 0, 1, 3, 2)
   True        1149          0  (3, 0, 2, 2, 1, 0, 3, 2, 1, 0, 1, 2, 0, 3, 0, 1, 3, 3, 3, 2, 2, 1, 0, 1, 3, 0, 2, 1, 3, 1, 0, 0, 2, 2, 0, 2, 3, 0, 3, 1, 1, 2, 1, 3, 1, 2, 2, 0, 0, 3)
   True         121          0  (1, 0, 2, 3, 1, 2, 1, 2, 3, 3, 0, 1, 2, 3, 3, 2, 0, 1, 3, 0, 0, 1, 2, 3, 2, 3, 0, 2, 2, 2, 3, 2, 3, 0, 3, 0, 1, 2, 1, 3, 0, 0, 3, 1, 1, 0, 0, 2, 3, 1)
  False        9999          1  (2, 1, 3, 3, 0, 0, 2, 0, 3, 1, 2, 0, 1, 3, 1, 0, 1, 3, 3, 2, 3, 0, 2, 3, 0, 3, 1, 0, 2, 0, 3, 0, 2, 3, 2, 1, 1, 0, 2, 2, 3, 3, 2, 1, 1, 3, 3, 0, 2, 1)
   True         130          0  (0, 2, 3, 1, 0, 1, 0, 1, 2, 2, 1, 1, 3, 2, 2, 1, 0, 0, 2, 3, 3, 1, 3, 1, 0, 2, 0, 1, 0, 0, 2, 2, 1, 3, 1, 3, 2, 0, 1, 1, 0, 2, 1, 3, 3, 3, 0, 2, 1, 3)
   True        2308          0  (3, 2, 0, 0, 1, 1, 3, 1, 0, 3, 2, 1, 2, 3, 1, 1, 2, 0, 0, 2, 2, 1, 3, 1, 3, 0, 2, 3, 3, 3, 0, 0, 1, 2, 0, 2, 1, 1, 3, 3, 2, 2, 3, 0, 1, 2, 2, 1, 0, 3)
   True         622          0  (1, 0, 3, 3, 1, 3, 1, 3, 0, 2, 1, 1, 2, 3, 0, 1, 1, 3, 0, 0, 1, 1, 2, 3, 2, 3, 0, 2, 0, 2, 2, 2, 0, 1, 3, 1, 0, 0, 3, 3, 1, 2, 3, 1, 1, 2, 2, 0, 0, 3)
   True         819          0  (2, 0, 3, 3, 2, 0, 2, 3, 1, 1, 2, 3, 0, 1, 1, 2, 3, 3, 1, 0, 3, 2, 0, 2, 2, 1, 3, 2, 0, 2, 1, 1, 2, 3, 1, 3, 0, 0, 2, 1, 3, 2, 1, 3, 3, 3, 2, 0, 0, 1)
   True         131          0  (3, 1, 0, 0, 2, 2, 2, 0, 1, 3, 2, 2, 3, 0, 1, 2, 3, 0, 1, 1, 2, 2, 0, 2, 0, 0, 3, 3, 3, 3, 0, 0, 1, 2, 1, 2, 0, 3, 1, 1, 3, 2, 1, 0, 2, 2, 3, 0, 1, 2)
   True         738          0  (3, 0, 1, 1, 2, 1, 2, 1, 0, 0, 3, 1, 3, 0, 2, 2, 3, 1, 0, 3, 1, 1, 2, 1, 0, 2, 0, 0, 0, 0, 2, 2, 0, 1, 3, 1, 2, 2, 3, 3, 1, 0, 3, 1, 2, 0, 0, 2, 1, 3)
   True        5643          0  (2, 0, 3, 1, 2, 0, 2, 3, 1, 1, 0, 3, 0, 3, 2, 2, 2, 3, 2, 0, 0, 1, 0, 3, 3, 3, 2, 1, 2, 3, 3, 0, 3, 0, 1, 0, 2, 3, 1, 1, 2, 0, 1, 2, 2, 2, 3, 0, 0, 1)
   True        1082          0  (1, 3, 0, 0, 2, 0, 1, 0, 2, 1, 2, 0, 3, 0, 1, 2, 1, 0, 1, 3, 3, 2, 3, 2, 2, 0, 1, 2, 1, 2, 0, 0, 2, 3, 0, 3, 1, 0, 2, 2, 3, 3, 2, 1, 1, 3, 3, 0, 0, 1)
  False        9999          1  (2, 3, 1, 2, 0, 1, 0, 1, 3, 2, 3, 0, 1, 2, 2, 3, 2, 0, 2, 1, 0, 3, 1, 0, 1, 0, 2, 1, 2, 1, 1, 3, 1, 0, 3, 3, 2, 1, 0, 0, 2, 2, 0, 3, 2, 2, 1, 3, 3, 0)
   True        1157          0  (1, 2, 3, 3, 0, 0, 0, 3, 2, 1, 0, 3, 1, 3, 2, 0, 3, 3, 2, 2, 3, 0, 1, 0, 0, 1, 3, 0, 3, 0, 1, 1, 0, 3, 2, 2, 1, 1, 0, 3, 3, 0, 3, 2, 3, 2, 0, 1, 1, 2)
