Each algorithm was run a total of 4 times each for each of the two possible color sets, for a total of 24 separate tests.


Now running backTrackingSimple iteration = 1 with 4 colors


The backTrackingSimple algorithm SUCCESSFULLY colored all of the nodes.

The algorithm made 2075 decisions during it's execution.

0 1 1 1 0 1 1 1 0 0 0 0 0 0 0 0 0 0 0 0    0   0.03230943799502484 0.5775584597056667 COLOR = 1
1 0 1 0 0 0 0 1 0 0 0 0 0 0 0 0 0 0 0 0    1   0.1442259319991619 0.482937458281653 COLOR = 0
1 1 0 1 0 0 0 1 0 0 0 0 0 0 0 0 0 0 0 0    2   0.15955863009434168 0.41548264935490886 COLOR = 3
1 0 1 0 1 0 0 1 0 0 0 0 0 0 0 0 0 0 0 0    3   0.23078291867654377 0.1717106309218085 COLOR = 0
0 0 0 1 0 0 0 1 0 0 1 0 0 0 0 0 0 1 1 0    4   0.3254522703550792 0.07687205262405705 COLOR = 3
1 0 0 0 0 0 1 0 0 0 0 1 1 1 0 0 0 0 0 0    5   0.38086119330247026 0.8516740809373398 COLOR = 3
1 0 0 0 0 1 0 1 1 0 0 1 0 0 0 0 0 0 0 0    6   0.3990482071419703 0.7869311679335668 COLOR = 0
1 1 1 1 1 0 1 0 1 1 1 0 0 0 0 1 0 1 0 0    7   0.42011897391156694 0.4723396756887418 COLOR = 2
0 0 0 0 0 0 1 1 0 1 0 1 1 0 0 0 1 0 0 0    8   0.4532019635333616 0.6255195774735471 COLOR = 3
0 0 0 0 0 0 0 1 1 0 0 0 0 0 0 1 1 0 0 0    9   0.5422078588600155 0.5608028175120565 COLOR = 0
0 0 0 0 1 0 0 1 0 0 0 0 0 0 0 0 0 1 0 0    10   0.5599045507479647 0.33375722491079884 COLOR = 1
0 0 0 0 0 1 1 0 1 0 0 0 1 0 0 0 0 0 0 0    11   0.5645957528792565 0.7434876870725294 COLOR = 1
0 0 0 0 0 1 0 0 1 0 0 1 0 1 1 0 1 0 0 0    12   0.6377974515903231 0.7786715160175868 COLOR = 2
0 0 0 0 0 1 0 0 0 0 0 0 1 0 1 0 0 0 0 0    13   0.6723816348671164 0.9383338805316935 COLOR = 0
0 0 0 0 0 0 0 0 0 0 0 0 1 1 0 0 1 0 0 1    14   0.7500614211303369 0.8337094084781289 COLOR = 3
0 0 0 0 0 0 0 1 0 1 0 0 0 0 0 0 1 1 0 0    15   0.76793748399696 0.5441790330951018 COLOR = 3
0 0 0 0 0 0 0 0 1 1 0 0 1 0 1 1 0 1 0 1    16   0.776663795870318 0.597167626268599 COLOR = 1
0 0 0 0 1 0 0 1 0 0 1 0 0 0 0 1 1 0 1 1    17   0.8144461933396869 0.33738868011569967 COLOR = 0
0 0 0 0 1 0 0 0 0 0 0 0 0 0 0 0 0 1 0 1    18   0.9681754598287442 0.07123446249434418 COLOR = 1
0 0 0 0 0 0 0 0 0 0 0 0 0 0 1 0 1 1 1 0    19   0.9934090481602845 0.46773474860917474 COLOR = 2

-----------------------------------------------------------------------------------------------------------------------
-----------------------------------------------------------------------------------------------------------------------
-----------------------------------------------------------------------------------------------------------------------

Now running backTrackingSimple iteration = 2 with 4 colors


The backTrackingSimple algorithm SUCCESSFULLY colored all of the nodes.

The algorithm made 214701 decisions during it's execution.

0 1 1 1 0 1 1 1 0 0 0 0 0 0 0 0 0 0 0 0    0   0.03230943799502484 0.5775584597056667 COLOR = 3
1 0 1 0 0 0 0 1 0 0 0 0 0 0 0 0 0 0 0 0    1   0.1442259319991619 0.482937458281653 COLOR = 2
1 1 0 1 0 0 0 1 0 0 0 0 0 0 0 0 0 0 0 0    2   0.15955863009434168 0.41548264935490886 COLOR = 1
1 0 1 0 1 0 0 1 0 0 0 0 0 0 0 0 0 0 0 0    3   0.23078291867654377 0.1717106309218085 COLOR = 2
0 0 0 1 0 0 0 1 0 0 1 0 0 0 0 0 0 1 1 0    4   0.3254522703550792 0.07687205262405705 COLOR = 3
1 0 0 0 0 0 1 0 0 0 0 1 1 1 0 0 0 0 0 0    5   0.38086119330247026 0.8516740809373398 COLOR = 1
1 0 0 0 0 1 0 1 1 0 0 1 0 0 0 0 0 0 0 0    6   0.3990482071419703 0.7869311679335668 COLOR = 2
1 1 1 1 1 0 1 0 1 1 1 0 0 0 0 1 0 1 0 0    7   0.42011897391156694 0.4723396756887418 COLOR = 0
0 0 0 0 0 0 1 1 0 1 0 1 1 0 0 0 1 0 0 0    8   0.4532019635333616 0.6255195774735471 COLOR = 1
0 0 0 0 0 0 0 1 1 0 0 0 0 0 0 1 1 0 0 0    9   0.5422078588600155 0.5608028175120565 COLOR = 3
0 0 0 0 1 0 0 1 0 0 0 0 0 0 0 0 0 1 0 0    10   0.5599045507479647 0.33375722491079884 COLOR = 1
0 0 0 0 0 1 1 0 1 0 0 0 1 0 0 0 0 0 0 0    11   0.5645957528792565 0.7434876870725294 COLOR = 0
0 0 0 0 0 1 0 0 1 0 0 1 0 1 1 0 1 0 0 0    12   0.6377974515903231 0.7786715160175868 COLOR = 3
0 0 0 0 0 1 0 0 0 0 0 0 1 0 1 0 0 0 0 0    13   0.6723816348671164 0.9383338805316935 COLOR = 2
0 0 0 0 0 0 0 0 0 0 0 0 1 1 0 0 1 0 0 1    14   0.7500614211303369 0.8337094084781289 COLOR = 1
0 0 0 0 0 0 0 1 0 1 0 0 0 0 0 0 1 1 0 0    15   0.76793748399696 0.5441790330951018 COLOR = 1
0 0 0 0 0 0 0 0 1 1 0 0 1 0 1 1 0 1 0 1    16   0.776663795870318 0.597167626268599 COLOR = 0
0 0 0 0 1 0 0 1 0 0 1 0 0 0 0 1 1 0 1 1    17   0.8144461933396869 0.33738868011569967 COLOR = 2
0 0 0 0 1 0 0 0 0 0 0 0 0 0 0 0 0 1 0 1    18   0.9681754598287442 0.07123446249434418 COLOR = 1
0 0 0 0 0 0 0 0 0 0 0 0 0 0 1 0 1 1 1 0    19   0.9934090481602845 0.46773474860917474 COLOR = 3

-----------------------------------------------------------------------------------------------------------------------
-----------------------------------------------------------------------------------------------------------------------
-----------------------------------------------------------------------------------------------------------------------

Now running backTrackingSimple iteration = 3 with 4 colors


The backTrackingSimple algorithm SUCCESSFULLY colored all of the nodes.

The algorithm made 2412 decisions during it's execution.

0 1 1 1 0 1 1 1 0 0 0 0 0 0 0 0 0 0 0 0    0   0.03230943799502484 0.5775584597056667 COLOR = 2
1 0 1 0 0 0 0 1 0 0 0 0 0 0 0 0 0 0 0 0    1   0.1442259319991619 0.482937458281653 COLOR = 1
1 1 0 1 0 0 0 1 0 0 0 0 0 0 0 0 0 0 0 0    2   0.15955863009434168 0.41548264935490886 COLOR = 0
1 0 1 0 1 0 0 1 0 0 0 0 0 0 0 0 0 0 0 0    3   0.23078291867654377 0.1717106309218085 COLOR = 1
0 0 0 1 0 0 0 1 0 0 1 0 0 0 0 0 0 1 1 0    4   0.3254522703550792 0.07687205262405705 COLOR = 0
1 0 0 0 0 0 1 0 0 0 0 1 1 1 0 0 0 0 0 0    5   0.38086119330247026 0.8516740809373398 COLOR = 0
1 0 0 0 0 1 0 1 1 0 0 1 0 0 0 0 0 0 0 0    6   0.3990482071419703 0.7869311679335668 COLOR = 1
1 1 1 1 1 0 1 0 1 1 1 0 0 0 0 1 0 1 0 0    7   0.42011897391156694 0.4723396756887418 COLOR = 3
0 0 0 0 0 0 1 1 0 1 0 1 1 0 0 0 1 0 0 0    8   0.4532019635333616 0.6255195774735471 COLOR = 0
0 0 0 0 0 0 0 1 1 0 0 0 0 0 0 1 1 0 0 0    9   0.5422078588600155 0.5608028175120565 COLOR = 1
0 0 0 0 1 0 0 1 0 0 0 0 0 0 0 0 0 1 0 0    10   0.5599045507479647 0.33375722491079884 COLOR = 2
0 0 0 0 0 1 1 0 1 0 0 0 1 0 0 0 0 0 0 0    11   0.5645957528792565 0.7434876870725294 COLOR = 2
0 0 0 0 0 1 0 0 1 0 0 1 0 1 1 0 1 0 0 0    12   0.6377974515903231 0.7786715160175868 COLOR = 1
0 0 0 0 0 1 0 0 0 0 0 0 1 0 1 0 0 0 0 0    13   0.6723816348671164 0.9383338805316935 COLOR = 2
0 0 0 0 0 0 0 0 0 0 0 0 1 1 0 0 1 0 0 1    14   0.7500614211303369 0.8337094084781289 COLOR = 0
0 0 0 0 0 0 0 1 0 1 0 0 0 0 0 0 1 1 0 0    15   0.76793748399696 0.5441790330951018 COLOR = 2
0 0 0 0 0 0 0 0 1 1 0 0 1 0 1 1 0 1 0 1    16   0.776663795870318 0.597167626268599 COLOR = 3
0 0 0 0 1 0 0 1 0 0 1 0 0 0 0 1 1 0 1 1    17   0.8144461933396869 0.33738868011569967 COLOR = 1
0 0 0 0 1 0 0 0 0 0 0 0 0 0 0 0 0 1 0 1    18   0.9681754598287442 0.07123446249434418 COLOR = 3
0 0 0 0 0 0 0 0 0 0 0 0 0 0 1 0 1 1 1 0    19   0.9934090481602845 0.46773474860917474 COLOR = 2

-----------------------------------------------------------------------------------------------------------------------
-----------------------------------------------------------------------------------------------------------------------
-----------------------------------------------------------------------------------------------------------------------

Now running backTrackingSimple iteration = 4 with 4 colors


The backTrackingSimple algorithm SUCCESSFULLY colored all of the nodes.

The algorithm made 28831 decisions during it's execution.

0 1 1 1 0 1 1 1 0 0 0 0 0 0 0 0 0 0 0 0    0   0.03230943799502484 0.5775584597056667 COLOR = 1
1 0 1 0 0 0 0 1 0 0 0 0 0 0 0 0 0 0 0 0    1   0.1442259319991619 0.482937458281653 COLOR = 2
1 1 0 1 0 0 0 1 0 0 0 0 0 0 0 0 0 0 0 0    2   0.15955863009434168 0.41548264935490886 COLOR = 0
1 0 1 0 1 0 0 1 0 0 0 0 0 0 0 0 0 0 0 0    3   0.23078291867654377 0.1717106309218085 COLOR = 2
0 0 0 1 0 0 0 1 0 0 1 0 0 0 0 0 0 1 1 0    4   0.3254522703550792 0.07687205262405705 COLOR = 1
1 0 0 0 0 0 1 0 0 0 0 1 1 1 0 0 0 0 0 0    5   0.38086119330247026 0.8516740809373398 COLOR = 3
1 0 0 0 0 1 0 1 1 0 0 1 0 0 0 0 0 0 0 0    6   0.3990482071419703 0.7869311679335668 COLOR = 2
1 1 1 1 1 0 1 0 1 1 1 0 0 0 0 1 0 1 0 0    7   0.42011897391156694 0.4723396756887418 COLOR = 3
0 0 0 0 0 0 1 1 0 1 0 1 1 0 0 0 1 0 0 0    8   0.4532019635333616 0.6255195774735471 COLOR = 0
0 0 0 0 0 0 0 1 1 0 0 0 0 0 0 1 1 0 0 0    9   0.5422078588600155 0.5608028175120565 COLOR = 1
0 0 0 0 1 0 0 1 0 0 0 0 0 0 0 0 0 1 0 0    10   0.5599045507479647 0.33375722491079884 COLOR = 2
0 0 0 0 0 1 1 0 1 0 0 0 1 0 0 0 0 0 0 0    11   0.5645957528792565 0.7434876870725294 COLOR = 1
0 0 0 0 0 1 0 0 1 0 0 1 0 1 1 0 1 0 0 0    12   0.6377974515903231 0.7786715160175868 COLOR = 2
0 0 0 0 0 1 0 0 0 0 0 0 1 0 1 0 0 0 0 0    13   0.6723816348671164 0.9383338805316935 COLOR = 1
0 0 0 0 0 0 0 0 0 0 0 0 1 1 0 0 1 0 0 1    14   0.7500614211303369 0.8337094084781289 COLOR = 0
0 0 0 0 0 0 0 1 0 1 0 0 0 0 0 0 1 1 0 0    15   0.76793748399696 0.5441790330951018 COLOR = 2
0 0 0 0 0 0 0 0 1 1 0 0 1 0 1 1 0 1 0 1    16   0.776663795870318 0.597167626268599 COLOR = 3
0 0 0 0 1 0 0 1 0 0 1 0 0 0 0 1 1 0 1 1    17   0.8144461933396869 0.33738868011569967 COLOR = 0
0 0 0 0 1 0 0 0 0 0 0 0 0 0 0 0 0 1 0 1    18   0.9681754598287442 0.07123446249434418 COLOR = 2
0 0 0 0 0 0 0 0 0 0 0 0 0 0 1 0 1 1 1 0    19   0.9934090481602845 0.46773474860917474 COLOR = 1

-----------------------------------------------------------------------------------------------------------------------
-----------------------------------------------------------------------------------------------------------------------
-----------------------------------------------------------------------------------------------------------------------

Now running backTrackingWithForwardChecking iteration = 1 with 4 colors


The backTrackingWithForwardChecking algorithm SUCCESSFULLY colored all of the nodes.

The algorithm made 511 decisions during it's execution.

0 1 1 1 0 1 1 1 0 0 0 0 0 0 0 0 0 0 0 0    0   0.03230943799502484 0.5775584597056667 COLOR = 0
1 0 1 0 0 0 0 1 0 0 0 0 0 0 0 0 0 0 0 0    1   0.1442259319991619 0.482937458281653 COLOR = 2
1 1 0 1 0 0 0 1 0 0 0 0 0 0 0 0 0 0 0 0    2   0.15955863009434168 0.41548264935490886 COLOR = 3
1 0 1 0 1 0 0 1 0 0 0 0 0 0 0 0 0 0 0 0    3   0.23078291867654377 0.1717106309218085 COLOR = 2
0 0 0 1 0 0 0 1 0 0 1 0 0 0 0 0 0 1 1 0    4   0.3254522703550792 0.07687205262405705 COLOR = 0
1 0 0 0 0 0 1 0 0 0 0 1 1 1 0 0 0 0 0 0    5   0.38086119330247026 0.8516740809373398 COLOR = 2
1 0 0 0 0 1 0 1 1 0 0 1 0 0 0 0 0 0 0 0    6   0.3990482071419703 0.7869311679335668 COLOR = 3
1 1 1 1 1 0 1 0 1 1 1 0 0 0 0 1 0 1 0 0    7   0.42011897391156694 0.4723396756887418 COLOR = 1
0 0 0 0 0 0 1 1 0 1 0 1 1 0 0 0 1 0 0 0    8   0.4532019635333616 0.6255195774735471 COLOR = 2
0 0 0 0 0 0 0 1 1 0 0 0 0 0 0 1 1 0 0 0    9   0.5422078588600155 0.5608028175120565 COLOR = 0
0 0 0 0 1 0 0 1 0 0 0 0 0 0 0 0 0 1 0 0    10   0.5599045507479647 0.33375722491079884 COLOR = 2
0 0 0 0 0 1 1 0 1 0 0 0 1 0 0 0 0 0 0 0    11   0.5645957528792565 0.7434876870725294 COLOR = 1
0 0 0 0 0 1 0 0 1 0 0 1 0 1 1 0 1 0 0 0    12   0.6377974515903231 0.7786715160175868 COLOR = 0
0 0 0 0 0 1 0 0 0 0 0 0 1 0 1 0 0 0 0 0    13   0.6723816348671164 0.9383338805316935 COLOR = 3
0 0 0 0 0 0 0 0 0 0 0 0 1 1 0 0 1 0 0 1    14   0.7500614211303369 0.8337094084781289 COLOR = 2
0 0 0 0 0 0 0 1 0 1 0 0 0 0 0 0 1 1 0 0    15   0.76793748399696 0.5441790330951018 COLOR = 2
0 0 0 0 0 0 0 0 1 1 0 0 1 0 1 1 0 1 0 1    16   0.776663795870318 0.597167626268599 COLOR = 1
0 0 0 0 1 0 0 1 0 0 1 0 0 0 0 1 1 0 1 1    17   0.8144461933396869 0.33738868011569967 COLOR = 3
0 0 0 0 1 0 0 0 0 0 0 0 0 0 0 0 0 1 0 1    18   0.9681754598287442 0.07123446249434418 COLOR = 2
0 0 0 0 0 0 0 0 0 0 0 0 0 0 1 0 1 1 1 0    19   0.9934090481602845 0.46773474860917474 COLOR = 0

-----------------------------------------------------------------------------------------------------------------------
-----------------------------------------------------------------------------------------------------------------------
-----------------------------------------------------------------------------------------------------------------------

Now running backTrackingWithForwardChecking iteration = 2 with 4 colors


The backTrackingWithForwardChecking algorithm SUCCESSFULLY colored all of the nodes.

The algorithm made 2172 decisions during it's execution.

0 1 1 1 0 1 1 1 0 0 0 0 0 0 0 0 0 0 0 0    0   0.03230943799502484 0.5775584597056667 COLOR = 1
1 0 1 0 0 0 0 1 0 0 0 0 0 0 0 0 0 0 0 0    1   0.1442259319991619 0.482937458281653 COLOR = 2
1 1 0 1 0 0 0 1 0 0 0 0 0 0 0 0 0 0 0 0    2   0.15955863009434168 0.41548264935490886 COLOR = 3
1 0 1 0 1 0 0 1 0 0 0 0 0 0 0 0 0 0 0 0    3   0.23078291867654377 0.1717106309218085 COLOR = 2
0 0 0 1 0 0 0 1 0 0 1 0 0 0 0 0 0 1 1 0    4   0.3254522703550792 0.07687205262405705 COLOR = 3
1 0 0 0 0 0 1 0 0 0 0 1 1 1 0 0 0 0 0 0    5   0.38086119330247026 0.8516740809373398 COLOR = 3
1 0 0 0 0 1 0 1 1 0 0 1 0 0 0 0 0 0 0 0    6   0.3990482071419703 0.7869311679335668 COLOR = 2
1 1 1 1 1 0 1 0 1 1 1 0 0 0 0 1 0 1 0 0    7   0.42011897391156694 0.4723396756887418 COLOR = 0
0 0 0 0 0 0 1 1 0 1 0 1 1 0 0 0 1 0 0 0    8   0.4532019635333616 0.6255195774735471 COLOR = 3
0 0 0 0 0 0 0 1 1 0 0 0 0 0 0 1 1 0 0 0    9   0.5422078588600155 0.5608028175120565 COLOR = 2
0 0 0 0 1 0 0 1 0 0 0 0 0 0 0 0 0 1 0 0    10   0.5599045507479647 0.33375722491079884 COLOR = 1
0 0 0 0 0 1 1 0 1 0 0 0 1 0 0 0 0 0 0 0    11   0.5645957528792565 0.7434876870725294 COLOR = 0
0 0 0 0 0 1 0 0 1 0 0 1 0 1 1 0 1 0 0 0    12   0.6377974515903231 0.7786715160175868 COLOR = 2
0 0 0 0 0 1 0 0 0 0 0 0 1 0 1 0 0 0 0 0    13   0.6723816348671164 0.9383338805316935 COLOR = 0
0 0 0 0 0 0 0 0 0 0 0 0 1 1 0 0 1 0 0 1    14   0.7500614211303369 0.8337094084781289 COLOR = 3
0 0 0 0 0 0 0 1 0 1 0 0 0 0 0 0 1 1 0 0    15   0.76793748399696 0.5441790330951018 COLOR = 3
0 0 0 0 0 0 0 0 1 1 0 0 1 0 1 1 0 1 0 1    16   0.776663795870318 0.597167626268599 COLOR = 0
0 0 0 0 1 0 0 1 0 0 1 0 0 0 0 1 1 0 1 1    17   0.8144461933396869 0.33738868011569967 COLOR = 2
0 0 0 0 1 0 0 0 0 0 0 0 0 0 0 0 0 1 0 1    18   0.9681754598287442 0.07123446249434418 COLOR = 0
0 0 0 0 0 0 0 0 0 0 0 0 0 0 1 0 1 1 1 0    19   0.9934090481602845 0.46773474860917474 COLOR = 1

-----------------------------------------------------------------------------------------------------------------------
-----------------------------------------------------------------------------------------------------------------------
-----------------------------------------------------------------------------------------------------------------------

Now running backTrackingWithForwardChecking iteration = 3 with 4 colors


The backTrackingWithForwardChecking algorithm FAILED to color all of the nodes.

The algorithm made 24520 decisions during it's execution.

0 1 1 1 0 1 1 1 0 0 0 0 0 0 0 0 0 0 0 0    0   0.03230943799502484 0.5775584597056667 COLOR = -1
1 0 1 0 0 0 0 1 0 0 0 0 0 0 0 0 0 0 0 0    1   0.1442259319991619 0.482937458281653 COLOR = -1
1 1 0 1 0 0 0 1 0 0 0 0 0 0 0 0 0 0 0 0    2   0.15955863009434168 0.41548264935490886 COLOR = -1
1 0 1 0 1 0 0 1 0 0 0 0 0 0 0 0 0 0 0 0    3   0.23078291867654377 0.1717106309218085 COLOR = -1
0 0 0 1 0 0 0 1 0 0 1 0 0 0 0 0 0 1 1 0    4   0.3254522703550792 0.07687205262405705 COLOR = -1
1 0 0 0 0 0 1 0 0 0 0 1 1 1 0 0 0 0 0 0    5   0.38086119330247026 0.8516740809373398 COLOR = -1
1 0 0 0 0 1 0 1 1 0 0 1 0 0 0 0 0 0 0 0    6   0.3990482071419703 0.7869311679335668 COLOR = -1
1 1 1 1 1 0 1 0 1 1 1 0 0 0 0 1 0 1 0 0    7   0.42011897391156694 0.4723396756887418 COLOR = -1
0 0 0 0 0 0 1 1 0 1 0 1 1 0 0 0 1 0 0 0    8   0.4532019635333616 0.6255195774735471 COLOR = -1
0 0 0 0 0 0 0 1 1 0 0 0 0 0 0 1 1 0 0 0    9   0.5422078588600155 0.5608028175120565 COLOR = -1
0 0 0 0 1 0 0 1 0 0 0 0 0 0 0 0 0 1 0 0    10   0.5599045507479647 0.33375722491079884 COLOR = -1
0 0 0 0 0 1 1 0 1 0 0 0 1 0 0 0 0 0 0 0    11   0.5645957528792565 0.7434876870725294 COLOR = -1
0 0 0 0 0 1 0 0 1 0 0 1 0 1 1 0 1 0 0 0    12   0.6377974515903231 0.7786715160175868 COLOR = -1
0 0 0 0 0 1 0 0 0 0 0 0 1 0 1 0 0 0 0 0    13   0.6723816348671164 0.9383338805316935 COLOR = -1
0 0 0 0 0 0 0 0 0 0 0 0 1 1 0 0 1 0 0 1    14   0.7500614211303369 0.8337094084781289 COLOR = -1
0 0 0 0 0 0 0 1 0 1 0 0 0 0 0 0 1 1 0 0    15   0.76793748399696 0.5441790330951018 COLOR = -1
0 0 0 0 0 0 0 0 1 1 0 0 1 0 1 1 0 1 0 1    16   0.776663795870318 0.597167626268599 COLOR = -1
0 0 0 0 1 0 0 1 0 0 1 0 0 0 0 1 1 0 1 1    17   0.8144461933396869 0.33738868011569967 COLOR = -1
0 0 0 0 1 0 0 0 0 0 0 0 0 0 0 0 0 1 0 1    18   0.9681754598287442 0.07123446249434418 COLOR = -1
0 0 0 0 0 0 0 0 0 0 0 0 0 0 1 0 1 1 1 0    19   0.9934090481602845 0.46773474860917474 COLOR = -1

-----------------------------------------------------------------------------------------------------------------------
-----------------------------------------------------------------------------------------------------------------------
-----------------------------------------------------------------------------------------------------------------------

Now running backTrackingWithForwardChecking iteration = 4 with 4 colors


The backTrackingWithForwardChecking algorithm SUCCESSFULLY colored all of the nodes.

The algorithm made 120 decisions during it's execution.

0 1 1 1 0 1 1 1 0 0 0 0 0 0 0 0 0 0 0 0    0   0.03230943799502484 0.5775584597056667 COLOR = 3
1 0 1 0 0 0 0 1 0 0 0 0 0 0 0 0 0 0 0 0    1   0.1442259319991619 0.482937458281653 COLOR = 2
1 1 0 1 0 0 0 1 0 0 0 0 0 0 0 0 0 0 0 0    2   0.15955863009434168 0.41548264935490886 COLOR = 0
1 0 1 0 1 0 0 1 0 0 0 0 0 0 0 0 0 0 0 0    3   0.23078291867654377 0.1717106309218085 COLOR = 2
0 0 0 1 0 0 0 1 0 0 1 0 0 0 0 0 0 1 1 0    4   0.3254522703550792 0.07687205262405705 COLOR = 3
1 0 0 0 0 0 1 0 0 0 0 1 1 1 0 0 0 0 0 0    5   0.38086119330247026 0.8516740809373398 COLOR = 1
1 0 0 0 0 1 0 1 1 0 0 1 0 0 0 0 0 0 0 0    6   0.3990482071419703 0.7869311679335668 COLOR = 2
1 1 1 1 1 0 1 0 1 1 1 0 0 0 0 1 0 1 0 0    7   0.42011897391156694 0.4723396756887418 COLOR = 1
0 0 0 0 0 0 1 1 0 1 0 1 1 0 0 0 1 0 0 0    8   0.4532019635333616 0.6255195774735471 COLOR = 0
0 0 0 0 0 0 0 1 1 0 0 0 0 0 0 1 1 0 0 0    9   0.5422078588600155 0.5608028175120565 COLOR = 2
0 0 0 0 1 0 0 1 0 0 0 0 0 0 0 0 0 1 0 0    10   0.5599045507479647 0.33375722491079884 COLOR = 2
0 0 0 0 0 1 1 0 1 0 0 0 1 0 0 0 0 0 0 0    11   0.5645957528792565 0.7434876870725294 COLOR = 3
0 0 0 0 0 1 0 0 1 0 0 1 0 1 1 0 1 0 0 0    12   0.6377974515903231 0.7786715160175868 COLOR = 2
0 0 0 0 0 1 0 0 0 0 0 0 1 0 1 0 0 0 0 0    13   0.6723816348671164 0.9383338805316935 COLOR = 3
0 0 0 0 0 0 0 0 0 0 0 0 1 1 0 0 1 0 0 1    14   0.7500614211303369 0.8337094084781289 COLOR = 0
0 0 0 0 0 0 0 1 0 1 0 0 0 0 0 0 1 1 0 0    15   0.76793748399696 0.5441790330951018 COLOR = 3
0 0 0 0 0 0 0 0 1 1 0 0 1 0 1 1 0 1 0 1    16   0.776663795870318 0.597167626268599 COLOR = 1
0 0 0 0 1 0 0 1 0 0 1 0 0 0 0 1 1 0 1 1    17   0.8144461933396869 0.33738868011569967 COLOR = 0
0 0 0 0 1 0 0 0 0 0 0 0 0 0 0 0 0 1 0 1    18   0.9681754598287442 0.07123446249434418 COLOR = 1
0 0 0 0 0 0 0 0 0 0 0 0 0 0 1 0 1 1 1 0    19   0.9934090481602845 0.46773474860917474 COLOR = 2

-----------------------------------------------------------------------------------------------------------------------
-----------------------------------------------------------------------------------------------------------------------
-----------------------------------------------------------------------------------------------------------------------

Now running backTrackingWithConstraintPropagation iteration = 1 with 4 colors


The backTrackingWithConstraintPropagation algorithm SUCCESSFULLY colored all of the nodes.

The algorithm made 44 decisions during it's execution.

0 1 1 1 0 1 1 1 0 0 0 0 0 0 0 0 0 0 0 0    0   0.03230943799502484 0.5775584597056667 COLOR = 0
1 0 1 0 0 0 0 1 0 0 0 0 0 0 0 0 0 0 0 0    1   0.1442259319991619 0.482937458281653 COLOR = 1
1 1 0 1 0 0 0 1 0 0 0 0 0 0 0 0 0 0 0 0    2   0.15955863009434168 0.41548264935490886 COLOR = 2
1 0 1 0 1 0 0 1 0 0 0 0 0 0 0 0 0 0 0 0    3   0.23078291867654377 0.1717106309218085 COLOR = 1
0 0 0 1 0 0 0 1 0 0 1 0 0 0 0 0 0 1 1 0    4   0.3254522703550792 0.07687205262405705 COLOR = 2
1 0 0 0 0 0 1 0 0 0 0 1 1 1 0 0 0 0 0 0    5   0.38086119330247026 0.8516740809373398 COLOR = 2
1 0 0 0 0 1 0 1 1 0 0 1 0 0 0 0 0 0 0 0    6   0.3990482071419703 0.7869311679335668 COLOR = 1
1 1 1 1 1 0 1 0 1 1 1 0 0 0 0 1 0 1 0 0    7   0.42011897391156694 0.4723396756887418 COLOR = 3
0 0 0 0 0 0 1 1 0 1 0 1 1 0 0 0 1 0 0 0    8   0.4532019635333616 0.6255195774735471 COLOR = 2
0 0 0 0 0 0 0 1 1 0 0 0 0 0 0 1 1 0 0 0    9   0.5422078588600155 0.5608028175120565 COLOR = 1
0 0 0 0 1 0 0 1 0 0 0 0 0 0 0 0 0 1 0 0    10   0.5599045507479647 0.33375722491079884 COLOR = 0
0 0 0 0 0 1 1 0 1 0 0 0 1 0 0 0 0 0 0 0    11   0.5645957528792565 0.7434876870725294 COLOR = 0
0 0 0 0 0 1 0 0 1 0 0 1 0 1 1 0 1 0 0 0    12   0.6377974515903231 0.7786715160175868 COLOR = 1
0 0 0 0 0 1 0 0 0 0 0 0 1 0 1 0 0 0 0 0    13   0.6723816348671164 0.9383338805316935 COLOR = 0
0 0 0 0 0 0 0 0 0 0 0 0 1 1 0 0 1 0 0 1    14   0.7500614211303369 0.8337094084781289 COLOR = 2
0 0 0 0 0 0 0 1 0 1 0 0 0 0 0 0 1 1 0 0    15   0.76793748399696 0.5441790330951018 COLOR = 2
0 0 0 0 0 0 0 0 1 1 0 0 1 0 1 1 0 1 0 1    16   0.776663795870318 0.597167626268599 COLOR = 0
0 0 0 0 1 0 0 1 0 0 1 0 0 0 0 1 1 0 1 1    17   0.8144461933396869 0.33738868011569967 COLOR = 1
0 0 0 0 1 0 0 0 0 0 0 0 0 0 0 0 0 1 0 1    18   0.9681754598287442 0.07123446249434418 COLOR = 0
0 0 0 0 0 0 0 0 0 0 0 0 0 0 1 0 1 1 1 0    19   0.9934090481602845 0.46773474860917474 COLOR = 3

-----------------------------------------------------------------------------------------------------------------------
-----------------------------------------------------------------------------------------------------------------------
-----------------------------------------------------------------------------------------------------------------------

Now running backTrackingWithConstraintPropagation iteration = 2 with 4 colors


The backTrackingWithConstraintPropagation algorithm SUCCESSFULLY colored all of the nodes.

The algorithm made 48 decisions during it's execution.

0 1 1 1 0 1 1 1 0 0 0 0 0 0 0 0 0 0 0 0    0   0.03230943799502484 0.5775584597056667 COLOR = 0
1 0 1 0 0 0 0 1 0 0 0 0 0 0 0 0 0 0 0 0    1   0.1442259319991619 0.482937458281653 COLOR = 1
1 1 0 1 0 0 0 1 0 0 0 0 0 0 0 0 0 0 0 0    2   0.15955863009434168 0.41548264935490886 COLOR = 3
1 0 1 0 1 0 0 1 0 0 0 0 0 0 0 0 0 0 0 0    3   0.23078291867654377 0.1717106309218085 COLOR = 1
0 0 0 1 0 0 0 1 0 0 1 0 0 0 0 0 0 1 1 0    4   0.3254522703550792 0.07687205262405705 COLOR = 3
1 0 0 0 0 0 1 0 0 0 0 1 1 1 0 0 0 0 0 0    5   0.38086119330247026 0.8516740809373398 COLOR = 3
1 0 0 0 0 1 0 1 1 0 0 1 0 0 0 0 0 0 0 0    6   0.3990482071419703 0.7869311679335668 COLOR = 1
1 1 1 1 1 0 1 0 1 1 1 0 0 0 0 1 0 1 0 0    7   0.42011897391156694 0.4723396756887418 COLOR = 2
0 0 0 0 0 0 1 1 0 1 0 1 1 0 0 0 1 0 0 0    8   0.4532019635333616 0.6255195774735471 COLOR = 0
0 0 0 0 0 0 0 1 1 0 0 0 0 0 0 1 1 0 0 0    9   0.5422078588600155 0.5608028175120565 COLOR = 1
0 0 0 0 1 0 0 1 0 0 0 0 0 0 0 0 0 1 0 0    10   0.5599045507479647 0.33375722491079884 COLOR = 0
0 0 0 0 0 1 1 0 1 0 0 0 1 0 0 0 0 0 0 0    11   0.5645957528792565 0.7434876870725294 COLOR = 2
0 0 0 0 0 1 0 0 1 0 0 1 0 1 1 0 1 0 0 0    12   0.6377974515903231 0.7786715160175868 COLOR = 1
0 0 0 0 0 1 0 0 0 0 0 0 1 0 1 0 0 0 0 0    13   0.6723816348671164 0.9383338805316935 COLOR = 0
0 0 0 0 0 0 0 0 0 0 0 0 1 1 0 0 1 0 0 1    14   0.7500614211303369 0.8337094084781289 COLOR = 3
0 0 0 0 0 0 0 1 0 1 0 0 0 0 0 0 1 1 0 0    15   0.76793748399696 0.5441790330951018 COLOR = 0
0 0 0 0 0 0 0 0 1 1 0 0 1 0 1 1 0 1 0 1    16   0.776663795870318 0.597167626268599 COLOR = 2
0 0 0 0 1 0 0 1 0 0 1 0 0 0 0 1 1 0 1 1    17   0.8144461933396869 0.33738868011569967 COLOR = 1
0 0 0 0 1 0 0 0 0 0 0 0 0 0 0 0 0 1 0 1    18   0.9681754598287442 0.07123446249434418 COLOR = 2
0 0 0 0 0 0 0 0 0 0 0 0 0 0 1 0 1 1 1 0    19   0.9934090481602845 0.46773474860917474 COLOR = 0

-----------------------------------------------------------------------------------------------------------------------
-----------------------------------------------------------------------------------------------------------------------
-----------------------------------------------------------------------------------------------------------------------

Now running backTrackingWithConstraintPropagation iteration = 3 with 4 colors


The backTrackingWithConstraintPropagation algorithm SUCCESSFULLY colored all of the nodes.

The algorithm made 4368 decisions during it's execution.

0 1 1 1 0 1 1 1 0 0 0 0 0 0 0 0 0 0 0 0    0   0.03230943799502484 0.5775584597056667 COLOR = 0
1 0 1 0 0 0 0 1 0 0 0 0 0 0 0 0 0 0 0 0    1   0.1442259319991619 0.482937458281653 COLOR = 3
1 1 0 1 0 0 0 1 0 0 0 0 0 0 0 0 0 0 0 0    2   0.15955863009434168 0.41548264935490886 COLOR = 2
1 0 1 0 1 0 0 1 0 0 0 0 0 0 0 0 0 0 0 0    3   0.23078291867654377 0.1717106309218085 COLOR = 3
0 0 0 1 0 0 0 1 0 0 1 0 0 0 0 0 0 1 1 0    4   0.3254522703550792 0.07687205262405705 COLOR = 0
1 0 0 0 0 0 1 0 0 0 0 1 1 1 0 0 0 0 0 0    5   0.38086119330247026 0.8516740809373398 COLOR = 3
1 0 0 0 0 1 0 1 1 0 0 1 0 0 0 0 0 0 0 0    6   0.3990482071419703 0.7869311679335668 COLOR = 2
1 1 1 1 1 0 1 0 1 1 1 0 0 0 0 1 0 1 0 0    7   0.42011897391156694 0.4723396756887418 COLOR = 1
0 0 0 0 0 0 1 1 0 1 0 1 1 0 0 0 1 0 0 0    8   0.4532019635333616 0.6255195774735471 COLOR = 0
0 0 0 0 0 0 0 1 1 0 0 0 0 0 0 1 1 0 0 0    9   0.5422078588600155 0.5608028175120565 COLOR = 2
0 0 0 0 1 0 0 1 0 0 0 0 0 0 0 0 0 1 0 0    10   0.5599045507479647 0.33375722491079884 COLOR = 2
0 0 0 0 0 1 1 0 1 0 0 0 1 0 0 0 0 0 0 0    11   0.5645957528792565 0.7434876870725294 COLOR = 1
0 0 0 0 0 1 0 0 1 0 0 1 0 1 1 0 1 0 0 0    12   0.6377974515903231 0.7786715160175868 COLOR = 2
0 0 0 0 0 1 0 0 0 0 0 0 1 0 1 0 0 0 0 0    13   0.6723816348671164 0.9383338805316935 COLOR = 0
0 0 0 0 0 0 0 0 0 0 0 0 1 1 0 0 1 0 0 1    14   0.7500614211303369 0.8337094084781289 COLOR = 3
0 0 0 0 0 0 0 1 0 1 0 0 0 0 0 0 1 1 0 0    15   0.76793748399696 0.5441790330951018 COLOR = 0
0 0 0 0 0 0 0 0 1 1 0 0 1 0 1 1 0 1 0 1    16   0.776663795870318 0.597167626268599 COLOR = 1
0 0 0 0 1 0 0 1 0 0 1 0 0 0 0 1 1 0 1 1    17   0.8144461933396869 0.33738868011569967 COLOR = 3
0 0 0 0 1 0 0 0 0 0 0 0 0 0 0 0 0 1 0 1    18   0.9681754598287442 0.07123446249434418 COLOR = 1
0 0 0 0 0 0 0 0 0 0 0 0 0 0 1 0 1 1 1 0    19   0.9934090481602845 0.46773474860917474 COLOR = 2

-----------------------------------------------------------------------------------------------------------------------
-----------------------------------------------------------------------------------------------------------------------
-----------------------------------------------------------------------------------------------------------------------

Now running backTrackingWithConstraintPropagation iteration = 4 with 4 colors


The backTrackingWithConstraintPropagation algorithm FAILED to color all of the nodes.

The algorithm made 64915 decisions during it's execution.

0 1 1 1 0 1 1 1 0 0 0 0 0 0 0 0 0 0 0 0    0   0.03230943799502484 0.5775584597056667 COLOR = -1
1 0 1 0 0 0 0 1 0 0 0 0 0 0 0 0 0 0 0 0    1   0.1442259319991619 0.482937458281653 COLOR = -1
1 1 0 1 0 0 0 1 0 0 0 0 0 0 0 0 0 0 0 0    2   0.15955863009434168 0.41548264935490886 COLOR = -1
1 0 1 0 1 0 0 1 0 0 0 0 0 0 0 0 0 0 0 0    3   0.23078291867654377 0.1717106309218085 COLOR = -1
0 0 0 1 0 0 0 1 0 0 1 0 0 0 0 0 0 1 1 0    4   0.3254522703550792 0.07687205262405705 COLOR = -1
1 0 0 0 0 0 1 0 0 0 0 1 1 1 0 0 0 0 0 0    5   0.38086119330247026 0.8516740809373398 COLOR = -1
1 0 0 0 0 1 0 1 1 0 0 1 0 0 0 0 0 0 0 0    6   0.3990482071419703 0.7869311679335668 COLOR = -1
1 1 1 1 1 0 1 0 1 1 1 0 0 0 0 1 0 1 0 0    7   0.42011897391156694 0.4723396756887418 COLOR = -1
0 0 0 0 0 0 1 1 0 1 0 1 1 0 0 0 1 0 0 0    8   0.4532019635333616 0.6255195774735471 COLOR = -1
0 0 0 0 0 0 0 1 1 0 0 0 0 0 0 1 1 0 0 0    9   0.5422078588600155 0.5608028175120565 COLOR = -1
0 0 0 0 1 0 0 1 0 0 0 0 0 0 0 0 0 1 0 0    10   0.5599045507479647 0.33375722491079884 COLOR = -1
0 0 0 0 0 1 1 0 1 0 0 0 1 0 0 0 0 0 0 0    11   0.5645957528792565 0.7434876870725294 COLOR = -1
0 0 0 0 0 1 0 0 1 0 0 1 0 1 1 0 1 0 0 0    12   0.6377974515903231 0.7786715160175868 COLOR = -1
0 0 0 0 0 1 0 0 0 0 0 0 1 0 1 0 0 0 0 0    13   0.6723816348671164 0.9383338805316935 COLOR = -1
0 0 0 0 0 0 0 0 0 0 0 0 1 1 0 0 1 0 0 1    14   0.7500614211303369 0.8337094084781289 COLOR = -1
0 0 0 0 0 0 0 1 0 1 0 0 0 0 0 0 1 1 0 0    15   0.76793748399696 0.5441790330951018 COLOR = -1
0 0 0 0 0 0 0 0 1 1 0 0 1 0 1 1 0 1 0 1    16   0.776663795870318 0.597167626268599 COLOR = -1
0 0 0 0 1 0 0 1 0 0 1 0 0 0 0 1 1 0 1 1    17   0.8144461933396869 0.33738868011569967 COLOR = -1
0 0 0 0 1 0 0 0 0 0 0 0 0 0 0 0 0 1 0 1    18   0.9681754598287442 0.07123446249434418 COLOR = -1
0 0 0 0 0 0 0 0 0 0 0 0 0 0 1 0 1 1 1 0    19   0.9934090481602845 0.46773474860917474 COLOR = -1

-----------------------------------------------------------------------------------------------------------------------
-----------------------------------------------------------------------------------------------------------------------
-----------------------------------------------------------------------------------------------------------------------

Now running backTrackingSimple iteration = 1 with 3 colors


The backTrackingSimple algorithm FAILED to color all of the nodes.

The algorithm made 11264 decisions during it's execution.

0 1 1 1 0 1 1 1 0 0 0 0 0 0 0 0 0 0 0 0    0   0.03230943799502484 0.5775584597056667 COLOR = -1
1 0 1 0 0 0 0 1 0 0 0 0 0 0 0 0 0 0 0 0    1   0.1442259319991619 0.482937458281653 COLOR = -1
1 1 0 1 0 0 0 1 0 0 0 0 0 0 0 0 0 0 0 0    2   0.15955863009434168 0.41548264935490886 COLOR = -1
1 0 1 0 1 0 0 1 0 0 0 0 0 0 0 0 0 0 0 0    3   0.23078291867654377 0.1717106309218085 COLOR = -1
0 0 0 1 0 0 0 1 0 0 1 0 0 0 0 0 0 1 1 0    4   0.3254522703550792 0.07687205262405705 COLOR = -1
1 0 0 0 0 0 1 0 0 0 0 1 1 1 0 0 0 0 0 0    5   0.38086119330247026 0.8516740809373398 COLOR = -1
1 0 0 0 0 1 0 1 1 0 0 1 0 0 0 0 0 0 0 0    6   0.3990482071419703 0.7869311679335668 COLOR = -1
1 1 1 1 1 0 1 0 1 1 1 0 0 0 0 1 0 1 0 0    7   0.42011897391156694 0.4723396756887418 COLOR = -1
0 0 0 0 0 0 1 1 0 1 0 1 1 0 0 0 1 0 0 0    8   0.4532019635333616 0.6255195774735471 COLOR = -1
0 0 0 0 0 0 0 1 1 0 0 0 0 0 0 1 1 0 0 0    9   0.5422078588600155 0.5608028175120565 COLOR = -1
0 0 0 0 1 0 0 1 0 0 0 0 0 0 0 0 0 1 0 0    10   0.5599045507479647 0.33375722491079884 COLOR = -1
0 0 0 0 0 1 1 0 1 0 0 0 1 0 0 0 0 0 0 0    11   0.5645957528792565 0.7434876870725294 COLOR = -1
0 0 0 0 0 1 0 0 1 0 0 1 0 1 1 0 1 0 0 0    12   0.6377974515903231 0.7786715160175868 COLOR = -1
0 0 0 0 0 1 0 0 0 0 0 0 1 0 1 0 0 0 0 0    13   0.6723816348671164 0.9383338805316935 COLOR = -1
0 0 0 0 0 0 0 0 0 0 0 0 1 1 0 0 1 0 0 1    14   0.7500614211303369 0.8337094084781289 COLOR = -1
0 0 0 0 0 0 0 1 0 1 0 0 0 0 0 0 1 1 0 0    15   0.76793748399696 0.5441790330951018 COLOR = -1
0 0 0 0 0 0 0 0 1 1 0 0 1 0 1 1 0 1 0 1    16   0.776663795870318 0.597167626268599 COLOR = -1
0 0 0 0 1 0 0 1 0 0 1 0 0 0 0 1 1 0 1 1    17   0.8144461933396869 0.33738868011569967 COLOR = -1
0 0 0 0 1 0 0 0 0 0 0 0 0 0 0 0 0 1 0 1    18   0.9681754598287442 0.07123446249434418 COLOR = -1
0 0 0 0 0 0 0 0 0 0 0 0 0 0 1 0 1 1 1 0    19   0.9934090481602845 0.46773474860917474 COLOR = -1

-----------------------------------------------------------------------------------------------------------------------
-----------------------------------------------------------------------------------------------------------------------
-----------------------------------------------------------------------------------------------------------------------

Now running backTrackingSimple iteration = 2 with 3 colors


The backTrackingSimple algorithm FAILED to color all of the nodes.

The algorithm made 13528 decisions during it's execution.

0 1 1 1 0 1 1 1 0 0 0 0 0 0 0 0 0 0 0 0    0   0.03230943799502484 0.5775584597056667 COLOR = -1
1 0 1 0 0 0 0 1 0 0 0 0 0 0 0 0 0 0 0 0    1   0.1442259319991619 0.482937458281653 COLOR = -1
1 1 0 1 0 0 0 1 0 0 0 0 0 0 0 0 0 0 0 0    2   0.15955863009434168 0.41548264935490886 COLOR = -1
1 0 1 0 1 0 0 1 0 0 0 0 0 0 0 0 0 0 0 0    3   0.23078291867654377 0.1717106309218085 COLOR = -1
0 0 0 1 0 0 0 1 0 0 1 0 0 0 0 0 0 1 1 0    4   0.3254522703550792 0.07687205262405705 COLOR = -1
1 0 0 0 0 0 1 0 0 0 0 1 1 1 0 0 0 0 0 0    5   0.38086119330247026 0.8516740809373398 COLOR = -1
1 0 0 0 0 1 0 1 1 0 0 1 0 0 0 0 0 0 0 0    6   0.3990482071419703 0.7869311679335668 COLOR = -1
1 1 1 1 1 0 1 0 1 1 1 0 0 0 0 1 0 1 0 0    7   0.42011897391156694 0.4723396756887418 COLOR = -1
0 0 0 0 0 0 1 1 0 1 0 1 1 0 0 0 1 0 0 0    8   0.4532019635333616 0.6255195774735471 COLOR = -1
0 0 0 0 0 0 0 1 1 0 0 0 0 0 0 1 1 0 0 0    9   0.5422078588600155 0.5608028175120565 COLOR = -1
0 0 0 0 1 0 0 1 0 0 0 0 0 0 0 0 0 1 0 0    10   0.5599045507479647 0.33375722491079884 COLOR = -1
0 0 0 0 0 1 1 0 1 0 0 0 1 0 0 0 0 0 0 0    11   0.5645957528792565 0.7434876870725294 COLOR = -1
0 0 0 0 0 1 0 0 1 0 0 1 0 1 1 0 1 0 0 0    12   0.6377974515903231 0.7786715160175868 COLOR = -1
0 0 0 0 0 1 0 0 0 0 0 0 1 0 1 0 0 0 0 0    13   0.6723816348671164 0.9383338805316935 COLOR = -1
0 0 0 0 0 0 0 0 0 0 0 0 1 1 0 0 1 0 0 1    14   0.7500614211303369 0.8337094084781289 COLOR = -1
0 0 0 0 0 0 0 1 0 1 0 0 0 0 0 0 1 1 0 0    15   0.76793748399696 0.5441790330951018 COLOR = -1
0 0 0 0 0 0 0 0 1 1 0 0 1 0 1 1 0 1 0 1    16   0.776663795870318 0.597167626268599 COLOR = -1
0 0 0 0 1 0 0 1 0 0 1 0 0 0 0 1 1 0 1 1    17   0.8144461933396869 0.33738868011569967 COLOR = -1
0 0 0 0 1 0 0 0 0 0 0 0 0 0 0 0 0 1 0 1    18   0.9681754598287442 0.07123446249434418 COLOR = -1
0 0 0 0 0 0 0 0 0 0 0 0 0 0 1 0 1 1 1 0    19   0.9934090481602845 0.46773474860917474 COLOR = -1

-----------------------------------------------------------------------------------------------------------------------
-----------------------------------------------------------------------------------------------------------------------
-----------------------------------------------------------------------------------------------------------------------

Now running backTrackingSimple iteration = 3 with 3 colors


The backTrackingSimple algorithm FAILED to color all of the nodes.

The algorithm made 3372 decisions during it's execution.

0 1 1 1 0 1 1 1 0 0 0 0 0 0 0 0 0 0 0 0    0   0.03230943799502484 0.5775584597056667 COLOR = -1
1 0 1 0 0 0 0 1 0 0 0 0 0 0 0 0 0 0 0 0    1   0.1442259319991619 0.482937458281653 COLOR = -1
1 1 0 1 0 0 0 1 0 0 0 0 0 0 0 0 0 0 0 0    2   0.15955863009434168 0.41548264935490886 COLOR = -1
1 0 1 0 1 0 0 1 0 0 0 0 0 0 0 0 0 0 0 0    3   0.23078291867654377 0.1717106309218085 COLOR = -1
0 0 0 1 0 0 0 1 0 0 1 0 0 0 0 0 0 1 1 0    4   0.3254522703550792 0.07687205262405705 COLOR = -1
1 0 0 0 0 0 1 0 0 0 0 1 1 1 0 0 0 0 0 0    5   0.38086119330247026 0.8516740809373398 COLOR = -1
1 0 0 0 0 1 0 1 1 0 0 1 0 0 0 0 0 0 0 0    6   0.3990482071419703 0.7869311679335668 COLOR = -1
1 1 1 1 1 0 1 0 1 1 1 0 0 0 0 1 0 1 0 0    7   0.42011897391156694 0.4723396756887418 COLOR = -1
0 0 0 0 0 0 1 1 0 1 0 1 1 0 0 0 1 0 0 0    8   0.4532019635333616 0.6255195774735471 COLOR = -1
0 0 0 0 0 0 0 1 1 0 0 0 0 0 0 1 1 0 0 0    9   0.5422078588600155 0.5608028175120565 COLOR = -1
0 0 0 0 1 0 0 1 0 0 0 0 0 0 0 0 0 1 0 0    10   0.5599045507479647 0.33375722491079884 COLOR = -1
0 0 0 0 0 1 1 0 1 0 0 0 1 0 0 0 0 0 0 0    11   0.5645957528792565 0.7434876870725294 COLOR = -1
0 0 0 0 0 1 0 0 1 0 0 1 0 1 1 0 1 0 0 0    12   0.6377974515903231 0.7786715160175868 COLOR = -1
0 0 0 0 0 1 0 0 0 0 0 0 1 0 1 0 0 0 0 0    13   0.6723816348671164 0.9383338805316935 COLOR = -1
0 0 0 0 0 0 0 0 0 0 0 0 1 1 0 0 1 0 0 1    14   0.7500614211303369 0.8337094084781289 COLOR = -1
0 0 0 0 0 0 0 1 0 1 0 0 0 0 0 0 1 1 0 0    15   0.76793748399696 0.5441790330951018 COLOR = -1
0 0 0 0 0 0 0 0 1 1 0 0 1 0 1 1 0 1 0 1    16   0.776663795870318 0.597167626268599 COLOR = -1
0 0 0 0 1 0 0 1 0 0 1 0 0 0 0 1 1 0 1 1    17   0.8144461933396869 0.33738868011569967 COLOR = -1
0 0 0 0 1 0 0 0 0 0 0 0 0 0 0 0 0 1 0 1    18   0.9681754598287442 0.07123446249434418 COLOR = -1
0 0 0 0 0 0 0 0 0 0 0 0 0 0 1 0 1 1 1 0    19   0.9934090481602845 0.46773474860917474 COLOR = -1

-----------------------------------------------------------------------------------------------------------------------
-----------------------------------------------------------------------------------------------------------------------
-----------------------------------------------------------------------------------------------------------------------

Now running backTrackingSimple iteration = 4 with 3 colors


The backTrackingSimple algorithm FAILED to color all of the nodes.

The algorithm made 11956 decisions during it's execution.

0 1 1 1 0 1 1 1 0 0 0 0 0 0 0 0 0 0 0 0    0   0.03230943799502484 0.5775584597056667 COLOR = -1
1 0 1 0 0 0 0 1 0 0 0 0 0 0 0 0 0 0 0 0    1   0.1442259319991619 0.482937458281653 COLOR = -1
1 1 0 1 0 0 0 1 0 0 0 0 0 0 0 0 0 0 0 0    2   0.15955863009434168 0.41548264935490886 COLOR = -1
1 0 1 0 1 0 0 1 0 0 0 0 0 0 0 0 0 0 0 0    3   0.23078291867654377 0.1717106309218085 COLOR = -1
0 0 0 1 0 0 0 1 0 0 1 0 0 0 0 0 0 1 1 0    4   0.3254522703550792 0.07687205262405705 COLOR = -1
1 0 0 0 0 0 1 0 0 0 0 1 1 1 0 0 0 0 0 0    5   0.38086119330247026 0.8516740809373398 COLOR = -1
1 0 0 0 0 1 0 1 1 0 0 1 0 0 0 0 0 0 0 0    6   0.3990482071419703 0.7869311679335668 COLOR = -1
1 1 1 1 1 0 1 0 1 1 1 0 0 0 0 1 0 1 0 0    7   0.42011897391156694 0.4723396756887418 COLOR = -1
0 0 0 0 0 0 1 1 0 1 0 1 1 0 0 0 1 0 0 0    8   0.4532019635333616 0.6255195774735471 COLOR = -1
0 0 0 0 0 0 0 1 1 0 0 0 0 0 0 1 1 0 0 0    9   0.5422078588600155 0.5608028175120565 COLOR = -1
0 0 0 0 1 0 0 1 0 0 0 0 0 0 0 0 0 1 0 0    10   0.5599045507479647 0.33375722491079884 COLOR = -1
0 0 0 0 0 1 1 0 1 0 0 0 1 0 0 0 0 0 0 0    11   0.5645957528792565 0.7434876870725294 COLOR = -1
0 0 0 0 0 1 0 0 1 0 0 1 0 1 1 0 1 0 0 0    12   0.6377974515903231 0.7786715160175868 COLOR = -1
0 0 0 0 0 1 0 0 0 0 0 0 1 0 1 0 0 0 0 0    13   0.6723816348671164 0.9383338805316935 COLOR = -1
0 0 0 0 0 0 0 0 0 0 0 0 1 1 0 0 1 0 0 1    14   0.7500614211303369 0.8337094084781289 COLOR = -1
0 0 0 0 0 0 0 1 0 1 0 0 0 0 0 0 1 1 0 0    15   0.76793748399696 0.5441790330951018 COLOR = -1
0 0 0 0 0 0 0 0 1 1 0 0 1 0 1 1 0 1 0 1    16   0.776663795870318 0.597167626268599 COLOR = -1
0 0 0 0 1 0 0 1 0 0 1 0 0 0 0 1 1 0 1 1    17   0.8144461933396869 0.33738868011569967 COLOR = -1
0 0 0 0 1 0 0 0 0 0 0 0 0 0 0 0 0 1 0 1    18   0.9681754598287442 0.07123446249434418 COLOR = -1
0 0 0 0 0 0 0 0 0 0 0 0 0 0 1 0 1 1 1 0    19   0.9934090481602845 0.46773474860917474 COLOR = -1

-----------------------------------------------------------------------------------------------------------------------
-----------------------------------------------------------------------------------------------------------------------
-----------------------------------------------------------------------------------------------------------------------

Now running backTrackingWithForwardChecking iteration = 1 with 3 colors


The backTrackingWithForwardChecking algorithm FAILED to color all of the nodes.

The algorithm made 15060 decisions during it's execution.

0 1 1 1 0 1 1 1 0 0 0 0 0 0 0 0 0 0 0 0    0   0.03230943799502484 0.5775584597056667 COLOR = -1
1 0 1 0 0 0 0 1 0 0 0 0 0 0 0 0 0 0 0 0    1   0.1442259319991619 0.482937458281653 COLOR = -1
1 1 0 1 0 0 0 1 0 0 0 0 0 0 0 0 0 0 0 0    2   0.15955863009434168 0.41548264935490886 COLOR = -1
1 0 1 0 1 0 0 1 0 0 0 0 0 0 0 0 0 0 0 0    3   0.23078291867654377 0.1717106309218085 COLOR = -1
0 0 0 1 0 0 0 1 0 0 1 0 0 0 0 0 0 1 1 0    4   0.3254522703550792 0.07687205262405705 COLOR = -1
1 0 0 0 0 0 1 0 0 0 0 1 1 1 0 0 0 0 0 0    5   0.38086119330247026 0.8516740809373398 COLOR = -1
1 0 0 0 0 1 0 1 1 0 0 1 0 0 0 0 0 0 0 0    6   0.3990482071419703 0.7869311679335668 COLOR = -1
1 1 1 1 1 0 1 0 1 1 1 0 0 0 0 1 0 1 0 0    7   0.42011897391156694 0.4723396756887418 COLOR = -1
0 0 0 0 0 0 1 1 0 1 0 1 1 0 0 0 1 0 0 0    8   0.4532019635333616 0.6255195774735471 COLOR = -1
0 0 0 0 0 0 0 1 1 0 0 0 0 0 0 1 1 0 0 0    9   0.5422078588600155 0.5608028175120565 COLOR = -1
0 0 0 0 1 0 0 1 0 0 0 0 0 0 0 0 0 1 0 0    10   0.5599045507479647 0.33375722491079884 COLOR = -1
0 0 0 0 0 1 1 0 1 0 0 0 1 0 0 0 0 0 0 0    11   0.5645957528792565 0.7434876870725294 COLOR = -1
0 0 0 0 0 1 0 0 1 0 0 1 0 1 1 0 1 0 0 0    12   0.6377974515903231 0.7786715160175868 COLOR = -1
0 0 0 0 0 1 0 0 0 0 0 0 1 0 1 0 0 0 0 0    13   0.6723816348671164 0.9383338805316935 COLOR = -1
0 0 0 0 0 0 0 0 0 0 0 0 1 1 0 0 1 0 0 1    14   0.7500614211303369 0.8337094084781289 COLOR = -1
0 0 0 0 0 0 0 1 0 1 0 0 0 0 0 0 1 1 0 0    15   0.76793748399696 0.5441790330951018 COLOR = -1
0 0 0 0 0 0 0 0 1 1 0 0 1 0 1 1 0 1 0 1    16   0.776663795870318 0.597167626268599 COLOR = -1
0 0 0 0 1 0 0 1 0 0 1 0 0 0 0 1 1 0 1 1    17   0.8144461933396869 0.33738868011569967 COLOR = -1
0 0 0 0 1 0 0 0 0 0 0 0 0 0 0 0 0 1 0 1    18   0.9681754598287442 0.07123446249434418 COLOR = -1
0 0 0 0 0 0 0 0 0 0 0 0 0 0 1 0 1 1 1 0    19   0.9934090481602845 0.46773474860917474 COLOR = -1

-----------------------------------------------------------------------------------------------------------------------
-----------------------------------------------------------------------------------------------------------------------
-----------------------------------------------------------------------------------------------------------------------

Now running backTrackingWithForwardChecking iteration = 2 with 3 colors


The backTrackingWithForwardChecking algorithm FAILED to color all of the nodes.

The algorithm made 16872 decisions during it's execution.

0 1 1 1 0 1 1 1 0 0 0 0 0 0 0 0 0 0 0 0    0   0.03230943799502484 0.5775584597056667 COLOR = -1
1 0 1 0 0 0 0 1 0 0 0 0 0 0 0 0 0 0 0 0    1   0.1442259319991619 0.482937458281653 COLOR = -1
1 1 0 1 0 0 0 1 0 0 0 0 0 0 0 0 0 0 0 0    2   0.15955863009434168 0.41548264935490886 COLOR = -1
1 0 1 0 1 0 0 1 0 0 0 0 0 0 0 0 0 0 0 0    3   0.23078291867654377 0.1717106309218085 COLOR = -1
0 0 0 1 0 0 0 1 0 0 1 0 0 0 0 0 0 1 1 0    4   0.3254522703550792 0.07687205262405705 COLOR = -1
1 0 0 0 0 0 1 0 0 0 0 1 1 1 0 0 0 0 0 0    5   0.38086119330247026 0.8516740809373398 COLOR = -1
1 0 0 0 0 1 0 1 1 0 0 1 0 0 0 0 0 0 0 0    6   0.3990482071419703 0.7869311679335668 COLOR = -1
1 1 1 1 1 0 1 0 1 1 1 0 0 0 0 1 0 1 0 0    7   0.42011897391156694 0.4723396756887418 COLOR = -1
0 0 0 0 0 0 1 1 0 1 0 1 1 0 0 0 1 0 0 0    8   0.4532019635333616 0.6255195774735471 COLOR = -1
0 0 0 0 0 0 0 1 1 0 0 0 0 0 0 1 1 0 0 0    9   0.5422078588600155 0.5608028175120565 COLOR = -1
0 0 0 0 1 0 0 1 0 0 0 0 0 0 0 0 0 1 0 0    10   0.5599045507479647 0.33375722491079884 COLOR = -1
0 0 0 0 0 1 1 0 1 0 0 0 1 0 0 0 0 0 0 0    11   0.5645957528792565 0.7434876870725294 COLOR = -1
0 0 0 0 0 1 0 0 1 0 0 1 0 1 1 0 1 0 0 0    12   0.6377974515903231 0.7786715160175868 COLOR = -1
0 0 0 0 0 1 0 0 0 0 0 0 1 0 1 0 0 0 0 0    13   0.6723816348671164 0.9383338805316935 COLOR = -1
0 0 0 0 0 0 0 0 0 0 0 0 1 1 0 0 1 0 0 1    14   0.7500614211303369 0.8337094084781289 COLOR = -1
0 0 0 0 0 0 0 1 0 1 0 0 0 0 0 0 1 1 0 0    15   0.76793748399696 0.5441790330951018 COLOR = -1
0 0 0 0 0 0 0 0 1 1 0 0 1 0 1 1 0 1 0 1    16   0.776663795870318 0.597167626268599 COLOR = -1
0 0 0 0 1 0 0 1 0 0 1 0 0 0 0 1 1 0 1 1    17   0.8144461933396869 0.33738868011569967 COLOR = -1
0 0 0 0 1 0 0 0 0 0 0 0 0 0 0 0 0 1 0 1    18   0.9681754598287442 0.07123446249434418 COLOR = -1
0 0 0 0 0 0 0 0 0 0 0 0 0 0 1 0 1 1 1 0    19   0.9934090481602845 0.46773474860917474 COLOR = -1

-----------------------------------------------------------------------------------------------------------------------
-----------------------------------------------------------------------------------------------------------------------
-----------------------------------------------------------------------------------------------------------------------

Now running backTrackingWithForwardChecking iteration = 3 with 3 colors


The backTrackingWithForwardChecking algorithm FAILED to color all of the nodes.

The algorithm made 7444 decisions during it's execution.

0 1 1 1 0 1 1 1 0 0 0 0 0 0 0 0 0 0 0 0    0   0.03230943799502484 0.5775584597056667 COLOR = -1
1 0 1 0 0 0 0 1 0 0 0 0 0 0 0 0 0 0 0 0    1   0.1442259319991619 0.482937458281653 COLOR = -1
1 1 0 1 0 0 0 1 0 0 0 0 0 0 0 0 0 0 0 0    2   0.15955863009434168 0.41548264935490886 COLOR = -1
1 0 1 0 1 0 0 1 0 0 0 0 0 0 0 0 0 0 0 0    3   0.23078291867654377 0.1717106309218085 COLOR = -1
0 0 0 1 0 0 0 1 0 0 1 0 0 0 0 0 0 1 1 0    4   0.3254522703550792 0.07687205262405705 COLOR = -1
1 0 0 0 0 0 1 0 0 0 0 1 1 1 0 0 0 0 0 0    5   0.38086119330247026 0.8516740809373398 COLOR = -1
1 0 0 0 0 1 0 1 1 0 0 1 0 0 0 0 0 0 0 0    6   0.3990482071419703 0.7869311679335668 COLOR = -1
1 1 1 1 1 0 1 0 1 1 1 0 0 0 0 1 0 1 0 0    7   0.42011897391156694 0.4723396756887418 COLOR = -1
0 0 0 0 0 0 1 1 0 1 0 1 1 0 0 0 1 0 0 0    8   0.4532019635333616 0.6255195774735471 COLOR = -1
0 0 0 0 0 0 0 1 1 0 0 0 0 0 0 1 1 0 0 0    9   0.5422078588600155 0.5608028175120565 COLOR = -1
0 0 0 0 1 0 0 1 0 0 0 0 0 0 0 0 0 1 0 0    10   0.5599045507479647 0.33375722491079884 COLOR = -1
0 0 0 0 0 1 1 0 1 0 0 0 1 0 0 0 0 0 0 0    11   0.5645957528792565 0.7434876870725294 COLOR = -1
0 0 0 0 0 1 0 0 1 0 0 1 0 1 1 0 1 0 0 0    12   0.6377974515903231 0.7786715160175868 COLOR = -1
0 0 0 0 0 1 0 0 0 0 0 0 1 0 1 0 0 0 0 0    13   0.6723816348671164 0.9383338805316935 COLOR = -1
0 0 0 0 0 0 0 0 0 0 0 0 1 1 0 0 1 0 0 1    14   0.7500614211303369 0.8337094084781289 COLOR = -1
0 0 0 0 0 0 0 1 0 1 0 0 0 0 0 0 1 1 0 0    15   0.76793748399696 0.5441790330951018 COLOR = -1
0 0 0 0 0 0 0 0 1 1 0 0 1 0 1 1 0 1 0 1    16   0.776663795870318 0.597167626268599 COLOR = -1
0 0 0 0 1 0 0 1 0 0 1 0 0 0 0 1 1 0 1 1    17   0.8144461933396869 0.33738868011569967 COLOR = -1
0 0 0 0 1 0 0 0 0 0 0 0 0 0 0 0 0 1 0 1    18   0.9681754598287442 0.07123446249434418 COLOR = -1
0 0 0 0 0 0 0 0 0 0 0 0 0 0 1 0 1 1 1 0    19   0.9934090481602845 0.46773474860917474 COLOR = -1

-----------------------------------------------------------------------------------------------------------------------
-----------------------------------------------------------------------------------------------------------------------
-----------------------------------------------------------------------------------------------------------------------

Now running backTrackingWithForwardChecking iteration = 4 with 3 colors


The backTrackingWithForwardChecking algorithm FAILED to color all of the nodes.

The algorithm made 19636 decisions during it's execution.

0 1 1 1 0 1 1 1 0 0 0 0 0 0 0 0 0 0 0 0    0   0.03230943799502484 0.5775584597056667 COLOR = -1
1 0 1 0 0 0 0 1 0 0 0 0 0 0 0 0 0 0 0 0    1   0.1442259319991619 0.482937458281653 COLOR = -1
1 1 0 1 0 0 0 1 0 0 0 0 0 0 0 0 0 0 0 0    2   0.15955863009434168 0.41548264935490886 COLOR = -1
1 0 1 0 1 0 0 1 0 0 0 0 0 0 0 0 0 0 0 0    3   0.23078291867654377 0.1717106309218085 COLOR = -1
0 0 0 1 0 0 0 1 0 0 1 0 0 0 0 0 0 1 1 0    4   0.3254522703550792 0.07687205262405705 COLOR = -1
1 0 0 0 0 0 1 0 0 0 0 1 1 1 0 0 0 0 0 0    5   0.38086119330247026 0.8516740809373398 COLOR = -1
1 0 0 0 0 1 0 1 1 0 0 1 0 0 0 0 0 0 0 0    6   0.3990482071419703 0.7869311679335668 COLOR = -1
1 1 1 1 1 0 1 0 1 1 1 0 0 0 0 1 0 1 0 0    7   0.42011897391156694 0.4723396756887418 COLOR = -1
0 0 0 0 0 0 1 1 0 1 0 1 1 0 0 0 1 0 0 0    8   0.4532019635333616 0.6255195774735471 COLOR = -1
0 0 0 0 0 0 0 1 1 0 0 0 0 0 0 1 1 0 0 0    9   0.5422078588600155 0.5608028175120565 COLOR = -1
0 0 0 0 1 0 0 1 0 0 0 0 0 0 0 0 0 1 0 0    10   0.5599045507479647 0.33375722491079884 COLOR = -1
0 0 0 0 0 1 1 0 1 0 0 0 1 0 0 0 0 0 0 0    11   0.5645957528792565 0.7434876870725294 COLOR = -1
0 0 0 0 0 1 0 0 1 0 0 1 0 1 1 0 1 0 0 0    12   0.6377974515903231 0.7786715160175868 COLOR = -1
0 0 0 0 0 1 0 0 0 0 0 0 1 0 1 0 0 0 0 0    13   0.6723816348671164 0.9383338805316935 COLOR = -1
0 0 0 0 0 0 0 0 0 0 0 0 1 1 0 0 1 0 0 1    14   0.7500614211303369 0.8337094084781289 COLOR = -1
0 0 0 0 0 0 0 1 0 1 0 0 0 0 0 0 1 1 0 0    15   0.76793748399696 0.5441790330951018 COLOR = -1
0 0 0 0 0 0 0 0 1 1 0 0 1 0 1 1 0 1 0 1    16   0.776663795870318 0.597167626268599 COLOR = -1
0 0 0 0 1 0 0 1 0 0 1 0 0 0 0 1 1 0 1 1    17   0.8144461933396869 0.33738868011569967 COLOR = -1
0 0 0 0 1 0 0 0 0 0 0 0 0 0 0 0 0 1 0 1    18   0.9681754598287442 0.07123446249434418 COLOR = -1
0 0 0 0 0 0 0 0 0 0 0 0 0 0 1 0 1 1 1 0    19   0.9934090481602845 0.46773474860917474 COLOR = -1

-----------------------------------------------------------------------------------------------------------------------
-----------------------------------------------------------------------------------------------------------------------
-----------------------------------------------------------------------------------------------------------------------

Now running backTrackingWithConstraintPropagation iteration = 1 with 3 colors


The backTrackingWithConstraintPropagation algorithm FAILED to color all of the nodes.

The algorithm made 15956 decisions during it's execution.

0 1 1 1 0 1 1 1 0 0 0 0 0 0 0 0 0 0 0 0    0   0.03230943799502484 0.5775584597056667 COLOR = -1
1 0 1 0 0 0 0 1 0 0 0 0 0 0 0 0 0 0 0 0    1   0.1442259319991619 0.482937458281653 COLOR = -1
1 1 0 1 0 0 0 1 0 0 0 0 0 0 0 0 0 0 0 0    2   0.15955863009434168 0.41548264935490886 COLOR = -1
1 0 1 0 1 0 0 1 0 0 0 0 0 0 0 0 0 0 0 0    3   0.23078291867654377 0.1717106309218085 COLOR = -1
0 0 0 1 0 0 0 1 0 0 1 0 0 0 0 0 0 1 1 0    4   0.3254522703550792 0.07687205262405705 COLOR = -1
1 0 0 0 0 0 1 0 0 0 0 1 1 1 0 0 0 0 0 0    5   0.38086119330247026 0.8516740809373398 COLOR = -1
1 0 0 0 0 1 0 1 1 0 0 1 0 0 0 0 0 0 0 0    6   0.3990482071419703 0.7869311679335668 COLOR = -1
1 1 1 1 1 0 1 0 1 1 1 0 0 0 0 1 0 1 0 0    7   0.42011897391156694 0.4723396756887418 COLOR = -1
0 0 0 0 0 0 1 1 0 1 0 1 1 0 0 0 1 0 0 0    8   0.4532019635333616 0.6255195774735471 COLOR = -1
0 0 0 0 0 0 0 1 1 0 0 0 0 0 0 1 1 0 0 0    9   0.5422078588600155 0.5608028175120565 COLOR = -1
0 0 0 0 1 0 0 1 0 0 0 0 0 0 0 0 0 1 0 0    10   0.5599045507479647 0.33375722491079884 COLOR = -1
0 0 0 0 0 1 1 0 1 0 0 0 1 0 0 0 0 0 0 0    11   0.5645957528792565 0.7434876870725294 COLOR = -1
0 0 0 0 0 1 0 0 1 0 0 1 0 1 1 0 1 0 0 0    12   0.6377974515903231 0.7786715160175868 COLOR = -1
0 0 0 0 0 1 0 0 0 0 0 0 1 0 1 0 0 0 0 0    13   0.6723816348671164 0.9383338805316935 COLOR = -1
0 0 0 0 0 0 0 0 0 0 0 0 1 1 0 0 1 0 0 1    14   0.7500614211303369 0.8337094084781289 COLOR = -1
0 0 0 0 0 0 0 1 0 1 0 0 0 0 0 0 1 1 0 0    15   0.76793748399696 0.5441790330951018 COLOR = -1
0 0 0 0 0 0 0 0 1 1 0 0 1 0 1 1 0 1 0 1    16   0.776663795870318 0.597167626268599 COLOR = -1
0 0 0 0 1 0 0 1 0 0 1 0 0 0 0 1 1 0 1 1    17   0.8144461933396869 0.33738868011569967 COLOR = -1
0 0 0 0 1 0 0 0 0 0 0 0 0 0 0 0 0 1 0 1    18   0.9681754598287442 0.07123446249434418 COLOR = -1
0 0 0 0 0 0 0 0 0 0 0 0 0 0 1 0 1 1 1 0    19   0.9934090481602845 0.46773474860917474 COLOR = -1

-----------------------------------------------------------------------------------------------------------------------
-----------------------------------------------------------------------------------------------------------------------
-----------------------------------------------------------------------------------------------------------------------

Now running backTrackingWithConstraintPropagation iteration = 2 with 3 colors


The backTrackingWithConstraintPropagation algorithm FAILED to color all of the nodes.

The algorithm made 10968 decisions during it's execution.

0 1 1 1 0 1 1 1 0 0 0 0 0 0 0 0 0 0 0 0    0   0.03230943799502484 0.5775584597056667 COLOR = -1
1 0 1 0 0 0 0 1 0 0 0 0 0 0 0 0 0 0 0 0    1   0.1442259319991619 0.482937458281653 COLOR = -1
1 1 0 1 0 0 0 1 0 0 0 0 0 0 0 0 0 0 0 0    2   0.15955863009434168 0.41548264935490886 COLOR = -1
1 0 1 0 1 0 0 1 0 0 0 0 0 0 0 0 0 0 0 0    3   0.23078291867654377 0.1717106309218085 COLOR = -1
0 0 0 1 0 0 0 1 0 0 1 0 0 0 0 0 0 1 1 0    4   0.3254522703550792 0.07687205262405705 COLOR = -1
1 0 0 0 0 0 1 0 0 0 0 1 1 1 0 0 0 0 0 0    5   0.38086119330247026 0.8516740809373398 COLOR = -1
1 0 0 0 0 1 0 1 1 0 0 1 0 0 0 0 0 0 0 0    6   0.3990482071419703 0.7869311679335668 COLOR = -1
1 1 1 1 1 0 1 0 1 1 1 0 0 0 0 1 0 1 0 0    7   0.42011897391156694 0.4723396756887418 COLOR = -1
0 0 0 0 0 0 1 1 0 1 0 1 1 0 0 0 1 0 0 0    8   0.4532019635333616 0.6255195774735471 COLOR = -1
0 0 0 0 0 0 0 1 1 0 0 0 0 0 0 1 1 0 0 0    9   0.5422078588600155 0.5608028175120565 COLOR = -1
0 0 0 0 1 0 0 1 0 0 0 0 0 0 0 0 0 1 0 0    10   0.5599045507479647 0.33375722491079884 COLOR = -1
0 0 0 0 0 1 1 0 1 0 0 0 1 0 0 0 0 0 0 0    11   0.5645957528792565 0.7434876870725294 COLOR = -1
0 0 0 0 0 1 0 0 1 0 0 1 0 1 1 0 1 0 0 0    12   0.6377974515903231 0.7786715160175868 COLOR = -1
0 0 0 0 0 1 0 0 0 0 0 0 1 0 1 0 0 0 0 0    13   0.6723816348671164 0.9383338805316935 COLOR = -1
0 0 0 0 0 0 0 0 0 0 0 0 1 1 0 0 1 0 0 1    14   0.7500614211303369 0.8337094084781289 COLOR = -1
0 0 0 0 0 0 0 1 0 1 0 0 0 0 0 0 1 1 0 0    15   0.76793748399696 0.5441790330951018 COLOR = -1
0 0 0 0 0 0 0 0 1 1 0 0 1 0 1 1 0 1 0 1    16   0.776663795870318 0.597167626268599 COLOR = -1
0 0 0 0 1 0 0 1 0 0 1 0 0 0 0 1 1 0 1 1    17   0.8144461933396869 0.33738868011569967 COLOR = -1
0 0 0 0 1 0 0 0 0 0 0 0 0 0 0 0 0 1 0 1    18   0.9681754598287442 0.07123446249434418 COLOR = -1
0 0 0 0 0 0 0 0 0 0 0 0 0 0 1 0 1 1 1 0    19   0.9934090481602845 0.46773474860917474 COLOR = -1

-----------------------------------------------------------------------------------------------------------------------
-----------------------------------------------------------------------------------------------------------------------
-----------------------------------------------------------------------------------------------------------------------

Now running backTrackingWithConstraintPropagation iteration = 3 with 3 colors


The backTrackingWithConstraintPropagation algorithm FAILED to color all of the nodes.

The algorithm made 3336 decisions during it's execution.

0 1 1 1 0 1 1 1 0 0 0 0 0 0 0 0 0 0 0 0    0   0.03230943799502484 0.5775584597056667 COLOR = -1
1 0 1 0 0 0 0 1 0 0 0 0 0 0 0 0 0 0 0 0    1   0.1442259319991619 0.482937458281653 COLOR = -1
1 1 0 1 0 0 0 1 0 0 0 0 0 0 0 0 0 0 0 0    2   0.15955863009434168 0.41548264935490886 COLOR = -1
1 0 1 0 1 0 0 1 0 0 0 0 0 0 0 0 0 0 0 0    3   0.23078291867654377 0.1717106309218085 COLOR = -1
0 0 0 1 0 0 0 1 0 0 1 0 0 0 0 0 0 1 1 0    4   0.3254522703550792 0.07687205262405705 COLOR = -1
1 0 0 0 0 0 1 0 0 0 0 1 1 1 0 0 0 0 0 0    5   0.38086119330247026 0.8516740809373398 COLOR = -1
1 0 0 0 0 1 0 1 1 0 0 1 0 0 0 0 0 0 0 0    6   0.3990482071419703 0.7869311679335668 COLOR = -1
1 1 1 1 1 0 1 0 1 1 1 0 0 0 0 1 0 1 0 0    7   0.42011897391156694 0.4723396756887418 COLOR = -1
0 0 0 0 0 0 1 1 0 1 0 1 1 0 0 0 1 0 0 0    8   0.4532019635333616 0.6255195774735471 COLOR = -1
0 0 0 0 0 0 0 1 1 0 0 0 0 0 0 1 1 0 0 0    9   0.5422078588600155 0.5608028175120565 COLOR = -1
0 0 0 0 1 0 0 1 0 0 0 0 0 0 0 0 0 1 0 0    10   0.5599045507479647 0.33375722491079884 COLOR = -1
0 0 0 0 0 1 1 0 1 0 0 0 1 0 0 0 0 0 0 0    11   0.5645957528792565 0.7434876870725294 COLOR = -1
0 0 0 0 0 1 0 0 1 0 0 1 0 1 1 0 1 0 0 0    12   0.6377974515903231 0.7786715160175868 COLOR = -1
0 0 0 0 0 1 0 0 0 0 0 0 1 0 1 0 0 0 0 0    13   0.6723816348671164 0.9383338805316935 COLOR = -1
0 0 0 0 0 0 0 0 0 0 0 0 1 1 0 0 1 0 0 1    14   0.7500614211303369 0.8337094084781289 COLOR = -1
0 0 0 0 0 0 0 1 0 1 0 0 0 0 0 0 1 1 0 0    15   0.76793748399696 0.5441790330951018 COLOR = -1
0 0 0 0 0 0 0 0 1 1 0 0 1 0 1 1 0 1 0 1    16   0.776663795870318 0.597167626268599 COLOR = -1
0 0 0 0 1 0 0 1 0 0 1 0 0 0 0 1 1 0 1 1    17   0.8144461933396869 0.33738868011569967 COLOR = -1
0 0 0 0 1 0 0 0 0 0 0 0 0 0 0 0 0 1 0 1    18   0.9681754598287442 0.07123446249434418 COLOR = -1
0 0 0 0 0 0 0 0 0 0 0 0 0 0 1 0 1 1 1 0    19   0.9934090481602845 0.46773474860917474 COLOR = -1

-----------------------------------------------------------------------------------------------------------------------
-----------------------------------------------------------------------------------------------------------------------
-----------------------------------------------------------------------------------------------------------------------

Now running backTrackingWithConstraintPropagation iteration = 4 with 3 colors


The backTrackingWithConstraintPropagation algorithm FAILED to color all of the nodes.

The algorithm made 4816 decisions during it's execution.

0 1 1 1 0 1 1 1 0 0 0 0 0 0 0 0 0 0 0 0    0   0.03230943799502484 0.5775584597056667 COLOR = -1
1 0 1 0 0 0 0 1 0 0 0 0 0 0 0 0 0 0 0 0    1   0.1442259319991619 0.482937458281653 COLOR = -1
1 1 0 1 0 0 0 1 0 0 0 0 0 0 0 0 0 0 0 0    2   0.15955863009434168 0.41548264935490886 COLOR = -1
1 0 1 0 1 0 0 1 0 0 0 0 0 0 0 0 0 0 0 0    3   0.23078291867654377 0.1717106309218085 COLOR = -1
0 0 0 1 0 0 0 1 0 0 1 0 0 0 0 0 0 1 1 0    4   0.3254522703550792 0.07687205262405705 COLOR = -1
1 0 0 0 0 0 1 0 0 0 0 1 1 1 0 0 0 0 0 0    5   0.38086119330247026 0.8516740809373398 COLOR = -1
1 0 0 0 0 1 0 1 1 0 0 1 0 0 0 0 0 0 0 0    6   0.3990482071419703 0.7869311679335668 COLOR = -1
1 1 1 1 1 0 1 0 1 1 1 0 0 0 0 1 0 1 0 0    7   0.42011897391156694 0.4723396756887418 COLOR = -1
0 0 0 0 0 0 1 1 0 1 0 1 1 0 0 0 1 0 0 0    8   0.4532019635333616 0.6255195774735471 COLOR = -1
0 0 0 0 0 0 0 1 1 0 0 0 0 0 0 1 1 0 0 0    9   0.5422078588600155 0.5608028175120565 COLOR = -1
0 0 0 0 1 0 0 1 0 0 0 0 0 0 0 0 0 1 0 0    10   0.5599045507479647 0.33375722491079884 COLOR = -1
0 0 0 0 0 1 1 0 1 0 0 0 1 0 0 0 0 0 0 0    11   0.5645957528792565 0.7434876870725294 COLOR = -1
0 0 0 0 0 1 0 0 1 0 0 1 0 1 1 0 1 0 0 0    12   0.6377974515903231 0.7786715160175868 COLOR = -1
0 0 0 0 0 1 0 0 0 0 0 0 1 0 1 0 0 0 0 0    13   0.6723816348671164 0.9383338805316935 COLOR = -1
0 0 0 0 0 0 0 0 0 0 0 0 1 1 0 0 1 0 0 1    14   0.7500614211303369 0.8337094084781289 COLOR = -1
0 0 0 0 0 0 0 1 0 1 0 0 0 0 0 0 1 1 0 0    15   0.76793748399696 0.5441790330951018 COLOR = -1
0 0 0 0 0 0 0 0 1 1 0 0 1 0 1 1 0 1 0 1    16   0.776663795870318 0.597167626268599 COLOR = -1
0 0 0 0 1 0 0 1 0 0 1 0 0 0 0 1 1 0 1 1    17   0.8144461933396869 0.33738868011569967 COLOR = -1
0 0 0 0 1 0 0 0 0 0 0 0 0 0 0 0 0 1 0 1    18   0.9681754598287442 0.07123446249434418 COLOR = -1
0 0 0 0 0 0 0 0 0 0 0 0 0 0 1 0 1 1 1 0    19   0.9934090481602845 0.46773474860917474 COLOR = -1

-----------------------------------------------------------------------------------------------------------------------
-----------------------------------------------------------------------------------------------------------------------
-----------------------------------------------------------------------------------------------------------------------

