Test Parameters:
	filename: graph10.txt
	numRuns: 400
	colors: 4
	max generations: 2000
	population size: 20
	mutation chance: 0.6
	tournament size: 10
	tournament chance: 0.5

Summary:
400 tests were run. 100.0% of them succeeded.
Of the successes, the average number iterations was 6.77 (min 0, max 58).
Of the failures, the average conflicts in the best result was 0.00 (min 999999999, max 0)

All results:
Success  Iterations  Conflicts  Color Sequence
   True           3          0  (0, 1, 3, 2, 3, 1, 2, 2, 1, 0)
   True           2          0  (0, 2, 3, 1, 3, 0, 2, 1, 0, 3)
   True           3          0  (2, 3, 0, 1, 2, 3, 1, 1, 3, 0)
   True           5          0  (3, 1, 2, 0, 2, 3, 1, 0, 0, 2)
   True           1          0  (1, 0, 3, 2, 1, 0, 1, 2, 2, 3)
   True           9          0  (0, 2, 2, 1, 3, 0, 3, 1, 1, 2)
   True           5          0  (2, 0, 0, 1, 2, 3, 2, 1, 3, 0)
   True          10          0  (0, 2, 3, 1, 0, 2, 1, 3, 2, 0)
   True           2          0  (1, 2, 2, 0, 1, 3, 0, 0, 1, 2)
   True           3          0  (3, 0, 2, 1, 3, 0, 3, 2, 0, 1)
   True           7          0  (1, 3, 3, 0, 2, 1, 2, 0, 1, 3)
   True           2          0  (2, 1, 0, 3, 2, 1, 2, 0, 1, 3)
   True           4          0  (0, 1, 3, 2, 3, 1, 2, 2, 0, 3)
   True           2          0  (0, 1, 1, 2, 0, 3, 2, 2, 0, 1)
   True           3          0  (0, 3, 1, 2, 1, 3, 0, 0, 3, 2)
   True           3          0  (1, 2, 0, 3, 0, 2, 3, 3, 1, 0)
   True           7          0  (3, 2, 2, 1, 0, 3, 1, 1, 3, 2)
   True           0          0  (1, 0, 0, 2, 1, 3, 2, 2, 3, 0)
   True           5          0  (3, 2, 2, 0, 1, 3, 0, 0, 3, 2)
   True           5          0  (0, 3, 2, 1, 2, 3, 1, 0, 3, 2)
   True          10          0  (0, 3, 1, 2, 1, 3, 2, 0, 3, 1)
   True           5          0  (0, 2, 1, 3, 1, 0, 3, 3, 0, 2)
   True           4          0  (1, 3, 0, 2, 1, 3, 1, 2, 3, 0)
   True          11          0  (1, 0, 2, 3, 2, 1, 0, 3, 3, 2)
   True           6          0  (0, 2, 1, 3, 0, 2, 3, 1, 2, 0)
   True          17          0  (1, 3, 2, 0, 2, 3, 1, 1, 3, 0)
   True           1          0  (0, 3, 1, 2, 1, 3, 0, 2, 2, 1)
   True           4          0  (2, 3, 0, 1, 2, 3, 1, 1, 3, 0)
   True           7          0  (3, 0, 1, 2, 1, 0, 3, 3, 0, 1)
   True           9          0  (2, 0, 3, 1, 3, 0, 2, 2, 1, 3)
   True           2          0  (2, 0, 0, 3, 1, 2, 3, 3, 2, 0)
   True          15          0  (1, 2, 2, 0, 3, 1, 3, 0, 0, 2)
   True          16          0  (3, 2, 2, 0, 3, 1, 0, 0, 1, 2)
   True           3          0  (2, 0, 3, 1, 3, 2, 1, 1, 2, 0)
   True           6          0  (1, 2, 0, 3, 0, 2, 3, 1, 1, 0)
   True          21          0  (3, 2, 1, 0, 3, 2, 3, 0, 0, 1)
   True           5          0  (2, 3, 1, 0, 1, 2, 0, 0, 2, 3)
   True           4          0  (2, 1, 3, 0, 3, 1, 2, 2, 1, 0)
   True           6          0  (2, 1, 3, 0, 2, 1, 0, 0, 1, 3)
   True           9          0  (2, 1, 1, 0, 2, 3, 2, 0, 3, 1)
   True           3          0  (2, 3, 0, 1, 0, 3, 1, 1, 2, 0)
   True           1          0  (0, 2, 3, 1, 0, 2, 0, 1, 2, 3)
   True           6          0  (1, 0, 3, 2, 3, 1, 2, 2, 0, 3)
   True          12          0  (0, 1, 3, 2, 3, 0, 1, 2, 2, 3)
   True          15          0  (0, 1, 2, 3, 2, 1, 0, 0, 1, 3)
   True           5          0  (1, 3, 0, 2, 0, 3, 2, 1, 3, 0)
   True           7          0  (0, 2, 2, 1, 3, 0, 1, 1, 0, 2)
   True           3          0  (0, 3, 1, 2, 1, 3, 2, 2, 0, 1)
   True           3          0  (1, 2, 0, 3, 0, 1, 3, 3, 2, 0)
   True          10          0  (0, 1, 2, 3, 2, 1, 3, 3, 1, 0)
   True           2          0  (1, 0, 2, 3, 2, 1, 0, 3, 3, 2)
   True           4          0  (0, 1, 1, 2, 3, 0, 3, 2, 2, 1)
   True           5          0  (2, 3, 1, 0, 1, 2, 0, 0, 2, 3)
   True          12          0  (0, 1, 3, 2, 3, 1, 2, 0, 0, 3)
   True           4          0  (2, 3, 3, 0, 1, 2, 0, 0, 1, 3)
   True           8          0  (2, 0, 1, 3, 2, 0, 2, 1, 0, 3)
   True           4          0  (1, 2, 0, 3, 0, 2, 1, 1, 2, 3)
   True           5          0  (3, 1, 0, 2, 0, 3, 2, 2, 3, 0)
   True           9          0  (0, 3, 1, 2, 1, 3, 0, 0, 2, 1)
   True           1          0  (3, 0, 1, 2, 1, 3, 0, 2, 3, 1)
   True           3          0  (2, 0, 0, 1, 3, 2, 1, 1, 2, 0)
   True          13          0  (1, 3, 3, 0, 2, 1, 0, 0, 1, 3)
   True           4          0  (3, 2, 2, 1, 3, 0, 3, 1, 0, 2)
   True           6          0  (3, 0, 1, 2, 3, 0, 2, 1, 0, 3)
   True          58          0  (0, 1, 1, 3, 0, 2, 0, 3, 2, 1)
   True           4          0  (2, 3, 1, 0, 2, 3, 0, 1, 3, 2)
   True           3          0  (1, 3, 0, 2, 0, 3, 1, 2, 3, 0)
   True           9          0  (0, 1, 2, 3, 2, 1, 0, 0, 1, 2)
   True           5          0  (2, 1, 3, 0, 2, 1, 0, 0, 1, 2)
   True           6          0  (1, 2, 0, 3, 1, 2, 1, 0, 2, 3)
   True           7          0  (0, 1, 3, 2, 3, 1, 2, 2, 0, 3)
   True           4          0  (1, 0, 2, 3, 2, 1, 3, 3, 0, 2)
   True           0          0  (2, 0, 1, 3, 1, 0, 3, 3, 0, 2)
   True           3          0  (3, 0, 1, 2, 1, 0, 2, 3, 0, 1)
   True           4          0  (2, 0, 1, 3, 1, 2, 0, 3, 3, 1)
   True           2          0  (3, 2, 1, 0, 1, 2, 3, 0, 2, 1)
   True           3          0  (1, 0, 3, 2, 3, 1, 2, 2, 1, 0)
   True           5          0  (0, 1, 3, 2, 0, 1, 2, 3, 1, 0)
   True           4          0  (3, 1, 1, 0, 2, 3, 0, 0, 3, 1)
   True           9          0  (1, 2, 2, 3, 1, 0, 3, 3, 0, 2)
   True           5          0  (0, 2, 1, 3, 0, 2, 3, 3, 0, 1)
   True           4          0  (1, 3, 2, 0, 2, 3, 0, 0, 1, 2)
   True          30          0  (3, 1, 1, 0, 2, 3, 2, 0, 3, 1)
   True           6          0  (1, 0, 2, 3, 2, 0, 1, 3, 3, 2)
   True           5          0  (1, 2, 2, 0, 1, 3, 1, 0, 0, 2)
   True           7          0  (3, 2, 1, 0, 1, 2, 0, 3, 3, 1)
   True           7          0  (0, 3, 1, 2, 1, 3, 0, 0, 2, 1)
   True           2          0  (3, 1, 1, 2, 3, 0, 2, 2, 3, 1)
   True           2          0  (2, 3, 3, 1, 0, 2, 0, 1, 2, 3)
   True           2          0  (2, 1, 1, 3, 0, 2, 3, 3, 2, 0)
   True           2          0  (3, 2, 2, 0, 3, 1, 0, 0, 3, 2)
   True           5          0  (1, 3, 2, 0, 2, 3, 1, 0, 3, 2)
   True          10          0  (3, 1, 1, 2, 3, 0, 3, 2, 0, 1)
   True           6          0  (0, 1, 3, 2, 3, 0, 2, 2, 0, 1)
   True          21          0  (0, 1, 2, 3, 0, 1, 3, 3, 1, 0)
   True           4          0  (2, 3, 0, 1, 0, 2, 3, 1, 1, 0)
   True           2          0  (1, 0, 0, 2, 3, 1, 3, 2, 2, 0)
   True           3          0  (2, 0, 3, 1, 2, 0, 1, 1, 0, 2)
   True           9          0  (0, 2, 1, 3, 1, 2, 0, 3, 3, 1)
   True           4          0  (3, 1, 0, 2, 0, 3, 1, 2, 3, 0)
   True           3          0  (2, 3, 1, 0, 1, 3, 2, 2, 0, 1)
   True          12          0  (1, 2, 2, 3, 0, 1, 0, 3, 1, 2)
   True           1          0  (0, 2, 2, 3, 0, 1, 3, 3, 0, 2)
   True          11          0  (2, 3, 3, 1, 2, 0, 2, 1, 0, 3)
   True           7          0  (2, 3, 3, 1, 0, 2, 1, 1, 2, 0)
   True          17          0  (3, 2, 1, 0, 1, 2, 0, 3, 3, 1)
   True           4          0  (3, 0, 2, 1, 2, 0, 1, 3, 3, 2)
   True           2          0  (0, 2, 3, 1, 3, 2, 0, 0, 1, 3)
   True          23          0  (1, 2, 0, 3, 0, 1, 2, 3, 1, 0)
   True           5          0  (0, 2, 3, 1, 3, 2, 0, 0, 1, 3)
   True          10          0  (0, 1, 2, 3, 2, 0, 3, 3, 0, 1)
   True          11          0  (3, 1, 1, 2, 0, 3, 0, 2, 2, 1)
   True           3          0  (1, 3, 3, 2, 0, 1, 2, 2, 0, 3)
   True           2          0  (2, 3, 3, 1, 2, 0, 2, 1, 1, 3)
   True           8          0  (0, 2, 2, 3, 0, 1, 0, 3, 3, 2)
   True           9          0  (0, 1, 1, 3, 2, 0, 3, 3, 0, 2)
   True           4          0  (2, 1, 1, 3, 0, 2, 0, 3, 2, 1)
   True          10          0  (2, 0, 1, 3, 1, 2, 0, 3, 3, 1)
   True          17          0  (3, 1, 2, 0, 3, 1, 0, 0, 3, 2)
   True          17          0  (2, 3, 3, 0, 2, 1, 0, 0, 1, 2)
   True           3          0  (0, 1, 2, 3, 2, 0, 3, 3, 1, 2)
   True           8          0  (2, 1, 1, 0, 3, 2, 3, 0, 0, 1)
   True           5          0  (2, 0, 0, 3, 1, 2, 3, 3, 1, 0)
   True          12          0  (1, 0, 3, 2, 1, 0, 1, 2, 2, 3)
   True           7          0  (1, 3, 0, 2, 0, 3, 1, 2, 3, 0)
   True           3          0  (2, 3, 1, 0, 2, 3, 2, 0, 0, 1)
   True           6          0  (2, 0, 1, 3, 2, 0, 3, 1, 0, 2)
   True          51          0  (2, 0, 0, 3, 1, 2, 1, 3, 2, 0)
   True           0          0  (1, 2, 2, 0, 1, 3, 1, 0, 0, 2)
   True           3          0  (1, 2, 0, 3, 0, 1, 2, 3, 3, 0)
   True           8          0  (0, 1, 2, 3, 0, 1, 0, 3, 3, 2)
   True          20          0  (2, 1, 1, 3, 2, 0, 2, 3, 0, 1)
   True           5          0  (1, 2, 0, 3, 1, 2, 1, 0, 2, 3)
   True           8          0  (0, 1, 2, 3, 0, 1, 3, 3, 1, 0)
   True           2          0  (0, 3, 2, 1, 2, 3, 1, 1, 3, 2)
   True          15          0  (0, 1, 3, 2, 3, 1, 0, 0, 1, 2)
   True           4          0  (3, 2, 1, 0, 3, 2, 3, 0, 0, 1)
   True          10          0  (0, 2, 2, 1, 3, 0, 3, 1, 1, 2)
   True           4          0  (1, 0, 0, 3, 1, 2, 3, 3, 2, 1)
   True           2          0  (0, 2, 1, 3, 0, 2, 0, 3, 3, 1)
   True           6          0  (0, 2, 2, 3, 1, 0, 1, 3, 0, 2)
   True           3          0  (0, 1, 2, 3, 2, 1, 0, 3, 1, 2)
   True           6          0  (2, 1, 1, 3, 0, 2, 3, 3, 2, 0)
   True           2          0  (3, 0, 0, 1, 2, 3, 2, 1, 3, 0)
   True           6          0  (0, 3, 1, 2, 1, 0, 3, 2, 0, 1)
   True           3          0  (1, 2, 0, 3, 1, 2, 3, 0, 2, 1)
   True           2          0  (0, 1, 1, 3, 0, 2, 3, 3, 2, 0)
   True           9          0  (3, 0, 2, 1, 3, 0, 3, 2, 0, 1)
   True           3          0  (0, 3, 3, 1, 0, 2, 0, 1, 2, 3)
   True           8          0  (0, 2, 3, 1, 0, 2, 1, 3, 2, 0)
   True           3          0  (1, 0, 3, 2, 1, 0, 2, 2, 0, 1)
   True           4          0  (2, 1, 0, 3, 2, 1, 2, 0, 1, 3)
   True          14          0  (2, 3, 1, 0, 1, 3, 2, 0, 0, 1)
   True           1          0  (3, 2, 2, 1, 0, 3, 0, 1, 1, 2)
   True           1          0  (3, 1, 2, 0, 3, 1, 0, 0, 1, 3)
   True           5          0  (2, 1, 0, 3, 2, 1, 3, 3, 2, 0)
   True           7          0  (2, 3, 1, 0, 1, 2, 3, 0, 2, 1)
   True           3          0  (2, 1, 1, 3, 0, 2, 3, 3, 2, 1)
   True          26          0  (1, 0, 2, 3, 2, 0, 1, 3, 3, 2)
   True           2          0  (2, 1, 1, 0, 3, 2, 3, 0, 0, 1)
   True           2          0  (1, 3, 3, 0, 1, 2, 0, 0, 1, 3)
   True           3          0  (3, 0, 1, 2, 1, 3, 0, 2, 3, 1)
   True           4          0  (0, 2, 3, 1, 0, 2, 1, 3, 2, 0)
   True           8          0  (3, 1, 1, 0, 2, 3, 0, 0, 3, 2)
   True           5          0  (2, 1, 1, 0, 2, 3, 0, 0, 2, 1)
   True          10          0  (2, 1, 0, 3, 2, 1, 3, 3, 2, 0)
   True           6          0  (3, 1, 0, 2, 3, 1, 3, 0, 1, 2)
   True           3          0  (2, 1, 0, 3, 0, 1, 3, 2, 2, 0)
   True           9          0  (3, 2, 2, 0, 1, 3, 1, 0, 0, 2)
   True           3          0  (1, 0, 0, 2, 3, 1, 2, 2, 1, 0)
   True           5          0  (2, 3, 3, 0, 1, 2, 0, 0, 2, 3)
   True          11          0  (3, 0, 1, 2, 1, 3, 0, 2, 2, 1)
   True           4          0  (2, 0, 1, 3, 2, 0, 3, 3, 2, 1)
   True          12          0  (0, 1, 2, 3, 0, 1, 3, 2, 1, 0)
   True           3          0  (2, 3, 1, 0, 2, 3, 0, 0, 3, 2)
   True          19          0  (2, 3, 1, 0, 1, 2, 3, 0, 0, 1)
   True           2          0  (2, 0, 0, 3, 2, 1, 3, 3, 1, 0)
   True           6          0  (0, 3, 3, 1, 2, 0, 2, 1, 0, 3)
   True           4          0  (3, 2, 1, 0, 1, 2, 3, 3, 2, 1)
   True           6          0  (1, 3, 2, 0, 2, 3, 1, 1, 3, 2)
   True           7          0  (2, 1, 1, 3, 0, 2, 3, 3, 0, 1)
   True           1          0  (3, 1, 1, 2, 3, 0, 3, 2, 0, 1)
   True           5          0  (2, 3, 0, 1, 0, 2, 3, 1, 1, 0)
   True          10          0  (3, 0, 2, 1, 2, 3, 0, 1, 1, 2)
   True           5          0  (3, 1, 0, 2, 0, 3, 2, 2, 1, 0)
   True           5          0  (2, 0, 3, 1, 2, 0, 1, 1, 0, 2)
   True           7          0  (1, 3, 2, 0, 2, 3, 0, 0, 1, 2)
   True           2          0  (3, 1, 1, 0, 2, 3, 0, 0, 3, 1)
   True           4          0  (3, 0, 0, 2, 1, 3, 2, 2, 3, 0)
   True           3          0  (0, 1, 1, 3, 2, 0, 2, 3, 3, 1)
   True           2          0  (3, 0, 1, 2, 3, 0, 2, 2, 0, 3)
   True          14          0  (1, 3, 0, 2, 0, 3, 2, 2, 3, 1)
   True          14          0  (1, 2, 3, 0, 3, 2, 1, 1, 2, 0)
   True           2          0  (0, 3, 1, 2, 0, 3, 0, 1, 3, 2)
   True           5          0  (1, 3, 3, 0, 2, 1, 2, 0, 0, 3)
   True           7          0  (2, 1, 3, 0, 3, 1, 0, 2, 2, 3)
   True           5          0  (3, 2, 0, 1, 0, 3, 1, 1, 2, 0)
   True           7          0  (2, 1, 0, 3, 0, 1, 2, 3, 1, 0)
   True           6          0  (0, 2, 2, 1, 3, 0, 1, 1, 3, 2)
   True           5          0  (2, 3, 3, 1, 2, 0, 1, 1, 0, 2)
   True           6          0  (0, 3, 1, 2, 1, 3, 0, 0, 2, 1)
   True           5          0  (2, 0, 3, 1, 3, 0, 2, 2, 0, 1)
   True          15          0  (2, 3, 3, 1, 2, 0, 2, 1, 0, 3)
   True           7          0  (3, 2, 0, 1, 3, 2, 3, 0, 2, 1)
   True          28          0  (1, 2, 0, 3, 1, 2, 3, 0, 2, 1)
   True           9          0  (3, 1, 1, 0, 2, 3, 0, 0, 3, 1)
   True           7          0  (1, 2, 0, 3, 0, 2, 3, 3, 2, 0)
   True           3          0  (1, 2, 3, 0, 1, 2, 0, 3, 2, 1)
   True          11          0  (3, 1, 1, 2, 0, 3, 0, 2, 2, 1)
   True           7          0  (3, 0, 1, 2, 1, 0, 3, 2, 2, 1)
   True           4          0  (2, 3, 0, 1, 0, 2, 3, 1, 2, 0)
   True           3          0  (2, 1, 1, 0, 2, 3, 2, 0, 0, 1)
   True           4          0  (3, 1, 2, 0, 2, 1, 0, 0, 3, 2)
   True           7          0  (2, 0, 1, 3, 2, 0, 3, 3, 2, 1)
   True           0          0  (3, 0, 1, 2, 3, 0, 2, 2, 3, 1)
   True          11          0  (3, 1, 1, 2, 0, 3, 0, 2, 3, 1)
   True           3          0  (2, 1, 0, 3, 0, 2, 1, 3, 3, 0)
   True           3          0  (0, 3, 2, 1, 0, 3, 1, 1, 3, 0)
   True          12          0  (2, 3, 1, 0, 1, 3, 2, 2, 3, 1)
   True           5          0  (2, 1, 3, 0, 2, 1, 2, 3, 1, 0)
   True           6          0  (1, 2, 0, 3, 0, 2, 3, 1, 1, 0)
   True           2          0  (2, 0, 3, 1, 2, 0, 1, 3, 0, 2)
   True          10          0  (0, 2, 3, 1, 3, 0, 1, 1, 0, 2)
   True           5          0  (2, 3, 1, 0, 2, 3, 0, 1, 3, 2)
   True           4          0  (0, 3, 1, 2, 1, 3, 0, 0, 3, 1)
   True           2          0  (1, 2, 3, 0, 1, 2, 0, 0, 1, 3)
   True           7          0  (2, 0, 0, 1, 2, 3, 1, 1, 2, 0)
   True           1          0  (0, 2, 3, 1, 0, 2, 0, 3, 2, 1)
   True           8          0  (1, 2, 0, 3, 0, 2, 3, 1, 1, 0)
   True           8          0  (2, 1, 1, 0, 2, 3, 2, 0, 3, 1)
   True           9          0  (3, 2, 2, 0, 3, 1, 0, 0, 1, 3)
   True           4          0  (2, 0, 3, 1, 3, 2, 1, 1, 0, 3)
   True           7          0  (1, 0, 2, 3, 2, 0, 3, 1, 1, 2)
   True          15          0  (1, 3, 2, 0, 2, 1, 3, 0, 1, 2)
   True          13          0  (2, 0, 0, 3, 2, 1, 3, 3, 1, 2)
   True           1          0  (0, 2, 3, 1, 0, 2, 1, 3, 2, 0)
   True           6          0  (1, 2, 2, 0, 1, 3, 1, 0, 3, 2)
   True           7          0  (3, 1, 2, 0, 2, 1, 3, 3, 1, 0)
   True           4          0  (3, 2, 2, 1, 3, 0, 3, 1, 0, 2)
   True           5          0  (1, 3, 0, 2, 0, 1, 3, 2, 2, 0)
   True           3          0  (2, 0, 3, 1, 3, 0, 2, 2, 1, 3)
   True           5          0  (2, 1, 0, 3, 0, 1, 2, 2, 1, 0)
   True           9          0  (1, 2, 0, 3, 0, 2, 1, 1, 3, 0)
   True          20          0  (3, 0, 2, 1, 3, 0, 1, 2, 0, 3)
   True           5          0  (1, 3, 3, 2, 1, 0, 2, 2, 0, 3)
   True           4          0  (1, 0, 0, 3, 1, 2, 3, 3, 2, 1)
   True           3          0  (1, 0, 3, 2, 3, 1, 0, 2, 2, 3)
   True           4          0  (1, 3, 2, 0, 2, 1, 0, 0, 1, 3)
   True           5          0  (2, 0, 0, 1, 2, 3, 2, 1, 3, 0)
   True          11          0  (1, 2, 0, 3, 0, 1, 2, 3, 3, 0)
   True           4          0  (1, 2, 3, 0, 3, 2, 0, 0, 1, 3)
   True           3          0  (0, 1, 2, 3, 2, 1, 3, 0, 1, 2)
   True           6          0  (2, 3, 3, 0, 2, 1, 2, 0, 0, 3)
   True           2          0  (0, 2, 2, 3, 1, 0, 3, 3, 0, 1)
   True           6          0  (0, 3, 2, 1, 0, 3, 0, 2, 3, 1)
   True           5          0  (2, 3, 0, 1, 0, 2, 1, 1, 3, 0)
   True           6          0  (3, 1, 2, 0, 3, 1, 3, 0, 1, 2)
   True           9          0  (2, 0, 0, 3, 2, 1, 3, 3, 2, 0)
   True          21          0  (3, 1, 1, 0, 3, 2, 3, 0, 2, 1)
   True           5          0  (3, 2, 1, 0, 1, 2, 0, 3, 2, 1)
   True           3          0  (3, 2, 0, 1, 0, 3, 1, 1, 3, 2)
   True           4          0  (2, 1, 3, 0, 2, 1, 2, 0, 1, 3)
   True           2          0  (1, 3, 3, 0, 2, 1, 0, 0, 2, 3)
   True           5          0  (0, 3, 3, 1, 0, 2, 0, 1, 2, 3)
   True           4          0  (2, 0, 0, 1, 2, 3, 1, 1, 3, 0)
   True           3          0  (0, 1, 1, 2, 0, 3, 2, 2, 3, 0)
   True           4          0  (2, 0, 1, 3, 1, 0, 2, 2, 0, 3)
   True           4          0  (1, 3, 2, 0, 1, 3, 1, 0, 3, 2)
   True           5          0  (2, 3, 1, 0, 2, 3, 2, 0, 0, 1)
   True           2          0  (1, 2, 2, 0, 3, 1, 3, 0, 0, 2)
   True           6          0  (3, 1, 1, 2, 3, 0, 3, 2, 0, 1)
   True          18          0  (2, 3, 1, 0, 1, 3, 0, 2, 3, 1)
   True           2          0  (3, 2, 0, 1, 0, 3, 2, 1, 3, 0)
   True           6          0  (2, 1, 3, 0, 2, 1, 0, 0, 1, 3)
   True           6          0  (0, 1, 3, 2, 3, 0, 1, 2, 2, 3)
   True          12          0  (1, 2, 3, 0, 3, 1, 0, 0, 1, 2)
   True           6          0  (1, 2, 0, 3, 0, 2, 1, 3, 2, 0)
   True          13          0  (0, 2, 1, 3, 0, 2, 0, 1, 2, 3)
   True           3          0  (1, 0, 3, 2, 1, 0, 2, 2, 0, 3)
   True           4          0  (2, 1, 1, 0, 3, 2, 3, 0, 2, 1)
   True           8          0  (0, 2, 3, 1, 3, 2, 1, 0, 2, 3)
   True           2          0  (1, 0, 2, 3, 1, 0, 3, 3, 0, 2)
   True           4          0  (0, 1, 3, 2, 3, 0, 1, 2, 0, 3)
   True           6          0  (0, 1, 3, 2, 0, 1, 2, 3, 1, 0)
   True           4          0  (0, 1, 1, 2, 3, 0, 3, 2, 0, 1)
   True           3          0  (1, 2, 3, 0, 3, 1, 0, 0, 2, 3)
   True           3          0  (2, 3, 0, 1, 0, 3, 1, 1, 3, 2)
   True           6          0  (1, 0, 0, 2, 1, 3, 2, 2, 3, 0)
   True          10          0  (3, 0, 2, 1, 3, 0, 1, 1, 0, 2)
   True          11          0  (3, 0, 1, 2, 1, 0, 3, 2, 2, 1)
   True          26          0  (0, 3, 3, 1, 0, 2, 0, 1, 2, 3)
   True           3          0  (3, 1, 0, 2, 3, 1, 3, 2, 2, 0)
   True           5          0  (2, 0, 1, 3, 2, 0, 3, 3, 0, 1)
   True           5          0  (1, 3, 3, 2, 0, 1, 2, 2, 1, 0)
   True           5          0  (3, 1, 2, 0, 2, 1, 3, 0, 1, 2)
   True           7          0  (2, 3, 3, 1, 2, 0, 1, 1, 2, 3)
   True          18          0  (2, 3, 1, 0, 2, 3, 0, 1, 3, 2)
   True           1          0  (3, 2, 0, 1, 0, 3, 2, 1, 1, 0)
   True           8          0  (1, 3, 3, 2, 0, 1, 0, 2, 1, 3)
   True           6          0  (0, 2, 2, 3, 1, 0, 1, 3, 3, 2)
   True          24          0  (1, 3, 2, 0, 2, 3, 1, 1, 3, 0)
   True           6          0  (2, 0, 3, 1, 3, 0, 1, 1, 0, 2)
   True           7          0  (2, 0, 1, 3, 1, 0, 2, 2, 3, 1)
   True           0          0  (1, 3, 0, 2, 0, 3, 2, 1, 1, 0)
   True          40          0  (0, 2, 2, 3, 1, 0, 3, 3, 0, 1)
   True           1          0  (0, 2, 2, 1, 0, 3, 1, 1, 3, 2)
   True           5          0  (1, 2, 3, 0, 1, 2, 0, 0, 2, 1)
   True           9          0  (2, 0, 3, 1, 3, 0, 2, 2, 0, 1)
   True           2          0  (0, 3, 3, 2, 1, 0, 2, 2, 0, 1)
   True           3          0  (2, 1, 1, 3, 0, 2, 3, 3, 2, 1)
   True           1          0  (1, 3, 3, 2, 1, 0, 2, 2, 0, 3)
   True           7          0  (0, 3, 3, 1, 2, 0, 2, 1, 0, 3)
   True           3          0  (1, 3, 3, 0, 2, 1, 2, 0, 1, 3)
   True           6          0  (3, 0, 2, 1, 2, 0, 3, 3, 1, 2)
   True           7          0  (2, 3, 3, 0, 2, 1, 0, 0, 1, 2)
   True           4          0  (3, 0, 2, 1, 3, 0, 1, 1, 3, 2)
   True           6          0  (1, 3, 2, 0, 1, 3, 1, 2, 3, 0)
   True           8          0  (1, 3, 2, 0, 2, 1, 3, 0, 1, 2)
   True           5          0  (2, 0, 3, 1, 2, 0, 2, 3, 0, 1)
   True           4          0  (1, 2, 0, 3, 0, 2, 1, 3, 2, 0)
   True          11          0  (3, 1, 1, 2, 0, 3, 2, 2, 3, 1)
   True           4          0  (1, 2, 0, 3, 0, 1, 2, 3, 1, 0)
   True           8          0  (0, 2, 3, 1, 0, 2, 0, 3, 2, 1)
   True           5          0  (3, 2, 1, 0, 3, 2, 3, 0, 0, 1)
   True           1          0  (2, 1, 1, 0, 3, 2, 0, 0, 2, 1)
   True           4          0  (1, 2, 0, 3, 0, 1, 3, 3, 2, 0)
   True           5          0  (0, 3, 1, 2, 0, 3, 2, 2, 0, 1)
   True           2          0  (1, 3, 3, 0, 1, 2, 0, 0, 2, 1)
   True           3          0  (3, 0, 0, 2, 3, 1, 3, 2, 1, 0)
   True           4          0  (2, 0, 1, 3, 2, 0, 3, 3, 2, 1)
   True          14          0  (1, 0, 3, 2, 1, 0, 1, 2, 0, 3)
   True          22          0  (3, 0, 1, 2, 3, 0, 3, 1, 0, 2)
   True           4          0  (1, 2, 3, 0, 1, 2, 0, 3, 2, 1)
   True           2          0  (0, 1, 3, 2, 0, 1, 0, 2, 2, 3)
   True          15          0  (1, 0, 2, 3, 2, 0, 3, 1, 1, 2)
   True           3          0  (0, 1, 1, 2, 3, 0, 2, 2, 3, 1)
   True           3          0  (3, 2, 1, 0, 1, 3, 0, 0, 2, 1)
   True           2          0  (2, 0, 0, 3, 2, 1, 3, 3, 1, 2)
   True           2          0  (2, 3, 3, 0, 2, 1, 2, 0, 0, 3)
   True          15          0  (2, 3, 0, 1, 0, 3, 2, 2, 3, 1)
   True           2          0  (3, 0, 1, 2, 1, 3, 0, 2, 2, 1)
   True           2          0  (1, 3, 3, 2, 1, 0, 1, 2, 0, 3)
   True           6          0  (1, 0, 3, 2, 3, 1, 2, 2, 0, 3)
   True          21          0  (3, 2, 2, 1, 0, 3, 1, 1, 3, 0)
   True           3          0  (1, 3, 3, 0, 2, 1, 2, 0, 1, 3)
   True           8          0  (1, 0, 0, 3, 2, 1, 3, 3, 2, 0)
   True          11          0  (3, 2, 2, 1, 3, 0, 1, 1, 3, 2)
   True           3          0  (0, 3, 1, 2, 1, 0, 2, 2, 3, 1)
   True           6          0  (2, 0, 0, 3, 1, 2, 3, 3, 2, 1)
   True           8          0  (2, 3, 1, 0, 1, 2, 3, 0, 0, 1)
   True           7          0  (2, 0, 3, 1, 3, 0, 2, 1, 0, 3)
   True           9          0  (2, 3, 3, 0, 1, 2, 1, 0, 0, 3)
   True           2          0  (1, 0, 2, 3, 2, 1, 3, 3, 1, 0)
   True           7          0  (1, 0, 3, 2, 3, 0, 1, 1, 0, 2)
   True           3          0  (3, 2, 2, 1, 0, 3, 0, 1, 3, 2)
   True           5          0  (1, 3, 2, 0, 2, 3, 0, 0, 3, 1)
   True          14          0  (2, 1, 3, 0, 2, 1, 2, 0, 0, 3)
   True           4          0  (1, 2, 0, 3, 0, 1, 3, 3, 2, 0)
   True           9          0  (1, 3, 3, 0, 2, 1, 0, 0, 2, 3)
   True           4          0  (2, 0, 3, 1, 3, 0, 1, 2, 0, 3)
   True           2          0  (1, 0, 3, 2, 3, 0, 1, 2, 2, 3)
   True           1          0  (3, 2, 2, 0, 3, 1, 3, 0, 1, 2)
   True           8          0  (1, 2, 3, 0, 1, 2, 1, 3, 2, 0)
   True           2          0  (1, 0, 3, 2, 1, 0, 2, 2, 0, 3)
   True           9          0  (3, 2, 0, 1, 0, 3, 1, 1, 3, 0)
   True           5          0  (3, 2, 1, 0, 1, 2, 3, 3, 2, 1)
   True           9          0  (3, 0, 1, 2, 3, 0, 2, 1, 0, 3)
   True           3          0  (0, 3, 1, 2, 1, 3, 2, 0, 0, 1)
   True           6          0  (2, 3, 0, 1, 0, 3, 2, 2, 3, 1)
   True           2          0  (2, 1, 0, 3, 0, 2, 3, 3, 1, 0)
   True           4          0  (1, 2, 0, 3, 0, 2, 3, 1, 1, 0)
   True          11          0  (1, 3, 3, 2, 1, 0, 2, 2, 0, 1)
   True           6          0  (3, 2, 0, 1, 0, 2, 1, 1, 2, 3)
   True           6          0  (0, 3, 2, 1, 0, 3, 0, 1, 1, 2)
   True           4          0  (0, 3, 3, 1, 2, 0, 2, 1, 0, 3)
   True           2          0  (0, 3, 3, 1, 0, 2, 0, 1, 1, 3)
   True           5          0  (0, 2, 2, 1, 0, 3, 1, 1, 3, 2)
   True          15          0  (2, 0, 0, 3, 1, 2, 1, 3, 3, 0)
   True           6          0  (2, 3, 3, 1, 0, 2, 1, 1, 2, 0)
   True          16          0  (3, 0, 2, 1, 2, 0, 3, 3, 1, 2)
   True           4          0  (2, 0, 3, 1, 3, 0, 2, 1, 1, 3)
   True           5          0  (2, 1, 3, 0, 2, 1, 0, 0, 2, 3)
   True          23          0  (2, 3, 3, 0, 1, 2, 0, 0, 2, 3)
   True           2          0  (2, 3, 1, 0, 2, 3, 2, 1, 3, 0)
   True           4          0  (3, 1, 0, 2, 3, 1, 2, 0, 1, 3)
   True           5          0  (1, 3, 3, 0, 1, 2, 0, 0, 2, 1)
   True           3          0  (3, 1, 0, 2, 0, 3, 1, 2, 3, 0)
   True           9          0  (0, 3, 3, 2, 1, 0, 1, 2, 0, 3)
   True           4          0  (0, 3, 3, 1, 0, 2, 0, 1, 1, 3)
   True           5          0  (3, 1, 1, 0, 3, 2, 0, 0, 3, 1)
   True          11          0  (1, 2, 0, 3, 1, 2, 1, 0, 2, 3)
   True           6          0  (2, 3, 1, 0, 1, 3, 2, 2, 3, 0)
   True           9          0  (2, 1, 3, 0, 2, 1, 0, 0, 2, 3)
   True           1          0  (1, 2, 0, 3, 1, 2, 1, 3, 2, 0)
   True           5          0  (1, 2, 3, 0, 3, 2, 0, 1, 1, 3)
   True           3          0  (0, 3, 1, 2, 1, 0, 2, 2, 0, 1)
   True           3          0  (3, 0, 2, 1, 2, 3, 1, 1, 3, 2)
   True           5          0  (1, 0, 3, 2, 1, 0, 2, 3, 0, 1)
   True          45          0  (2, 1, 3, 0, 2, 1, 2, 3, 1, 0)
   True           5          0  (1, 0, 3, 2, 1, 0, 2, 2, 1, 3)
