Test Parameters:
	filename: graph50.txt
	numRuns: 50
	colors: 4
	max generations: 10000
	population size: 20
	mutation chance: 0.6
	tournament size: 10
	tournament chance: 0.5

Summary:
50 tests were run. 90.0% of them succeeded.
Of the successes, the average number iterations was 1872.29 (min 83, max 8684).
Of the failures, the average conflicts in the best result was 1.00 (min 1, max 1)

All results:
Success  Iterations  Conflicts  Color Sequence
   True         857          0  (2, 3, 0, 1, 2, 1, 2, 1, 3, 3, 1, 2, 0, 3, 3, 2, 0, 0, 3, 1, 0, 2, 1, 2, 1, 3, 0, 2, 1, 3, 3, 3, 1, 0, 2, 0, 1, 1, 2, 2, 0, 0, 2, 3, 3, 0, 0, 1, 2, 3)
   True        1006          0  (2, 0, 3, 2, 1, 3, 1, 3, 0, 2, 0, 1, 3, 2, 2, 0, 1, 1, 0, 3, 1, 1, 3, 0, 0, 2, 2, 0, 0, 0, 3, 3, 2, 1, 3, 1, 2, 2, 0, 3, 1, 1, 3, 0, 2, 1, 1, 2, 3, 0)
   True        4595          0  (1, 3, 0, 0, 1, 2, 1, 2, 0, 3, 1, 3, 2, 0, 2, 1, 3, 0, 0, 2, 0, 3, 1, 0, 1, 0, 2, 1, 1, 1, 0, 1, 2, 0, 2, 2, 3, 1, 3, 0, 0, 3, 3, 2, 3, 0, 1, 2, 0, 3)
   True         828          0  (0, 1, 3, 3, 0, 2, 0, 2, 1, 1, 0, 0, 2, 3, 2, 0, 0, 3, 3, 2, 0, 1, 2, 1, 3, 0, 3, 1, 2, 3, 0, 2, 3, 0, 1, 3, 2, 0, 1, 1, 0, 2, 1, 3, 2, 2, 0, 3, 1, 2)
   True         374          0  (0, 2, 1, 3, 0, 3, 0, 3, 1, 2, 3, 0, 2, 1, 2, 1, 0, 0, 1, 3, 0, 0, 2, 1, 3, 2, 3, 1, 3, 3, 2, 2, 1, 0, 1, 0, 2, 2, 1, 1, 3, 3, 1, 0, 0, 3, 3, 2, 1, 0)
   True         585          0  (1, 3, 2, 2, 0, 3, 1, 0, 2, 1, 3, 0, 3, 1, 0, 0, 1, 2, 1, 3, 2, 2, 3, 0, 1, 0, 1, 1, 1, 1, 3, 3, 2, 2, 0, 2, 3, 1, 0, 0, 1, 2, 0, 3, 3, 3, 1, 2, 0, 3)
   True         591          0  (1, 2, 3, 1, 0, 0, 0, 3, 2, 1, 0, 0, 3, 1, 1, 0, 1, 2, 1, 3, 2, 2, 3, 0, 3, 1, 1, 0, 0, 3, 3, 2, 0, 2, 0, 2, 1, 3, 0, 0, 3, 1, 0, 2, 2, 1, 3, 2, 0, 1)
  False        9999          1  (3, 2, 0, 3, 1, 0, 1, 0, 2, 3, 1, 1, 0, 3, 2, 1, 1, 0, 2, 2, 1, 0, 3, 2, 3, 1, 1, 3, 3, 3, 2, 0, 2, 1, 0, 0, 2, 2, 3, 1, 1, 3, 1, 0, 1, 0, 3, 2, 2, 0)
   True         931          0  (2, 0, 1, 3, 2, 1, 2, 1, 3, 3, 2, 1, 0, 3, 0, 2, 0, 1, 3, 0, 1, 1, 2, 3, 3, 2, 0, 3, 0, 3, 2, 2, 3, 1, 0, 1, 2, 2, 3, 0, 1, 3, 0, 1, 2, 1, 3, 2, 1, 0)
   True        1257          0  (3, 2, 1, 3, 0, 0, 0, 1, 2, 3, 2, 3, 1, 3, 3, 2, 3, 0, 0, 1, 0, 2, 1, 0, 2, 0, 3, 2, 1, 2, 0, 2, 0, 0, 3, 3, 1, 2, 1, 0, 3, 1, 1, 3, 1, 3, 2, 0, 3, 1)
   True        1053          0  (2, 1, 0, 0, 3, 3, 3, 0, 1, 2, 3, 0, 2, 0, 1, 3, 0, 0, 1, 1, 3, 3, 2, 3, 0, 0, 0, 2, 2, 2, 1, 1, 2, 3, 1, 3, 0, 0, 2, 2, 3, 3, 2, 1, 2, 3, 3, 1, 1, 0)
   True        1388          0  (2, 3, 0, 1, 2, 0, 2, 0, 3, 3, 2, 2, 0, 3, 1, 2, 1, 0, 3, 1, 0, 2, 0, 2, 2, 0, 1, 3, 1, 2, 3, 3, 0, 0, 3, 2, 1, 1, 0, 3, 2, 2, 3, 0, 1, 2, 2, 1, 0, 3)
   True        3752          0  (1, 0, 3, 3, 2, 3, 1, 3, 2, 0, 2, 3, 0, 3, 1, 2, 1, 3, 1, 1, 3, 2, 0, 2, 2, 0, 3, 2, 1, 2, 0, 0, 3, 3, 0, 3, 1, 1, 2, 2, 1, 3, 2, 0, 1, 3, 3, 0, 0, 2)
  False        9999          1  (1, 2, 0, 0, 3, 2, 1, 3, 0, 1, 3, 3, 2, 1, 2, 3, 3, 0, 1, 2, 1, 0, 2, 1, 0, 1, 3, 3, 3, 0, 2, 0, 1, 1, 3, 0, 2, 2, 1, 3, 2, 1, 1, 0, 1, 0, 2, 3, 3, 0)
   True        1059          0  (1, 3, 2, 2, 1, 0, 1, 0, 3, 3, 0, 1, 0, 3, 1, 1, 1, 2, 3, 0, 2, 1, 2, 3, 0, 2, 0, 3, 3, 0, 2, 2, 0, 2, 3, 0, 1, 2, 3, 3, 1, 0, 3, 1, 1, 1, 0, 2, 2, 3)
   True        7340          0  (2, 0, 1, 1, 2, 3, 2, 3, 0, 3, 2, 2, 3, 0, 3, 2, 1, 0, 1, 1, 1, 2, 3, 0, 0, 0, 1, 2, 3, 2, 0, 2, 3, 1, 3, 1, 0, 0, 3, 3, 1, 1, 3, 2, 2, 1, 1, 2, 3, 0)
   True         533          0  (2, 3, 1, 1, 0, 3, 2, 0, 1, 2, 0, 2, 3, 1, 3, 0, 0, 1, 0, 3, 2, 2, 3, 2, 0, 1, 0, 0, 0, 0, 1, 1, 2, 2, 3, 2, 1, 1, 3, 3, 0, 0, 3, 2, 1, 0, 0, 2, 2, 3)
   True        5157          0  (1, 0, 2, 2, 3, 3, 1, 3, 2, 1, 0, 1, 0, 2, 1, 3, 0, 2, 2, 0, 2, 1, 3, 2, 0, 2, 0, 3, 3, 1, 2, 1, 3, 2, 3, 1, 0, 2, 3, 3, 2, 0, 3, 1, 1, 0, 2, 1, 3, 0)
   True         414          0  (1, 2, 3, 0, 1, 2, 1, 3, 0, 0, 2, 1, 2, 0, 0, 2, 1, 1, 0, 3, 3, 1, 2, 0, 1, 0, 3, 2, 3, 1, 2, 2, 3, 3, 2, 1, 0, 3, 0, 2, 1, 1, 2, 0, 0, 1, 1, 3, 2, 0)
  False        9999          1  (2, 0, 1, 1, 2, 3, 2, 1, 0, 0, 3, 1, 3, 0, 0, 1, 1, 2, 0, 3, 2, 2, 3, 2, 1, 0, 1, 1, 3, 1, 0, 0, 3, 2, 3, 2, 0, 0, 3, 1, 2, 3, 1, 2, 0, 2, 3, 0, 2, 1)
   True        3103          0  (1, 2, 3, 0, 1, 2, 1, 0, 3, 0, 2, 0, 2, 3, 1, 1, 0, 3, 3, 2, 2, 0, 1, 3, 3, 1, 2, 0, 3, 3, 1, 1, 2, 2, 0, 2, 1, 3, 0, 0, 3, 1, 0, 2, 1, 1, 3, 2, 2, 0)
   True        3918          0  (3, 1, 2, 2, 0, 1, 3, 0, 2, 1, 3, 0, 1, 3, 1, 3, 0, 0, 2, 2, 0, 0, 3, 1, 3, 1, 2, 3, 3, 3, 1, 3, 1, 0, 2, 2, 1, 1, 0, 0, 2, 3, 0, 2, 0, 2, 3, 1, 2, 0)
   True        1362          0  (1, 2, 0, 3, 1, 0, 1, 3, 2, 3, 2, 3, 0, 3, 1, 1, 3, 0, 2, 2, 2, 1, 0, 2, 0, 0, 3, 3, 3, 1, 0, 1, 2, 2, 3, 1, 0, 0, 2, 3, 3, 2, 3, 1, 1, 1, 2, 0, 3, 1)
   True        1777          0  (1, 2, 0, 3, 1, 3, 1, 3, 0, 3, 2, 1, 2, 0, 1, 1, 2, 0, 0, 2, 2, 1, 3, 0, 3, 0, 2, 3, 3, 3, 0, 1, 0, 2, 1, 2, 0, 0, 3, 1, 2, 3, 1, 2, 0, 2, 3, 0, 2, 1)
   True         841          0  (2, 1, 3, 3, 0, 1, 2, 3, 0, 2, 1, 3, 1, 3, 0, 0, 2, 3, 2, 1, 1, 0, 1, 3, 2, 3, 2, 2, 2, 2, 3, 0, 3, 1, 0, 0, 3, 3, 1, 1, 2, 2, 1, 0, 1, 2, 2, 3, 0, 1)
  False        9999          1  (2, 3, 1, 1, 0, 3, 2, 1, 0, 2, 3, 1, 3, 2, 2, 1, 1, 0, 2, 3, 3, 0, 3, 2, 1, 2, 1, 1, 3, 1, 2, 0, 3, 3, 2, 1, 0, 0, 3, 3, 1, 1, 3, 2, 0, 1, 1, 2, 3, 0)
   True         706          0  (0, 2, 1, 1, 0, 2, 0, 3, 1, 2, 0, 2, 3, 1, 3, 0, 3, 1, 1, 3, 1, 2, 0, 1, 2, 1, 3, 0, 3, 2, 0, 0, 2, 1, 0, 2, 3, 0, 1, 1, 3, 2, 1, 3, 1, 3, 2, 0, 3, 1)
   True        3111          0  (2, 0, 1, 1, 2, 3, 2, 3, 0, 0, 3, 2, 3, 1, 2, 2, 1, 1, 1, 3, 3, 2, 3, 2, 0, 1, 0, 0, 0, 0, 1, 3, 0, 3, 1, 3, 2, 0, 2, 1, 1, 2, 2, 3, 2, 1, 0, 3, 1, 2)
   True         728          0  (2, 0, 3, 3, 1, 0, 2, 3, 1, 2, 1, 2, 0, 3, 2, 1, 2, 3, 3, 0, 0, 2, 0, 3, 3, 3, 1, 1, 1, 2, 3, 0, 3, 0, 1, 0, 3, 3, 2, 1, 1, 2, 1, 0, 0, 0, 2, 3, 1, 0)
   True         283          0  (0, 2, 3, 3, 1, 2, 0, 1, 3, 0, 1, 1, 2, 0, 2, 1, 1, 3, 0, 2, 3, 3, 2, 0, 0, 1, 1, 0, 0, 0, 2, 3, 2, 3, 2, 3, 1, 2, 0, 0, 1, 3, 0, 1, 1, 3, 3, 2, 2, 0)
   True        1224          0  (0, 2, 1, 1, 0, 1, 0, 3, 2, 2, 3, 1, 3, 2, 0, 0, 3, 1, 2, 3, 1, 1, 0, 2, 2, 0, 3, 2, 3, 2, 0, 0, 1, 1, 0, 1, 3, 3, 2, 2, 3, 1, 2, 0, 3, 1, 1, 0, 0, 2)
   True        2112          0  (1, 2, 3, 3, 1, 0, 1, 0, 3, 2, 0, 1, 0, 2, 2, 0, 2, 1, 3, 3, 3, 1, 0, 1, 0, 2, 3, 0, 0, 0, 2, 0, 1, 3, 2, 3, 1, 2, 1, 0, 3, 3, 0, 1, 1, 3, 3, 2, 2, 0)
   True         821          0  (3, 1, 2, 2, 3, 0, 3, 2, 1, 1, 0, 2, 0, 1, 1, 2, 2, 3, 1, 0, 0, 2, 3, 0, 3, 3, 1, 2, 1, 1, 3, 3, 0, 0, 2, 0, 3, 1, 2, 2, 1, 0, 2, 3, 0, 3, 1, 0, 2, 3)
   True         327          0  (3, 1, 0, 3, 2, 2, 2, 0, 1, 3, 2, 3, 0, 3, 3, 2, 3, 1, 1, 0, 1, 2, 0, 2, 0, 3, 1, 2, 0, 3, 3, 0, 2, 1, 2, 1, 0, 3, 2, 2, 1, 1, 2, 0, 3, 1, 1, 3, 2, 0)
   True        8046          0  (2, 0, 1, 1, 2, 1, 2, 1, 0, 0, 2, 1, 3, 0, 3, 2, 2, 1, 0, 3, 0, 1, 3, 0, 2, 0, 2, 2, 3, 2, 0, 1, 0, 0, 1, 1, 3, 2, 3, 0, 2, 3, 3, 1, 3, 0, 2, 1, 0, 3)
   True        1025          0  (2, 3, 0, 1, 2, 1, 2, 1, 3, 1, 3, 2, 0, 1, 1, 3, 0, 2, 3, 0, 0, 2, 1, 2, 2, 1, 3, 3, 0, 2, 1, 1, 2, 0, 3, 2, 1, 3, 0, 0, 3, 2, 0, 1, 0, 2, 2, 1, 1, 0)
   True         821          0  (1, 3, 2, 0, 1, 2, 1, 0, 3, 0, 1, 1, 2, 0, 0, 1, 0, 2, 0, 3, 2, 1, 2, 1, 3, 0, 3, 1, 2, 3, 0, 2, 1, 2, 1, 3, 0, 2, 1, 1, 3, 3, 1, 0, 2, 3, 3, 0, 1, 2)
   True          83          0  (0, 1, 3, 3, 0, 1, 0, 3, 2, 2, 1, 0, 1, 2, 2, 0, 0, 3, 2, 1, 1, 0, 3, 2, 0, 2, 1, 0, 3, 0, 2, 3, 1, 1, 3, 1, 2, 2, 0, 0, 2, 1, 0, 3, 2, 1, 1, 3, 3, 0)
   True        1276          0  (2, 1, 3, 0, 2, 1, 2, 0, 3, 1, 0, 0, 1, 3, 1, 3, 0, 2, 3, 0, 0, 2, 1, 2, 2, 1, 0, 3, 0, 2, 1, 1, 2, 0, 3, 2, 1, 1, 3, 0, 0, 2, 0, 3, 0, 2, 2, 1, 1, 3)
   True        8684          0  (0, 2, 1, 3, 0, 1, 0, 1, 3, 2, 3, 0, 2, 3, 2, 3, 0, 0, 3, 1, 0, 0, 2, 3, 3, 2, 1, 3, 3, 3, 2, 2, 3, 0, 2, 0, 1, 1, 3, 2, 0, 3, 2, 0, 1, 0, 3, 1, 0, 2)
   True        1187          0  (3, 0, 1, 1, 3, 0, 3, 2, 1, 0, 2, 3, 2, 0, 0, 3, 2, 1, 1, 2, 2, 3, 0, 3, 1, 1, 2, 3, 2, 3, 1, 1, 0, 2, 0, 0, 1, 1, 3, 3, 2, 2, 3, 0, 3, 2, 2, 1, 0, 3)
   True         792          0  (3, 2, 0, 0, 1, 2, 3, 1, 0, 2, 3, 1, 2, 3, 2, 3, 1, 1, 0, 0, 1, 1, 3, 2, 3, 2, 0, 3, 0, 3, 3, 3, 0, 1, 2, 1, 0, 3, 2, 2, 1, 1, 2, 0, 0, 1, 1, 0, 2, 3)
  False        9999          1  (1, 3, 2, 2, 1, 0, 1, 0, 3, 3, 1, 2, 0, 2, 0, 1, 1, 2, 1, 0, 1, 3, 0, 3, 3, 1, 2, 3, 0, 2, 1, 0, 3, 1, 0, 2, 3, 1, 3, 0, 1, 3, 3, 2, 2, 2, 1, 0, 0, 2)
   True        1717          0  (1, 0, 3, 3, 1, 0, 1, 2, 3, 0, 2, 1, 0, 3, 0, 3, 2, 1, 3, 2, 1, 1, 0, 3, 2, 0, 2, 3, 3, 2, 0, 0, 3, 1, 3, 2, 0, 1, 3, 3, 2, 2, 3, 0, 0, 0, 2, 1, 3, 0)
   True         390          0  (3, 2, 0, 0, 3, 1, 3, 0, 2, 2, 3, 3, 1, 2, 2, 3, 0, 1, 0, 0, 0, 3, 1, 3, 3, 1, 2, 3, 0, 3, 1, 1, 2, 0, 2, 2, 1, 3, 0, 0, 3, 2, 0, 1, 0, 2, 3, 1, 1, 0)
   True         347          0  (2, 3, 1, 1, 0, 3, 2, 1, 0, 3, 0, 2, 3, 1, 2, 0, 1, 1, 1, 2, 0, 0, 3, 0, 1, 1, 2, 3, 3, 3, 1, 3, 2, 0, 2, 2, 1, 3, 0, 0, 1, 2, 0, 1, 0, 1, 3, 2, 2, 0)
   True        1281          0  (2, 0, 1, 1, 2, 1, 2, 1, 3, 3, 2, 2, 0, 1, 0, 2, 0, 1, 3, 0, 2, 2, 1, 2, 1, 1, 0, 3, 0, 3, 1, 1, 3, 2, 0, 2, 1, 0, 3, 3, 2, 2, 3, 1, 3, 2, 2, 0, 0, 1)
   True        1011          0  (1, 0, 3, 2, 1, 0, 1, 3, 2, 2, 0, 0, 3, 2, 2, 0, 3, 1, 2, 3, 3, 0, 1, 0, 1, 2, 3, 0, 1, 1, 2, 2, 0, 3, 0, 3, 2, 1, 0, 0, 1, 2, 0, 3, 2, 2, 1, 3, 0, 2)
   True        3676          0  (3, 0, 2, 1, 3, 0, 3, 2, 1, 1, 3, 2, 0, 1, 0, 3, 2, 2, 1, 0, 3, 2, 3, 0, 1, 3, 1, 1, 1, 1, 3, 3, 0, 3, 0, 0, 2, 1, 2, 3, 1, 2, 2, 0, 2, 3, 1, 0, 0, 3)
   True        1884          0  (0, 3, 2, 1, 0, 3, 0, 2, 1, 3, 1, 0, 2, 3, 0, 0, 2, 2, 1, 1, 2, 0, 3, 0, 3, 2, 1, 3, 1, 3, 3, 3, 1, 2, 0, 0, 1, 1, 2, 2, 0, 3, 2, 0, 2, 0, 3, 1, 0, 2)
