Test Parameters:
	filename: graph60.txt
	numRuns: 20
	colors: 4
	max generations: 12000
	population size: 20
	mutation chance: 0.8
	tournament size: 10
	tournament chance: 0.5

Summary:
20 tests were run. 90.0% of them succeeded.
Of the successes, the average number iterations was 1122.56 (min 194, max 3519).
Of the failures, the average conflicts in the best result was 1.00 (min 1, max 1)

All results:
Success  Iterations  Conflicts  Color Sequence
   True         577          0  (1, 0, 2, 3, 3, 2, 3, 1, 0, 0, 0, 0, 1, 3, 2, 2, 3, 1, 0, 3, 0, 2, 0, 1, 2, 2, 2, 0, 1, 3, 1, 3, 2, 3, 1, 0, 2, 3, 0, 2, 3, 0, 0, 2, 2, 3, 3, 1, 1, 0, 2, 0, 1, 1, 1, 2, 3, 0, 3, 1)
   True         894          0  (3, 1, 2, 2, 3, 3, 1, 0, 1, 1, 0, 1, 1, 2, 3, 2, 2, 0, 0, 2, 1, 3, 0, 0, 3, 3, 3, 1, 0, 1, 2, 0, 3, 2, 3, 2, 1, 1, 3, 3, 0, 2, 2, 3, 3, 1, 0, 0, 2, 3, 2, 3, 0, 1, 0, 1, 2, 3, 1, 0)
   True         194          0  (0, 2, 1, 2, 0, 3, 2, 1, 2, 1, 1, 2, 3, 0, 0, 3, 3, 0, 1, 0, 2, 0, 1, 3, 3, 2, 1, 3, 0, 2, 0, 2, 2, 1, 0, 1, 2, 0, 1, 3, 0, 3, 1, 2, 3, 1, 1, 1, 0, 3, 3, 0, 2, 2, 2, 2, 1, 0, 1, 3)
   True         631          0  (0, 1, 3, 2, 0, 3, 1, 2, 1, 1, 3, 1, 1, 0, 0, 0, 1, 2, 3, 0, 1, 0, 3, 3, 3, 2, 2, 3, 3, 1, 0, 1, 2, 0, 2, 3, 1, 1, 2, 2, 0, 0, 3, 2, 0, 3, 3, 3, 1, 0, 0, 2, 3, 1, 2, 2, 3, 1, 1, 0)
   True         329          0  (1, 2, 3, 3, 1, 1, 2, 0, 3, 3, 0, 2, 1, 2, 2, 3, 3, 0, 0, 2, 1, 2, 0, 0, 3, 1, 3, 0, 2, 1, 0, 1, 3, 3, 2, 3, 1, 1, 3, 2, 0, 0, 3, 1, 0, 2, 2, 2, 3, 1, 0, 3, 2, 2, 3, 3, 1, 0, 1, 2)
   True        2655          0  (1, 0, 2, 2, 3, 3, 3, 2, 0, 0, 0, 1, 0, 1, 1, 1, 2, 0, 3, 1, 0, 1, 0, 3, 3, 2, 3, 0, 1, 2, 1, 2, 1, 3, 1, 3, 2, 2, 3, 0, 1, 0, 3, 2, 1, 3, 3, 2, 0, 1, 0, 1, 2, 2, 2, 0, 0, 1, 3, 2)
   True         703          0  (1, 2, 3, 0, 1, 1, 0, 0, 2, 0, 2, 2, 2, 3, 3, 3, 0, 1, 1, 3, 2, 3, 2, 1, 3, 2, 0, 1, 1, 0, 1, 3, 0, 3, 0, 1, 2, 3, 0, 2, 3, 2, 0, 0, 1, 3, 3, 3, 2, 1, 3, 1, 0, 2, 0, 2, 3, 1, 2, 0)
   True         649          0  (2, 3, 1, 1, 2, 0, 0, 1, 2, 3, 3, 0, 0, 1, 2, 1, 0, 2, 3, 3, 0, 2, 3, 0, 3, 1, 1, 2, 2, 0, 2, 0, 1, 3, 1, 3, 0, 2, 3, 1, 2, 0, 3, 1, 0, 3, 2, 2, 0, 1, 0, 2, 1, 1, 1, 3, 3, 0, 3, 1)
   True        1212          0  (0, 3, 1, 2, 0, 0, 2, 2, 3, 3, 1, 3, 0, 1, 3, 1, 2, 0, 1, 1, 3, 0, 3, 2, 1, 0, 2, 3, 1, 2, 0, 1, 3, 2, 0, 2, 3, 2, 0, 3, 1, 0, 0, 3, 3, 2, 2, 2, 1, 3, 3, 1, 2, 2, 1, 1, 0, 3, 0, 2)
   True         950          0  (0, 1, 2, 3, 3, 2, 3, 0, 3, 3, 2, 1, 0, 1, 1, 1, 3, 0, 2, 2, 1, 0, 2, 0, 2, 1, 3, 0, 0, 3, 0, 2, 1, 3, 1, 3, 2, 0, 3, 1, 0, 3, 3, 0, 2, 2, 2, 2, 1, 0, 2, 0, 1, 1, 1, 3, 3, 0, 3, 1)
   True         220          0  (3, 1, 2, 0, 3, 0, 0, 2, 3, 1, 2, 0, 1, 2, 3, 1, 0, 3, 2, 1, 0, 3, 2, 0, 1, 3, 3, 2, 0, 0, 2, 0, 3, 1, 3, 1, 2, 0, 3, 3, 0, 1, 2, 2, 3, 0, 0, 0, 3, 2, 2, 3, 0, 1, 2, 3, 0, 1, 1, 2)
   True        2310          0  (0, 1, 2, 2, 3, 2, 1, 0, 1, 3, 3, 1, 0, 0, 1, 2, 2, 3, 3, 3, 1, 1, 3, 2, 2, 0, 2, 1, 1, 0, 3, 0, 2, 3, 2, 1, 0, 1, 2, 2, 3, 3, 0, 0, 3, 2, 1, 2, 3, 0, 3, 0, 1, 1, 1, 3, 2, 0, 2, 1)
   True        2024          0  (2, 3, 0, 3, 1, 1, 1, 2, 3, 0, 0, 3, 1, 2, 2, 3, 1, 2, 0, 0, 1, 2, 0, 1, 0, 3, 3, 2, 2, 1, 2, 0, 3, 0, 1, 2, 3, 2, 1, 3, 0, 0, 1, 3, 0, 1, 2, 0, 0, 3, 0, 2, 3, 3, 3, 1, 1, 2, 1, 3)
   True         640          0  (1, 2, 0, 2, 1, 1, 2, 3, 2, 0, 3, 2, 3, 3, 1, 0, 2, 3, 0, 0, 2, 1, 3, 1, 1, 2, 1, 3, 1, 2, 0, 2, 2, 0, 1, 0, 3, 1, 0, 3, 2, 3, 0, 0, 2, 2, 1, 2, 3, 0, 2, 0, 1, 1, 0, 3, 3, 1, 3, 2)
   True        1068          0  (1, 3, 2, 2, 1, 1, 0, 0, 3, 3, 3, 3, 0, 2, 1, 3, 0, 1, 2, 2, 1, 3, 2, 0, 2, 1, 0, 3, 2, 0, 3, 2, 3, 0, 1, 0, 3, 0, 1, 1, 2, 1, 3, 0, 2, 3, 2, 1, 1, 0, 3, 2, 0, 0, 0, 3, 3, 2, 1, 0)
   True         477          0  (2, 3, 1, 0, 0, 1, 3, 2, 3, 2, 1, 3, 1, 0, 2, 0, 3, 2, 0, 0, 1, 2, 1, 1, 0, 3, 3, 2, 1, 3, 2, 0, 2, 0, 1, 2, 3, 3, 2, 1, 0, 0, 2, 1, 1, 2, 3, 3, 0, 1, 0, 1, 3, 3, 3, 2, 2, 0, 2, 3)
   True        3519          0  (0, 3, 2, 2, 1, 0, 3, 2, 3, 2, 1, 0, 0, 1, 3, 0, 2, 1, 1, 1, 0, 0, 1, 0, 3, 3, 3, 0, 0, 2, 1, 2, 3, 2, 1, 0, 3, 2, 1, 3, 2, 0, 0, 2, 1, 1, 1, 3, 3, 0, 2, 0, 1, 3, 3, 2, 2, 0, 3, 1)
  False       11999          1  (1, 3, 2, 3, 0, 0, 3, 2, 1, 2, 2, 3, 2, 3, 0, 1, 3, 0, 1, 3, 0, 2, 0, 0, 1, 1, 1, 2, 3, 3, 2, 3, 0, 0, 1, 0, 2, 2, 0, 1, 3, 3, 0, 2, 3, 0, 1, 1, 3, 2, 2, 3, 1, 1, 1, 0, 0, 2, 0, 1)
   True        1154          0  (0, 1, 2, 2, 0, 2, 1, 3, 0, 1, 1, 1, 0, 3, 3, 0, 2, 3, 1, 1, 2, 0, 3, 2, 0, 3, 3, 0, 0, 2, 1, 2, 3, 1, 3, 1, 2, 2, 1, 3, 0, 1, 1, 0, 0, 3, 2, 2, 1, 0, 3, 0, 1, 2, 2, 3, 3, 0, 2, 1)
  False       11999          1  (1, 2, 3, 2, 0, 3, 2, 1, 0, 0, 3, 2, 0, 2, 1, 1, 2, 0, 3, 2, 0, 1, 3, 1, 3, 3, 3, 1, 2, 2, 1, 2, 1, 0, 3, 2, 1, 2, 0, 0, 3, 0, 1, 3, 3, 1, 2, 0, 0, 3, 3, 0, 2, 2, 2, 1, 1, 3, 1, 2)
