Test Parameters:
	filename: graph20.txt
	numRuns: 300
	colors: 4
	max generations: 4000
	population size: 25
	mutation chance: 0.8
	tournament size: 15
	tournament chance: 0.5

Summary:
300 tests were run. 100.0% of them succeeded.
Of the successes, the average number iterations was 61.53 (min 4, max 1163).
Of the failures, the average conflicts in the best result was 0.00 (min 999999999, max 0)

All results:
Success  Iterations  Conflicts  Color Sequence
   True          15          0  (2, 1, 3, 1, 3, 0, 3, 0, 1, 2, 1, 2, 3, 1, 2, 3, 0, 2, 1, 3)
   True          40          0  (3, 0, 2, 0, 3, 1, 2, 1, 0, 2, 0, 3, 2, 0, 1, 0, 3, 2, 1, 0)
   True          44          0  (2, 3, 1, 3, 1, 1, 3, 0, 1, 3, 2, 0, 2, 3, 1, 1, 0, 3, 0, 2)
   True          21          0  (2, 1, 0, 1, 0, 1, 0, 3, 1, 2, 1, 2, 0, 3, 2, 1, 3, 2, 3, 1)
   True          15          0  (0, 2, 1, 2, 0, 2, 1, 3, 2, 1, 1, 0, 1, 0, 2, 0, 3, 2, 1, 0)
   True          12          0  (1, 2, 3, 2, 1, 2, 3, 0, 2, 3, 2, 1, 3, 0, 1, 1, 0, 3, 0, 2)
   True          27          0  (0, 2, 3, 2, 3, 1, 3, 1, 0, 3, 2, 2, 3, 2, 0, 2, 1, 0, 1, 2)
   True         121          0  (1, 0, 3, 0, 3, 3, 0, 2, 3, 1, 0, 1, 0, 1, 3, 0, 2, 1, 2, 0)
   True          26          0  (2, 3, 0, 3, 0, 3, 0, 1, 3, 0, 2, 2, 0, 2, 3, 2, 1, 3, 1, 2)
   True          48          0  (0, 1, 3, 1, 3, 3, 1, 2, 3, 0, 1, 2, 1, 2, 3, 3, 2, 0, 2, 1)
   True         167          0  (3, 1, 2, 1, 2, 1, 2, 0, 3, 2, 3, 0, 2, 3, 1, 3, 0, 1, 3, 2)
   True         268          0  (1, 0, 3, 0, 3, 3, 0, 2, 1, 0, 1, 2, 0, 2, 1, 1, 3, 0, 1, 2)
   True          10          0  (0, 3, 2, 3, 0, 3, 2, 1, 3, 2, 3, 1, 0, 1, 2, 0, 1, 2, 3, 0)
   True          49          0  (1, 2, 3, 2, 3, 0, 3, 0, 1, 2, 1, 2, 3, 2, 1, 3, 0, 2, 0, 3)
   True        1163          0  (0, 1, 3, 1, 3, 1, 3, 2, 0, 3, 0, 2, 3, 2, 1, 0, 2, 1, 0, 3)
   True          42          0  (0, 2, 3, 2, 3, 3, 2, 1, 3, 0, 2, 0, 2, 1, 3, 3, 1, 0, 1, 2)
   True          46          0  (3, 2, 0, 2, 0, 2, 0, 1, 2, 0, 3, 3, 0, 3, 2, 3, 1, 2, 3, 0)
   True          14          0  (2, 1, 0, 1, 0, 1, 0, 3, 1, 2, 2, 2, 0, 2, 1, 0, 3, 1, 2, 0)
   True         358          0  (0, 1, 2, 1, 2, 1, 2, 3, 1, 2, 1, 3, 2, 3, 0, 1, 3, 0, 3, 2)
   True          20          0  (1, 0, 3, 0, 3, 0, 3, 2, 0, 1, 0, 2, 1, 2, 3, 3, 2, 1, 2, 0)
   True          37          0  (1, 3, 0, 3, 0, 2, 0, 2, 3, 1, 3, 1, 0, 1, 3, 0, 2, 1, 2, 0)
   True          14          0  (2, 0, 3, 0, 3, 0, 3, 1, 2, 3, 0, 1, 3, 1, 0, 0, 1, 2, 0, 3)
   True          21          0  (0, 1, 2, 1, 2, 3, 2, 3, 0, 2, 1, 1, 2, 1, 0, 1, 3, 0, 3, 2)
   True          12          0  (2, 0, 1, 0, 1, 1, 0, 3, 1, 2, 2, 3, 0, 3, 2, 1, 3, 0, 3, 1)
   True          11          0  (2, 0, 1, 0, 1, 0, 1, 3, 0, 2, 0, 2, 1, 2, 0, 1, 3, 2, 3, 1)
   True          14          0  (0, 1, 3, 1, 3, 1, 3, 2, 1, 0, 1, 0, 2, 3, 1, 1, 3, 0, 1, 2)
   True          11          0  (0, 1, 3, 1, 3, 1, 3, 2, 0, 1, 0, 2, 3, 2, 1, 3, 2, 1, 0, 3)
   True           8          0  (3, 1, 0, 1, 0, 1, 0, 2, 1, 3, 1, 3, 2, 0, 1, 1, 0, 3, 1, 2)
   True          53          0  (3, 2, 0, 2, 3, 2, 0, 1, 3, 0, 2, 1, 0, 1, 3, 3, 2, 0, 2, 1)
   True          16          0  (2, 0, 1, 0, 1, 3, 0, 3, 1, 0, 2, 2, 0, 2, 1, 1, 2, 0, 2, 3)
   True         442          0  (2, 3, 1, 3, 2, 3, 1, 0, 2, 3, 1, 0, 1, 2, 3, 1, 0, 3, 1, 2)
   True          21          0  (1, 2, 0, 2, 1, 3, 2, 3, 0, 2, 2, 1, 2, 0, 1, 1, 3, 0, 3, 2)
   True          26          0  (0, 3, 1, 3, 0, 1, 3, 2, 0, 3, 1, 2, 3, 2, 0, 0, 1, 3, 1, 2)
   True           7          0  (2, 0, 1, 0, 1, 3, 0, 3, 2, 1, 2, 1, 0, 2, 1, 2, 3, 0, 3, 2)
   True          35          0  (3, 0, 2, 0, 2, 0, 2, 1, 0, 3, 3, 1, 2, 1, 3, 2, 1, 0, 1, 2)
   True          23          0  (2, 1, 3, 1, 3, 1, 3, 0, 1, 2, 2, 2, 3, 0, 1, 3, 0, 1, 0, 3)
   True          13          0  (1, 0, 2, 0, 1, 2, 0, 3, 2, 0, 0, 3, 1, 3, 2, 1, 3, 2, 3, 0)
   True          13          0  (2, 3, 0, 3, 0, 3, 0, 1, 3, 0, 3, 1, 2, 0, 3, 3, 1, 2, 3, 0)
   True          22          0  (3, 1, 2, 1, 3, 2, 1, 0, 3, 1, 2, 0, 1, 3, 2, 2, 0, 1, 2, 3)
   True          34          0  (3, 1, 0, 1, 0, 1, 0, 2, 3, 1, 1, 2, 0, 2, 3, 0, 2, 3, 2, 1)
   True          10          0  (1, 0, 3, 0, 1, 0, 3, 2, 0, 1, 0, 1, 3, 1, 0, 0, 2, 3, 0, 1)
   True          82          0  (3, 0, 2, 0, 2, 0, 2, 1, 0, 2, 3, 1, 3, 2, 0, 3, 1, 0, 1, 3)
   True          19          0  (2, 1, 0, 1, 2, 1, 0, 3, 1, 2, 0, 3, 2, 3, 1, 0, 3, 1, 0, 2)
   True          36          0  (1, 2, 3, 2, 1, 3, 2, 0, 3, 1, 2, 0, 1, 0, 3, 2, 0, 3, 0, 1)
   True          63          0  (1, 3, 2, 3, 1, 2, 3, 0, 1, 2, 3, 0, 3, 0, 2, 1, 0, 2, 0, 1)
   True          45          0  (0, 2, 3, 2, 0, 1, 3, 1, 0, 3, 3, 2, 3, 0, 2, 0, 1, 2, 1, 0)
   True         133          0  (3, 1, 0, 1, 0, 0, 1, 2, 0, 3, 1, 3, 2, 1, 0, 0, 1, 3, 1, 2)
   True          57          0  (0, 3, 1, 3, 1, 1, 3, 2, 0, 1, 3, 2, 3, 2, 0, 3, 2, 0, 2, 3)
   True         231          0  (0, 2, 1, 2, 0, 2, 1, 3, 0, 1, 2, 3, 1, 3, 0, 0, 2, 1, 2, 3)
   True          28          0  (3, 0, 1, 0, 1, 0, 1, 2, 0, 1, 3, 2, 3, 1, 0, 3, 2, 0, 2, 3)
   True          25          0  (3, 0, 2, 0, 3, 2, 0, 1, 2, 0, 0, 1, 3, 0, 2, 3, 1, 2, 1, 3)
   True          19          0  (2, 0, 3, 0, 3, 1, 0, 1, 2, 0, 0, 3, 0, 2, 3, 3, 1, 2, 1, 0)
   True           9          0  (2, 1, 0, 1, 2, 1, 0, 3, 1, 2, 0, 3, 0, 2, 1, 0, 3, 1, 3, 2)
   True          19          0  (3, 1, 0, 1, 3, 0, 1, 2, 0, 3, 1, 2, 1, 3, 0, 1, 2, 0, 1, 3)
   True          31          0  (1, 0, 2, 0, 2, 3, 0, 3, 1, 0, 0, 2, 0, 1, 2, 2, 3, 1, 3, 0)
   True          31          0  (1, 2, 3, 2, 3, 0, 2, 0, 3, 2, 2, 1, 2, 3, 1, 3, 0, 1, 2, 3)
   True          44          0  (3, 0, 1, 0, 1, 0, 1, 2, 3, 0, 0, 2, 1, 3, 0, 1, 2, 3, 2, 1)
   True          30          0  (2, 0, 1, 0, 1, 0, 1, 3, 2, 1, 0, 3, 1, 3, 2, 0, 3, 2, 3, 1)
   True          20          0  (3, 0, 1, 0, 1, 0, 1, 2, 0, 1, 3, 2, 3, 1, 0, 3, 2, 0, 3, 1)
   True          37          0  (2, 0, 1, 0, 1, 1, 0, 3, 1, 2, 0, 3, 0, 2, 1, 0, 3, 2, 3, 0)
   True           7          0  (1, 3, 2, 3, 1, 3, 2, 0, 1, 3, 2, 0, 2, 0, 3, 2, 0, 3, 0, 1)
   True           5          0  (3, 0, 2, 0, 3, 2, 0, 1, 2, 0, 0, 1, 0, 3, 2, 3, 1, 2, 1, 0)
   True          18          0  (0, 1, 2, 1, 0, 1, 2, 3, 1, 2, 1, 3, 2, 0, 3, 1, 0, 2, 3, 1)
   True          50          0  (3, 2, 0, 2, 3, 0, 2, 1, 0, 3, 2, 1, 3, 1, 0, 2, 1, 0, 1, 3)
   True          15          0  (1, 2, 3, 2, 3, 2, 3, 0, 2, 1, 1, 0, 1, 3, 2, 3, 0, 2, 0, 1)
   True          16          0  (3, 0, 1, 0, 3, 0, 1, 2, 0, 1, 0, 3, 1, 3, 2, 0, 3, 1, 2, 0)
   True          40          0  (2, 1, 3, 1, 3, 3, 1, 0, 2, 3, 1, 0, 1, 2, 3, 1, 0, 2, 0, 1)
   True          17          0  (1, 0, 2, 0, 1, 0, 2, 3, 0, 2, 0, 1, 2, 3, 0, 1, 3, 2, 0, 1)
   True          43          0  (2, 3, 0, 3, 2, 1, 3, 1, 2, 3, 0, 0, 3, 2, 1, 2, 0, 3, 1, 2)
   True          16          0  (2, 3, 1, 3, 2, 0, 1, 0, 2, 1, 1, 3, 1, 3, 2, 2, 0, 3, 0, 1)
   True          18          0  (3, 1, 0, 1, 3, 0, 1, 2, 0, 3, 1, 3, 1, 3, 0, 1, 2, 0, 2, 3)
   True          47          0  (0, 1, 2, 1, 0, 2, 1, 3, 2, 1, 2, 3, 0, 3, 1, 2, 3, 1, 2, 0)
   True          11          0  (1, 3, 2, 3, 1, 0, 3, 0, 1, 2, 3, 2, 3, 2, 1, 1, 0, 2, 0, 3)
   True          22          0  (2, 3, 1, 3, 2, 1, 3, 0, 2, 1, 3, 0, 3, 0, 1, 3, 0, 1, 3, 2)
   True          25          0  (2, 3, 0, 3, 0, 1, 0, 1, 2, 3, 3, 3, 0, 2, 3, 0, 1, 2, 3, 0)
   True         186          0  (0, 1, 3, 1, 3, 2, 1, 2, 0, 1, 1, 3, 1, 3, 0, 3, 2, 0, 1, 3)
   True          56          0  (1, 0, 3, 0, 3, 0, 3, 2, 0, 1, 0, 2, 1, 2, 0, 0, 2, 1, 0, 3)
   True          35          0  (0, 2, 1, 2, 0, 1, 2, 3, 1, 2, 1, 0, 3, 0, 2, 1, 0, 2, 3, 1)
   True          37          0  (0, 1, 3, 1, 0, 1, 3, 2, 1, 3, 1, 2, 3, 2, 0, 1, 2, 3, 2, 1)
   True          34          0  (1, 0, 2, 0, 1, 0, 2, 3, 1, 0, 2, 3, 2, 1, 0, 2, 3, 0, 2, 1)
   True          15          0  (3, 0, 1, 0, 1, 1, 0, 2, 3, 0, 0, 2, 0, 3, 1, 1, 2, 3, 2, 0)
   True           8          0  (0, 2, 1, 2, 0, 2, 1, 3, 2, 0, 2, 0, 1, 3, 2, 2, 3, 1, 3, 0)
   True          20          0  (0, 3, 1, 3, 1, 3, 1, 2, 3, 0, 0, 2, 0, 2, 3, 1, 2, 3, 2, 1)
   True          65          0  (3, 0, 2, 0, 3, 1, 2, 1, 3, 2, 0, 0, 2, 0, 3, 3, 0, 2, 0, 1)
   True         293          0  (2, 3, 1, 3, 2, 0, 3, 0, 2, 1, 3, 1, 3, 2, 1, 2, 0, 1, 3, 2)
   True          38          0  (2, 3, 0, 3, 0, 3, 0, 1, 3, 2, 2, 2, 0, 1, 3, 0, 1, 3, 1, 2)
   True         121          0  (1, 0, 2, 0, 1, 0, 2, 3, 0, 1, 2, 3, 1, 2, 0, 2, 3, 0, 3, 1)
   True         189          0  (2, 1, 0, 1, 0, 1, 0, 3, 1, 2, 1, 2, 3, 0, 2, 1, 0, 2, 1, 3)
   True         401          0  (1, 2, 3, 2, 1, 3, 2, 0, 3, 1, 2, 1, 2, 1, 3, 2, 0, 3, 0, 2)
   True          16          0  (2, 3, 0, 3, 2, 3, 0, 1, 3, 0, 0, 1, 0, 1, 3, 2, 1, 3, 1, 2)
   True          40          0  (0, 3, 2, 3, 0, 3, 2, 1, 3, 2, 2, 1, 0, 1, 3, 0, 1, 3, 1, 0)
   True          47          0  (3, 1, 0, 1, 3, 0, 1, 2, 3, 1, 1, 2, 1, 2, 0, 3, 2, 0, 2, 1)
   True          21          0  (3, 1, 0, 1, 3, 1, 0, 2, 1, 0, 1, 3, 0, 3, 1, 3, 2, 0, 1, 3)
   True          17          0  (0, 1, 2, 1, 2, 2, 1, 3, 2, 0, 1, 0, 3, 1, 0, 2, 1, 0, 1, 2)
   True          13          0  (2, 0, 1, 0, 2, 3, 1, 3, 2, 1, 0, 0, 1, 2, 0, 2, 3, 1, 0, 2)
   True          16          0  (2, 0, 1, 0, 2, 1, 0, 3, 2, 1, 0, 3, 0, 2, 1, 0, 3, 1, 3, 2)
   True          13          0  (2, 3, 1, 3, 2, 3, 1, 0, 2, 1, 3, 0, 1, 2, 3, 3, 0, 1, 3, 2)
   True          18          0  (3, 0, 2, 0, 2, 2, 0, 1, 2, 3, 0, 1, 3, 1, 0, 0, 1, 3, 0, 2)
   True          25          0  (3, 2, 0, 2, 3, 0, 2, 1, 3, 0, 2, 1, 2, 3, 0, 2, 1, 0, 1, 3)
   True          25          0  (1, 2, 0, 2, 0, 2, 0, 3, 2, 1, 1, 1, 0, 3, 1, 0, 3, 2, 3, 0)
   True          28          0  (1, 3, 0, 3, 1, 0, 3, 2, 1, 0, 3, 2, 3, 2, 0, 1, 2, 0, 2, 1)
   True          20          0  (1, 0, 2, 0, 1, 2, 0, 3, 2, 1, 0, 3, 1, 0, 2, 0, 3, 2, 3, 0)
   True           9          0  (0, 3, 2, 3, 0, 2, 3, 1, 0, 2, 3, 1, 3, 1, 2, 0, 1, 2, 3, 0)
   True          19          0  (1, 2, 3, 2, 3, 3, 2, 0, 3, 1, 2, 0, 1, 0, 2, 2, 0, 1, 2, 3)
   True          44          0  (0, 3, 2, 3, 0, 1, 2, 1, 0, 2, 3, 3, 2, 3, 0, 0, 3, 2, 3, 1)
   True          97          0  (2, 0, 3, 0, 3, 1, 0, 1, 3, 0, 2, 2, 0, 3, 1, 3, 2, 0, 2, 3)
   True          19          0  (0, 3, 2, 3, 2, 1, 3, 1, 2, 3, 0, 0, 3, 0, 1, 2, 0, 3, 0, 2)
   True          10          0  (0, 3, 2, 3, 2, 1, 3, 1, 0, 3, 0, 2, 3, 0, 1, 0, 2, 3, 1, 0)
   True          89          0  (0, 2, 3, 2, 3, 1, 2, 1, 3, 2, 0, 0, 2, 0, 1, 3, 0, 2, 0, 3)
   True          55          0  (0, 3, 1, 3, 1, 3, 1, 2, 3, 0, 3, 2, 0, 1, 3, 3, 1, 0, 3, 2)
   True           6          0  (0, 1, 2, 1, 0, 1, 2, 3, 1, 2, 1, 0, 2, 3, 0, 1, 3, 2, 3, 1)
   True          38          0  (1, 2, 3, 2, 3, 2, 3, 0, 2, 1, 2, 0, 3, 0, 2, 2, 0, 1, 2, 3)
   True         103          0  (3, 2, 0, 2, 0, 0, 2, 1, 0, 2, 3, 1, 3, 1, 2, 3, 1, 2, 1, 3)
   True          40          0  (3, 2, 1, 2, 1, 0, 1, 0, 3, 2, 3, 2, 1, 3, 2, 1, 0, 2, 3, 1)
   True          21          0  (0, 3, 2, 3, 0, 2, 3, 1, 2, 3, 2, 0, 1, 0, 3, 2, 0, 3, 2, 1)
   True          16          0  (1, 0, 3, 0, 1, 2, 0, 2, 3, 0, 3, 1, 0, 1, 3, 3, 1, 0, 3, 2)
   True          17          0  (2, 3, 1, 3, 2, 3, 1, 0, 3, 1, 3, 0, 2, 0, 1, 3, 0, 1, 3, 2)
   True          16          0  (0, 2, 3, 2, 3, 1, 2, 1, 0, 3, 2, 3, 2, 3, 0, 2, 1, 0, 2, 3)
   True          42          0  (3, 1, 0, 1, 0, 2, 1, 2, 0, 3, 1, 3, 1, 0, 3, 1, 2, 3, 2, 1)
   True          10          0  (2, 3, 0, 3, 2, 3, 0, 1, 3, 0, 3, 2, 0, 2, 3, 3, 2, 0, 3, 1)
   True         305          0  (1, 3, 0, 3, 1, 3, 0, 2, 1, 3, 0, 2, 0, 2, 1, 0, 2, 3, 2, 0)
   True          21          0  (2, 3, 0, 3, 2, 3, 0, 1, 3, 2, 0, 1, 2, 0, 3, 0, 1, 3, 1, 0)
   True         571          0  (2, 1, 3, 1, 3, 0, 3, 0, 1, 3, 2, 2, 3, 2, 1, 2, 0, 1, 0, 3)
   True          68          0  (1, 0, 3, 0, 3, 2, 0, 2, 1, 0, 1, 3, 0, 3, 1, 1, 2, 0, 2, 3)
   True          10          0  (0, 3, 1, 3, 0, 1, 3, 2, 1, 0, 1, 2, 0, 2, 3, 1, 2, 3, 2, 0)
   True          10          0  (1, 0, 3, 0, 1, 0, 3, 2, 0, 1, 0, 1, 3, 2, 1, 0, 2, 3, 2, 0)
   True          62          0  (2, 3, 0, 3, 2, 3, 0, 1, 2, 0, 0, 1, 0, 1, 3, 2, 1, 3, 0, 2)
   True         207          0  (0, 1, 3, 1, 3, 3, 1, 2, 3, 0, 1, 2, 0, 1, 2, 3, 1, 0, 2, 3)
   True          15          0  (3, 2, 0, 2, 3, 2, 0, 1, 3, 2, 0, 1, 0, 1, 2, 0, 1, 2, 1, 0)
   True          18          0  (1, 0, 3, 0, 3, 3, 0, 2, 3, 1, 0, 2, 0, 2, 1, 0, 2, 1, 2, 3)
   True          33          0  (2, 0, 3, 0, 3, 3, 0, 1, 3, 0, 2, 2, 0, 2, 3, 3, 1, 0, 1, 2)
   True          72          0  (3, 2, 1, 2, 3, 2, 1, 0, 2, 3, 1, 0, 1, 0, 2, 1, 0, 2, 0, 1)
   True          14          0  (3, 2, 0, 2, 0, 1, 0, 1, 3, 0, 3, 2, 0, 3, 2, 3, 1, 2, 3, 0)
   True          10          0  (1, 3, 0, 3, 1, 3, 0, 2, 3, 0, 3, 1, 0, 2, 3, 3, 1, 0, 3, 2)
   True         130          0  (3, 1, 2, 1, 3, 0, 2, 0, 3, 2, 1, 1, 2, 1, 0, 3, 1, 2, 0, 3)
   True          30          0  (2, 3, 1, 3, 1, 1, 3, 0, 1, 3, 3, 2, 3, 0, 1, 1, 0, 2, 0, 3)
   True          42          0  (0, 1, 2, 1, 2, 2, 1, 3, 2, 1, 0, 3, 0, 3, 2, 0, 3, 1, 3, 0)
   True         102          0  (2, 0, 1, 0, 2, 1, 0, 3, 1, 0, 0, 2, 0, 2, 1, 2, 3, 1, 3, 2)
   True         102          0  (1, 0, 2, 0, 2, 0, 2, 3, 0, 1, 1, 1, 2, 3, 0, 2, 3, 0, 1, 2)
   True          30          0  (2, 0, 1, 0, 2, 0, 1, 3, 0, 2, 0, 3, 2, 3, 1, 0, 3, 1, 3, 0)
   True         108          0  (3, 0, 2, 0, 3, 0, 2, 1, 0, 2, 2, 1, 3, 1, 0, 3, 1, 0, 2, 3)
   True          13          0  (3, 1, 2, 1, 2, 0, 1, 0, 3, 1, 1, 2, 1, 2, 3, 2, 0, 3, 0, 2)
   True          13          0  (3, 2, 0, 2, 0, 1, 2, 1, 3, 2, 3, 0, 2, 3, 1, 3, 0, 2, 1, 3)
   True          32          0  (1, 0, 2, 0, 1, 0, 2, 3, 1, 0, 0, 3, 2, 3, 0, 1, 3, 2, 0, 1)
   True          31          0  (2, 0, 3, 0, 3, 3, 0, 1, 2, 0, 2, 1, 0, 1, 2, 2, 1, 0, 1, 3)
   True          49          0  (3, 0, 1, 0, 1, 1, 0, 2, 1, 3, 0, 2, 3, 0, 1, 1, 0, 3, 0, 2)
   True          49          0  (2, 1, 3, 1, 2, 3, 1, 0, 3, 1, 3, 0, 1, 2, 0, 3, 2, 1, 0, 3)
   True          59          0  (3, 2, 0, 2, 3, 2, 0, 1, 2, 0, 0, 1, 3, 0, 2, 3, 1, 2, 0, 3)
   True         117          0  (3, 1, 2, 1, 3, 2, 1, 0, 2, 3, 2, 0, 3, 1, 2, 2, 0, 1, 2, 3)
   True         163          0  (2, 3, 1, 3, 1, 3, 1, 0, 2, 3, 2, 0, 1, 2, 3, 2, 0, 3, 2, 1)
   True          28          0  (3, 1, 2, 1, 2, 2, 1, 0, 2, 1, 3, 3, 0, 3, 1, 2, 3, 1, 3, 0)
   True          33          0  (2, 3, 1, 3, 1, 0, 3, 0, 1, 2, 3, 2, 3, 1, 2, 3, 0, 2, 0, 1)
   True          27          0  (2, 3, 1, 3, 2, 0, 3, 0, 1, 3, 1, 2, 3, 2, 0, 1, 2, 3, 0, 1)
   True          20          0  (0, 2, 3, 2, 3, 3, 2, 1, 3, 0, 0, 1, 0, 2, 3, 3, 1, 2, 1, 0)
   True          51          0  (3, 0, 1, 0, 3, 0, 1, 2, 0, 1, 1, 3, 1, 3, 0, 3, 2, 0, 1, 3)
   True         116          0  (2, 1, 0, 1, 0, 1, 0, 3, 1, 2, 2, 3, 2, 3, 1, 0, 3, 1, 3, 2)
   True          89          0  (2, 1, 3, 1, 2, 1, 3, 0, 1, 2, 3, 0, 2, 3, 1, 3, 0, 1, 0, 2)
   True          28          0  (2, 0, 1, 0, 1, 3, 1, 3, 2, 0, 0, 0, 1, 0, 2, 1, 3, 2, 3, 1)
   True          12          0  (0, 3, 1, 3, 1, 2, 3, 2, 1, 0, 3, 0, 3, 0, 1, 3, 2, 0, 2, 3)
   True          12          0  (0, 2, 3, 2, 3, 3, 2, 1, 3, 0, 0, 0, 2, 0, 3, 3, 1, 2, 1, 0)
   True          15          0  (2, 1, 0, 1, 2, 1, 0, 3, 1, 0, 1, 3, 0, 2, 3, 1, 2, 0, 3, 1)
   True          12          0  (3, 0, 1, 0, 1, 1, 0, 2, 3, 0, 3, 2, 0, 3, 1, 1, 2, 0, 2, 3)
   True          19          0  (2, 0, 1, 0, 1, 0, 1, 3, 0, 1, 2, 3, 1, 3, 0, 2, 3, 0, 2, 1)
   True          11          0  (2, 3, 0, 3, 2, 3, 0, 1, 2, 3, 3, 1, 0, 2, 3, 2, 1, 0, 3, 2)
   True          86          0  (1, 3, 0, 3, 0, 3, 0, 2, 3, 1, 3, 1, 0, 2, 3, 3, 2, 1, 2, 0)
   True          45          0  (1, 2, 3, 2, 3, 2, 3, 0, 2, 3, 1, 1, 3, 1, 2, 1, 0, 2, 1, 3)
   True          67          0  (0, 1, 3, 1, 0, 1, 3, 2, 1, 3, 1, 2, 0, 2, 3, 0, 2, 3, 2, 0)
   True          32          0  (0, 3, 2, 3, 2, 2, 3, 1, 2, 3, 0, 1, 0, 1, 3, 0, 1, 3, 1, 2)
   True          17          0  (1, 2, 3, 2, 1, 0, 3, 0, 2, 3, 3, 1, 3, 2, 1, 1, 0, 2, 0, 3)
   True          32          0  (0, 2, 1, 2, 1, 1, 2, 3, 1, 0, 2, 0, 3, 0, 1, 1, 2, 0, 2, 3)
   True          12          0  (0, 2, 3, 2, 0, 2, 3, 1, 2, 0, 2, 1, 0, 3, 2, 2, 1, 3, 1, 0)
   True         126          0  (3, 2, 0, 2, 0, 2, 0, 1, 3, 2, 3, 1, 0, 3, 2, 3, 1, 2, 3, 0)
   True          10          0  (3, 2, 0, 2, 3, 2, 0, 1, 3, 2, 0, 1, 0, 1, 3, 3, 1, 2, 1, 0)
   True          83          0  (2, 1, 0, 1, 0, 1, 0, 3, 1, 0, 1, 3, 0, 3, 2, 1, 3, 2, 3, 1)
   True          42          0  (2, 3, 1, 3, 1, 0, 3, 0, 1, 2, 3, 2, 3, 1, 2, 1, 0, 2, 0, 3)
   True         128          0  (3, 1, 2, 1, 3, 1, 2, 0, 1, 2, 1, 0, 3, 0, 2, 1, 0, 2, 0, 3)
   True          18          0  (2, 0, 3, 0, 3, 3, 0, 1, 3, 2, 0, 1, 2, 1, 0, 3, 1, 2, 0, 3)
   True          88          0  (2, 3, 1, 3, 1, 1, 3, 0, 1, 2, 3, 2, 0, 3, 2, 1, 3, 2, 0, 1)
   True           8          0  (3, 2, 1, 2, 1, 2, 1, 0, 3, 1, 3, 0, 1, 0, 2, 3, 0, 2, 3, 1)
   True          73          0  (2, 1, 3, 1, 2, 3, 1, 0, 3, 1, 3, 0, 1, 2, 0, 3, 2, 1, 0, 3)
   True          17          0  (3, 0, 2, 0, 3, 0, 2, 1, 0, 3, 2, 1, 3, 1, 2, 2, 1, 0, 1, 3)
   True          18          0  (1, 2, 3, 2, 3, 2, 3, 0, 1, 2, 1, 0, 3, 1, 2, 3, 0, 2, 0, 1)
   True          10          0  (0, 1, 2, 1, 2, 1, 2, 3, 0, 1, 0, 3, 2, 0, 1, 0, 3, 1, 0, 2)
   True          75          0  (3, 2, 0, 2, 3, 0, 2, 1, 0, 2, 2, 1, 3, 1, 0, 3, 1, 0, 1, 3)
   True          22          0  (3, 1, 2, 1, 3, 0, 1, 0, 3, 2, 1, 2, 1, 3, 2, 1, 0, 2, 1, 3)
   True          35          0  (0, 3, 2, 3, 0, 3, 2, 1, 3, 2, 3, 0, 2, 1, 3, 3, 0, 2, 3, 1)
   True          20          0  (2, 1, 0, 1, 2, 1, 0, 3, 1, 2, 0, 3, 2, 0, 1, 0, 3, 1, 0, 2)
   True         151          0  (2, 3, 1, 3, 2, 3, 1, 0, 3, 1, 3, 0, 2, 0, 1, 3, 0, 1, 3, 2)
   True          88          0  (0, 2, 3, 2, 0, 1, 2, 1, 0, 2, 3, 3, 2, 3, 1, 0, 3, 2, 3, 0)
   True          13          0  (0, 2, 1, 2, 0, 3, 1, 3, 0, 1, 2, 2, 1, 2, 0, 2, 3, 1, 3, 2)
   True          93          0  (0, 3, 1, 3, 1, 3, 1, 2, 3, 1, 0, 0, 1, 2, 3, 0, 2, 3, 0, 1)
   True          15          0  (1, 0, 3, 0, 3, 2, 0, 2, 3, 1, 1, 1, 0, 3, 1, 3, 2, 0, 2, 3)
   True          58          0  (3, 0, 2, 0, 2, 0, 2, 1, 0, 2, 0, 1, 2, 1, 3, 0, 1, 3, 1, 2)
   True          17          0  (2, 3, 0, 3, 0, 3, 0, 1, 3, 2, 3, 2, 1, 0, 3, 3, 0, 2, 3, 1)
   True           9          0  (1, 0, 2, 0, 2, 3, 2, 3, 1, 2, 1, 0, 2, 1, 0, 1, 3, 0, 1, 2)
   True         123          0  (2, 3, 0, 3, 2, 3, 0, 1, 3, 0, 3, 2, 1, 2, 0, 3, 2, 0, 3, 1)
   True          91          0  (2, 1, 3, 1, 2, 0, 1, 0, 3, 2, 1, 2, 1, 3, 2, 1, 0, 3, 0, 1)
   True          12          0  (0, 1, 3, 1, 0, 3, 1, 2, 0, 1, 3, 2, 1, 0, 3, 3, 2, 1, 3, 0)
   True          79          0  (0, 2, 3, 2, 3, 2, 3, 1, 2, 0, 2, 1, 0, 1, 3, 2, 1, 0, 1, 2)
   True          46          0  (0, 3, 1, 3, 0, 1, 3, 2, 1, 3, 1, 2, 0, 2, 3, 0, 2, 3, 2, 1)
   True          24          0  (2, 0, 1, 0, 1, 3, 1, 3, 2, 0, 2, 0, 1, 2, 0, 1, 3, 0, 3, 2)
   True          17          0  (1, 2, 3, 2, 3, 2, 3, 0, 2, 3, 1, 0, 1, 0, 2, 1, 0, 2, 0, 3)
   True          37          0  (1, 2, 3, 2, 1, 3, 2, 0, 3, 2, 2, 0, 1, 2, 3, 1, 0, 3, 0, 1)
   True          61          0  (0, 3, 2, 3, 2, 2, 3, 1, 2, 0, 3, 0, 1, 3, 0, 2, 3, 0, 3, 1)
   True          54          0  (2, 0, 3, 0, 2, 1, 3, 1, 2, 3, 3, 0, 3, 2, 0, 2, 1, 0, 1, 2)
   True          15          0  (2, 1, 0, 1, 2, 1, 0, 3, 1, 2, 0, 2, 0, 3, 2, 0, 3, 1, 3, 0)
   True          35          0  (3, 1, 0, 1, 0, 1, 0, 2, 1, 3, 1, 2, 3, 0, 1, 1, 2, 3, 2, 0)
   True         181          0  (2, 3, 1, 3, 1, 1, 3, 0, 1, 2, 3, 2, 0, 2, 1, 1, 3, 2, 3, 0)
   True          61          0  (1, 0, 2, 0, 2, 0, 2, 3, 0, 1, 0, 1, 3, 2, 0, 0, 2, 1, 0, 3)
   True          43          0  (3, 2, 0, 2, 0, 1, 0, 1, 3, 2, 3, 2, 0, 2, 3, 3, 1, 2, 3, 0)
   True          17          0  (0, 1, 3, 1, 3, 1, 3, 2, 1, 3, 0, 0, 3, 0, 1, 0, 2, 1, 0, 3)
   True          48          0  (2, 0, 3, 0, 2, 3, 0, 1, 3, 2, 3, 1, 0, 2, 3, 3, 1, 0, 3, 2)
   True          23          0  (2, 1, 3, 1, 2, 1, 3, 0, 1, 2, 3, 2, 3, 0, 1, 3, 0, 1, 3, 2)
   True          15          0  (0, 2, 1, 2, 0, 3, 2, 3, 1, 0, 1, 0, 2, 0, 1, 1, 3, 2, 3, 0)
   True          31          0  (1, 2, 3, 2, 1, 2, 3, 0, 2, 3, 2, 1, 3, 1, 0, 2, 1, 3, 0, 2)
   True          15          0  (0, 2, 3, 2, 3, 3, 2, 1, 0, 3, 2, 1, 2, 1, 3, 2, 1, 0, 1, 2)
   True          31          0  (1, 2, 0, 2, 1, 0, 2, 3, 1, 0, 0, 3, 2, 3, 1, 1, 3, 2, 3, 0)
   True          65          0  (3, 1, 0, 1, 0, 1, 0, 2, 1, 0, 3, 3, 0, 3, 1, 3, 2, 1, 2, 3)
   True          20          0  (1, 2, 0, 2, 0, 0, 2, 3, 0, 2, 1, 1, 3, 1, 2, 0, 1, 2, 3, 0)
   True           4          0  (2, 0, 1, 0, 2, 0, 1, 3, 0, 1, 0, 3, 2, 3, 1, 2, 3, 1, 3, 2)
   True          33          0  (3, 2, 0, 2, 3, 1, 0, 1, 3, 2, 0, 2, 0, 3, 2, 0, 1, 2, 0, 3)
   True         124          0  (2, 0, 1, 0, 1, 0, 1, 3, 2, 0, 2, 3, 1, 2, 0, 2, 3, 0, 3, 2)
   True          70          0  (0, 1, 3, 1, 3, 1, 3, 2, 1, 0, 1, 2, 0, 3, 2, 1, 3, 0, 2, 1)
   True          17          0  (1, 0, 2, 0, 1, 2, 0, 3, 1, 2, 0, 3, 0, 1, 2, 0, 3, 2, 3, 1)
   True          12          0  (3, 1, 0, 1, 0, 1, 0, 2, 3, 1, 3, 2, 0, 2, 1, 3, 2, 1, 2, 3)
   True           9          0  (2, 3, 1, 3, 1, 0, 3, 0, 1, 3, 3, 2, 3, 1, 2, 1, 0, 2, 0, 1)
   True          34          0  (3, 2, 1, 2, 1, 2, 1, 0, 2, 3, 3, 0, 1, 3, 2, 1, 0, 2, 0, 3)
   True         342          0  (0, 3, 2, 3, 0, 3, 2, 1, 3, 2, 2, 1, 0, 2, 3, 0, 1, 3, 2, 0)
   True          97          0  (3, 0, 2, 0, 2, 1, 0, 1, 3, 0, 3, 2, 0, 2, 3, 3, 1, 0, 1, 2)
   True          14          0  (0, 3, 2, 3, 0, 3, 2, 1, 3, 2, 3, 1, 0, 1, 2, 3, 1, 2, 1, 0)
   True          21          0  (1, 2, 3, 2, 3, 3, 2, 0, 3, 1, 2, 1, 0, 2, 3, 3, 2, 1, 2, 0)
   True         369          0  (2, 3, 0, 3, 2, 3, 0, 1, 3, 2, 0, 2, 0, 2, 3, 0, 1, 3, 1, 2)
   True         274          0  (3, 1, 2, 1, 3, 2, 1, 0, 3, 2, 1, 0, 1, 3, 2, 3, 0, 2, 1, 3)
   True          34          0  (2, 0, 3, 0, 2, 0, 3, 1, 0, 2, 0, 1, 2, 3, 0, 0, 1, 3, 1, 2)
   True          54          0  (2, 3, 0, 3, 2, 3, 0, 1, 3, 2, 0, 1, 2, 1, 0, 0, 1, 3, 0, 2)
   True          10          0  (3, 2, 1, 2, 1, 0, 1, 0, 2, 1, 3, 3, 1, 3, 2, 3, 0, 2, 0, 3)
   True          38          0  (2, 3, 1, 3, 1, 1, 3, 0, 1, 2, 3, 0, 2, 3, 1, 1, 0, 2, 0, 3)
   True          14          0  (3, 0, 2, 0, 2, 2, 0, 1, 2, 3, 0, 3, 0, 1, 3, 0, 1, 3, 0, 2)
   True          16          0  (0, 3, 1, 3, 1, 1, 3, 2, 1, 0, 3, 0, 2, 3, 0, 1, 3, 0, 3, 1)
   True         106          0  (1, 0, 2, 0, 2, 2, 0, 3, 2, 1, 0, 1, 3, 0, 1, 2, 0, 1, 0, 3)
   True          98          0  (2, 0, 3, 0, 3, 0, 3, 1, 0, 2, 0, 1, 2, 3, 1, 0, 3, 2, 1, 0)
   True           8          0  (0, 1, 2, 1, 0, 3, 2, 3, 1, 0, 1, 0, 2, 0, 1, 1, 3, 2, 3, 0)
   True          24          0  (3, 2, 1, 2, 1, 0, 1, 0, 2, 1, 2, 3, 1, 2, 3, 2, 0, 3, 2, 1)
   True         540          0  (0, 3, 1, 3, 1, 3, 1, 2, 0, 3, 0, 2, 1, 0, 3, 0, 2, 3, 2, 0)
   True          27          0  (3, 2, 1, 2, 1, 2, 1, 0, 2, 3, 2, 3, 1, 0, 3, 1, 0, 3, 2, 1)
   True          84          0  (1, 2, 0, 2, 1, 0, 2, 3, 1, 0, 2, 3, 2, 1, 0, 1, 3, 0, 3, 1)
   True          15          0  (1, 3, 0, 3, 0, 3, 0, 2, 3, 1, 3, 2, 0, 2, 1, 3, 2, 1, 2, 3)
   True          42          0  (1, 2, 0, 2, 0, 2, 0, 3, 2, 1, 1, 1, 0, 3, 2, 0, 3, 2, 1, 0)
   True          68          0  (2, 1, 3, 1, 3, 3, 1, 0, 3, 1, 2, 0, 2, 1, 3, 2, 0, 1, 0, 2)
   True          67          0  (2, 0, 1, 0, 1, 0, 1, 3, 0, 2, 0, 3, 2, 3, 0, 0, 1, 2, 0, 3)
   True           7          0  (1, 3, 2, 3, 2, 0, 3, 0, 1, 3, 1, 2, 3, 2, 1, 2, 0, 3, 0, 2)
   True          14          0  (1, 2, 3, 2, 3, 3, 2, 0, 1, 2, 2, 0, 2, 0, 1, 3, 0, 1, 2, 3)
   True          16          0  (2, 0, 1, 0, 2, 3, 0, 3, 2, 1, 0, 1, 0, 1, 2, 0, 3, 1, 3, 0)
   True           9          0  (1, 3, 2, 3, 1, 0, 3, 0, 1, 3, 3, 2, 3, 1, 2, 1, 0, 2, 3, 1)
   True          21          0  (3, 2, 1, 2, 3, 2, 1, 0, 2, 3, 1, 0, 3, 1, 2, 1, 0, 2, 0, 3)
   True          49          0  (1, 0, 2, 0, 1, 0, 2, 3, 1, 2, 0, 3, 2, 3, 1, 1, 0, 2, 0, 3)
   True          20          0  (3, 1, 2, 1, 2, 1, 2, 0, 1, 3, 1, 3, 0, 3, 1, 1, 2, 3, 1, 0)
   True          15          0  (0, 2, 1, 2, 1, 3, 2, 3, 0, 1, 2, 1, 2, 0, 1, 2, 3, 0, 3, 2)
   True          30          0  (2, 0, 1, 0, 1, 0, 1, 3, 2, 0, 2, 3, 1, 3, 0, 2, 3, 0, 2, 1)
   True         685          0  (0, 2, 3, 2, 3, 3, 2, 1, 3, 2, 0, 0, 1, 0, 2, 3, 0, 2, 0, 1)
   True          11          0  (0, 3, 2, 3, 0, 1, 3, 1, 0, 2, 3, 2, 3, 0, 2, 0, 1, 2, 3, 0)
   True          19          0  (3, 1, 0, 1, 0, 0, 1, 2, 0, 1, 3, 3, 1, 2, 0, 0, 2, 1, 2, 3)
   True          52          0  (3, 2, 0, 2, 3, 2, 0, 1, 2, 3, 0, 3, 0, 1, 2, 0, 1, 2, 1, 0)
   True          14          0  (1, 3, 0, 3, 1, 3, 0, 2, 3, 1, 0, 1, 0, 1, 3, 0, 2, 3, 2, 1)
   True           9          0  (3, 2, 1, 2, 3, 1, 2, 0, 1, 2, 1, 3, 0, 2, 1, 1, 3, 2, 1, 0)
   True          17          0  (2, 0, 3, 0, 3, 1, 0, 1, 2, 0, 0, 3, 0, 3, 2, 3, 1, 2, 1, 0)
   True         103          0  (2, 1, 0, 1, 0, 1, 0, 3, 1, 0, 2, 2, 0, 2, 1, 2, 3, 1, 3, 0)
   True          22          0  (2, 1, 0, 1, 0, 3, 0, 3, 2, 0, 1, 1, 0, 2, 1, 1, 3, 2, 1, 0)
   True         563          0  (3, 2, 0, 2, 3, 0, 2, 1, 0, 2, 0, 3, 1, 3, 2, 0, 3, 2, 0, 1)
   True          35          0  (3, 0, 2, 0, 3, 2, 0, 1, 2, 3, 0, 1, 3, 0, 2, 0, 1, 2, 1, 0)
   True          14          0  (1, 3, 2, 3, 1, 0, 2, 0, 3, 2, 3, 1, 2, 3, 1, 1, 0, 2, 0, 3)
   True          35          0  (1, 3, 0, 3, 0, 2, 0, 2, 3, 1, 3, 1, 0, 1, 3, 0, 2, 1, 2, 0)
   True          14          0  (3, 2, 0, 2, 0, 2, 0, 1, 2, 0, 2, 1, 0, 1, 3, 2, 1, 3, 1, 2)
   True          74          0  (2, 0, 3, 0, 2, 0, 3, 1, 0, 2, 3, 1, 3, 1, 2, 3, 1, 0, 1, 3)
   True          75          0  (0, 2, 3, 2, 0, 1, 2, 1, 0, 2, 3, 3, 2, 3, 0, 0, 3, 2, 3, 1)
   True          59          0  (0, 1, 2, 1, 2, 1, 2, 3, 1, 0, 1, 3, 0, 2, 1, 1, 2, 0, 1, 3)
   True          98          0  (2, 0, 1, 0, 2, 1, 0, 3, 1, 2, 1, 3, 2, 0, 1, 1, 3, 0, 1, 2)
   True          19          0  (2, 0, 1, 0, 2, 1, 0, 3, 1, 2, 0, 3, 2, 0, 1, 0, 3, 1, 3, 2)
   True          44          0  (1, 2, 3, 2, 3, 0, 3, 0, 1, 2, 2, 2, 3, 2, 1, 3, 0, 1, 0, 3)
   True         284          0  (0, 3, 1, 3, 0, 3, 1, 2, 0, 3, 1, 2, 1, 2, 3, 1, 2, 3, 1, 0)
   True          36          0  (0, 2, 1, 2, 0, 2, 1, 3, 0, 1, 2, 3, 1, 0, 3, 0, 2, 1, 2, 0)
   True          45          0  (0, 1, 3, 1, 3, 3, 1, 2, 3, 0, 1, 2, 0, 1, 3, 3, 1, 0, 1, 2)
   True           7          0  (0, 3, 1, 3, 1, 2, 3, 2, 0, 3, 3, 1, 3, 1, 0, 1, 2, 0, 3, 1)
   True          10          0  (3, 0, 1, 0, 3, 1, 0, 2, 1, 0, 0, 3, 0, 2, 3, 3, 2, 1, 2, 0)
   True          28          0  (3, 1, 0, 1, 0, 1, 0, 2, 1, 3, 3, 2, 0, 2, 1, 0, 2, 1, 3, 0)
   True          14          0  (0, 2, 1, 2, 0, 2, 1, 3, 0, 1, 2, 3, 1, 3, 2, 2, 3, 1, 2, 0)
   True          39          0  (0, 3, 1, 3, 1, 3, 1, 2, 3, 0, 3, 0, 2, 1, 0, 3, 1, 0, 2, 3)
   True          20          0  (0, 2, 3, 2, 0, 3, 2, 1, 3, 2, 3, 0, 2, 0, 3, 0, 1, 2, 1, 0)
   True          69          0  (2, 0, 1, 0, 2, 1, 0, 3, 2, 1, 0, 3, 0, 3, 1, 2, 3, 1, 3, 2)
   True          34          0  (1, 2, 3, 2, 3, 0, 2, 0, 1, 2, 2, 3, 2, 3, 1, 3, 0, 1, 2, 3)
   True          19          0  (0, 3, 2, 3, 2, 2, 3, 1, 0, 3, 0, 1, 3, 0, 1, 0, 2, 3, 1, 0)
   True          26          0  (0, 1, 2, 1, 2, 2, 1, 3, 2, 0, 1, 3, 0, 1, 2, 2, 1, 0, 1, 3)
   True          14          0  (3, 2, 1, 2, 3, 0, 2, 0, 3, 1, 2, 1, 2, 3, 1, 2, 0, 1, 2, 3)
   True          62          0  (0, 2, 1, 2, 1, 1, 2, 3, 1, 0, 2, 3, 2, 3, 1, 1, 3, 0, 3, 2)
   True          53          0  (2, 1, 0, 1, 0, 3, 1, 3, 2, 0, 1, 0, 1, 0, 2, 1, 3, 2, 3, 1)
   True          35          0  (1, 0, 2, 0, 1, 2, 0, 3, 2, 1, 2, 1, 0, 3, 2, 2, 3, 0, 2, 1)
   True          64          0  (1, 0, 3, 0, 3, 3, 0, 2, 3, 1, 0, 2, 1, 0, 3, 3, 0, 1, 0, 2)
   True          37          0  (1, 0, 3, 0, 1, 0, 3, 2, 1, 3, 0, 2, 3, 2, 1, 1, 2, 3, 2, 0)
   True          33          0  (3, 0, 2, 0, 2, 2, 0, 1, 2, 3, 0, 3, 1, 0, 3, 2, 0, 3, 0, 2)
   True           6          0  (3, 1, 0, 1, 3, 2, 1, 2, 3, 1, 0, 0, 1, 0, 3, 3, 2, 1, 2, 0)
