Test Parameters:
	filename: graph60.txt
	numRuns: 20
	colors: 4
	max generations: 12000
	population size: 25
	mutation chance: 0.8
	tournament size: 5
	tournament chance: 0.5

Summary:
20 tests were run. 100.0% of them succeeded.
Of the successes, the average number iterations was 1634.45 (min 128, max 4124).
Of the failures, the average conflicts in the best result was 0.00 (min 999999999, max 0)

All results:
Success  Iterations  Conflicts  Color Sequence
   True         675          0  (3, 1, 0, 1, 3, 3, 1, 2, 0, 0, 0, 1, 0, 1, 3, 3, 1, 2, 2, 1, 0, 0, 2, 2, 3, 3, 3, 2, 2, 1, 2, 1, 3, 1, 0, 2, 3, 0, 1, 3, 0, 1, 1, 0, 2, 2, 2, 3, 3, 0, 0, 2, 3, 3, 3, 1, 1, 0, 1, 3)
   True        2701          0  (0, 3, 2, 1, 1, 2, 1, 0, 3, 3, 3, 3, 3, 1, 0, 3, 1, 0, 2, 1, 3, 0, 2, 0, 2, 2, 2, 3, 1, 1, 0, 1, 0, 0, 2, 0, 3, 1, 0, 3, 1, 3, 2, 0, 0, 1, 1, 1, 2, 0, 2, 0, 1, 3, 2, 3, 1, 0, 3, 2)
   True        1608          0  (3, 0, 2, 0, 1, 1, 0, 3, 0, 0, 1, 0, 1, 3, 3, 3, 0, 1, 2, 2, 0, 3, 1, 1, 2, 3, 3, 1, 1, 0, 1, 2, 3, 2, 0, 1, 3, 1, 2, 3, 0, 2, 2, 1, 3, 0, 0, 1, 3, 2, 0, 2, 1, 1, 1, 3, 0, 2, 3, 1)
   True        1300          0  (1, 0, 3, 3, 2, 1, 2, 3, 2, 3, 0, 1, 1, 0, 2, 1, 3, 0, 0, 0, 1, 1, 0, 1, 2, 2, 2, 1, 0, 3, 0, 3, 2, 3, 0, 2, 1, 3, 2, 1, 3, 1, 2, 2, 1, 0, 0, 3, 3, 1, 3, 1, 0, 0, 3, 2, 2, 1, 2, 3)
   True        1101          0  (1, 0, 2, 0, 3, 2, 3, 1, 3, 3, 2, 0, 1, 0, 3, 0, 0, 1, 2, 0, 3, 1, 2, 1, 2, 2, 2, 1, 0, 3, 1, 3, 0, 3, 0, 1, 2, 3, 1, 0, 3, 1, 2, 3, 1, 2, 2, 2, 1, 0, 2, 3, 0, 0, 0, 3, 2, 1, 1, 0)
   True        1356          0  (2, 3, 1, 3, 0, 0, 3, 1, 2, 3, 1, 2, 1, 1, 2, 2, 3, 0, 0, 3, 2, 2, 0, 0, 3, 1, 1, 0, 0, 1, 0, 2, 3, 2, 3, 0, 1, 2, 3, 3, 2, 0, 0, 3, 3, 1, 2, 1, 0, 3, 2, 3, 0, 1, 2, 0, 0, 3, 1, 2)
   True         661          0  (2, 0, 3, 3, 1, 2, 0, 3, 0, 0, 0, 2, 0, 3, 2, 2, 3, 1, 1, 1, 2, 2, 1, 2, 0, 3, 3, 0, 1, 3, 1, 2, 2, 2, 1, 3, 0, 3, 3, 0, 1, 1, 2, 0, 1, 2, 3, 1, 1, 0, 2, 1, 0, 0, 0, 2, 2, 3, 3, 0)
   True        2224          0  (3, 0, 1, 0, 2, 3, 0, 1, 0, 0, 1, 0, 1, 1, 2, 1, 0, 2, 3, 2, 0, 1, 2, 3, 3, 1, 1, 3, 2, 0, 2, 0, 0, 0, 2, 3, 1, 2, 0, 1, 2, 3, 0, 1, 3, 2, 2, 1, 0, 3, 3, 2, 1, 1, 1, 0, 0, 3, 0, 1)
   True         929          0  (0, 2, 1, 3, 3, 0, 2, 1, 2, 3, 1, 0, 2, 1, 0, 1, 2, 3, 3, 3, 0, 1, 3, 0, 2, 1, 2, 0, 0, 0, 3, 1, 0, 3, 2, 3, 1, 1, 3, 2, 0, 3, 3, 0, 0, 1, 1, 2, 2, 0, 1, 0, 2, 2, 2, 3, 3, 0, 3, 1)
   True        3477          0  (2, 1, 3, 3, 2, 2, 0, 0, 1, 1, 1, 1, 0, 3, 2, 1, 0, 2, 1, 3, 2, 2, 3, 0, 3, 2, 0, 1, 3, 0, 1, 2, 3, 0, 3, 1, 2, 0, 1, 3, 0, 1, 1, 3, 2, 0, 2, 0, 1, 3, 0, 2, 3, 3, 3, 1, 1, 2, 1, 0)
   True        2669          0  (1, 2, 0, 3, 1, 3, 3, 0, 1, 1, 0, 3, 0, 2, 2, 0, 3, 1, 1, 2, 3, 0, 2, 0, 2, 3, 0, 1, 2, 3, 1, 3, 3, 0, 2, 1, 3, 0, 1, 2, 0, 2, 1, 3, 2, 1, 1, 1, 2, 0, 0, 2, 3, 3, 3, 3, 1, 2, 1, 0)
   True        1961          0  (3, 0, 2, 2, 3, 2, 1, 1, 3, 0, 0, 0, 1, 1, 3, 2, 1, 3, 0, 0, 3, 3, 0, 2, 2, 3, 2, 1, 1, 1, 0, 3, 2, 0, 2, 0, 3, 3, 2, 2, 1, 1, 0, 0, 1, 2, 3, 3, 1, 0, 0, 1, 2, 3, 3, 2, 2, 1, 3, 0)
   True         410          0  (2, 3, 0, 1, 2, 2, 3, 1, 3, 0, 0, 3, 2, 1, 3, 1, 1, 2, 0, 0, 3, 2, 0, 2, 0, 3, 1, 2, 2, 3, 2, 0, 1, 0, 3, 2, 1, 3, 0, 1, 3, 2, 0, 0, 2, 3, 3, 1, 1, 0, 3, 2, 1, 1, 1, 2, 3, 0, 0, 1)
   True         183          0  (2, 1, 3, 0, 0, 3, 1, 2, 1, 1, 3, 1, 3, 0, 2, 3, 1, 2, 0, 3, 1, 2, 0, 2, 0, 0, 2, 1, 2, 1, 3, 0, 1, 3, 2, 1, 0, 3, 1, 2, 3, 2, 0, 1, 1, 0, 0, 0, 2, 3, 3, 1, 2, 2, 3, 2, 0, 1, 0, 3)
   True         792          0  (1, 2, 0, 0, 1, 3, 2, 0, 2, 2, 2, 2, 2, 0, 1, 0, 0, 3, 3, 1, 2, 1, 3, 3, 1, 0, 0, 2, 3, 2, 3, 1, 1, 1, 3, 2, 0, 2, 2, 0, 1, 0, 3, 1, 1, 3, 3, 1, 2, 0, 1, 2, 3, 0, 2, 2, 3, 0, 0, 1)
   True        3682          0  (0, 2, 1, 2, 3, 0, 3, 1, 3, 3, 3, 0, 1, 1, 0, 0, 1, 2, 2, 0, 2, 3, 2, 2, 3, 1, 1, 3, 0, 1, 0, 2, 0, 2, 0, 1, 3, 1, 2, 3, 0, 2, 2, 1, 3, 3, 3, 3, 0, 1, 3, 0, 1, 1, 0, 0, 2, 1, 2, 3)
   True        1757          0  (3, 2, 1, 2, 3, 0, 2, 1, 3, 3, 1, 2, 0, 1, 3, 0, 2, 3, 1, 0, 3, 0, 1, 2, 0, 1, 2, 3, 2, 2, 1, 0, 3, 0, 2, 1, 3, 2, 1, 3, 2, 0, 1, 1, 0, 2, 2, 0, 3, 1, 0, 1, 2, 3, 3, 3, 2, 1, 3, 0)
   True         128          0  (3, 2, 0, 2, 1, 3, 2, 0, 1, 1, 1, 2, 0, 2, 3, 3, 0, 1, 1, 3, 2, 2, 1, 0, 3, 2, 0, 1, 3, 0, 1, 2, 3, 0, 3, 1, 2, 2, 1, 3, 0, 0, 1, 1, 0, 3, 2, 0, 0, 1, 0, 1, 3, 2, 1, 3, 3, 2, 2, 0)
   True        4124          0  (1, 0, 3, 2, 2, 2, 2, 3, 1, 1, 0, 1, 3, 0, 1, 3, 3, 0, 0, 0, 1, 2, 0, 3, 2, 2, 3, 1, 3, 1, 0, 2, 2, 0, 3, 0, 2, 1, 0, 3, 1, 3, 0, 2, 3, 1, 1, 1, 3, 2, 1, 0, 3, 2, 0, 0, 1, 2, 2, 3)
   True         951          0  (0, 2, 3, 1, 0, 0, 1, 3, 1, 1, 2, 1, 0, 3, 3, 3, 1, 0, 2, 2, 1, 0, 2, 0, 2, 3, 3, 0, 0, 1, 0, 1, 1, 1, 3, 0, 2, 0, 3, 3, 1, 3, 2, 1, 1, 0, 2, 0, 3, 1, 2, 1, 0, 0, 2, 3, 3, 1, 3, 0)
