Test Parameters:
	filename: graph70.txt
	numRuns: 10
	colors: 4
	max generations: 14000
	population size: 25
	mutation chance: 0.8
	tournament size: 20
	tournament chance: 0.5

Summary:
10 tests were run. 60.0% of them succeeded.
Of the successes, the average number iterations was 2528.50 (min 641, max 4796).
Of the failures, the average conflicts in the best result was 1.25 (min 1, max 2)

All results:
Success  Iterations  Conflicts  Color Sequence
   True         942          0  (2, 1, 2, 0, 3, 3, 0, 1, 3, 1, 2, 1, 2, 1, 3, 3, 0, 0, 1, 2, 0, 0, 2, 3, 1, 3, 1, 0, 0, 2, 3, 0, 1, 2, 2, 2, 1, 3, 1, 0, 3, 2, 2, 3, 2, 0, 3, 1, 0, 0, 3, 2, 1, 0, 3, 2, 0, 3, 0, 1, 3, 1, 1, 0, 0, 3, 2, 0, 1, 2)
   True        1252          0  (0, 3, 2, 1, 3, 1, 1, 0, 2, 0, 2, 3, 2, 3, 0, 1, 1, 0, 0, 2, 0, 2, 2, 0, 3, 2, 1, 0, 1, 1, 1, 0, 3, 2, 2, 2, 3, 1, 0, 0, 3, 2, 2, 3, 2, 0, 3, 1, 0, 2, 1, 0, 1, 0, 3, 3, 1, 2, 2, 1, 0, 3, 1, 3, 0, 2, 0, 1, 2, 3)
   True         641          0  (0, 1, 3, 1, 2, 2, 3, 0, 2, 0, 2, 1, 1, 3, 1, 2, 3, 0, 0, 2, 1, 1, 0, 1, 3, 1, 3, 2, 0, 3, 2, 0, 2, 2, 1, 1, 3, 0, 1, 1, 0, 3, 1, 0, 3, 2, 0, 2, 0, 1, 2, 0, 3, 2, 2, 3, 1, 1, 1, 3, 0, 2, 3, 1, 1, 2, 0, 3, 2, 0)
  False       13999          2  (3, 2, 0, 2, 1, 1, 2, 3, 0, 3, 0, 2, 0, 1, 2, 0, 1, 3, 2, 3, 2, 3, 3, 2, 1, 3, 1, 0, 0, 0, 0, 3, 1, 3, 2, 1, 3, 2, 1, 2, 0, 3, 3, 2, 0, 1, 3, 1, 2, 0, 0, 2, 1, 1, 3, 1, 0, 0, 0, 1, 3, 1, 2, 0, 2, 1, 3, 0, 2, 3)
  False       13999          1  (0, 3, 0, 1, 3, 1, 0, 2, 3, 2, 0, 3, 1, 2, 1, 1, 3, 2, 2, 0, 3, 1, 0, 1, 3, 1, 2, 1, 3, 0, 1, 0, 2, 0, 2, 3, 0, 3, 1, 1, 2, 0, 2, 3, 2, 1, 3, 1, 2, 2, 0, 0, 1, 1, 3, 1, 0, 3, 2, 0, 3, 1, 0, 1, 2, 3, 2, 0, 2, 1)
   True        3747          0  (3, 2, 3, 2, 1, 1, 0, 3, 1, 3, 1, 2, 2, 0, 2, 1, 0, 0, 3, 1, 2, 2, 0, 2, 3, 1, 3, 2, 1, 0, 2, 0, 3, 0, 1, 1, 0, 1, 2, 1, 2, 0, 0, 1, 0, 2, 2, 3, 3, 0, 2, 1, 3, 2, 0, 1, 2, 1, 2, 3, 0, 2, 3, 1, 1, 2, 0, 1, 3, 0)
  False       13999          1  (1, 3, 2, 2, 3, 1, 2, 0, 0, 0, 1, 3, 1, 3, 2, 2, 3, 0, 0, 0, 1, 2, 0, 2, 3, 2, 3, 1, 3, 1, 2, 1, 0, 1, 0, 1, 3, 2, 2, 3, 0, 1, 3, 0, 1, 1, 0, 2, 0, 1, 3, 0, 2, 1, 1, 1, 0, 2, 3, 2, 2, 1, 0, 1, 3, 2, 3, 0, 3, 1)
   True        4796          0  (3, 2, 0, 0, 1, 3, 3, 2, 2, 2, 3, 2, 0, 1, 2, 0, 1, 1, 2, 0, 3, 0, 1, 3, 2, 0, 2, 0, 1, 3, 0, 3, 2, 0, 1, 2, 3, 2, 2, 1, 2, 0, 3, 1, 2, 2, 0, 3, 1, 2, 0, 1, 3, 1, 0, 3, 2, 2, 2, 3, 1, 0, 0, 3, 2, 2, 1, 3, 0, 1)
   True        3793          0  (3, 0, 1, 1, 2, 3, 3, 0, 2, 0, 3, 0, 1, 0, 1, 1, 2, 2, 3, 3, 2, 0, 3, 1, 0, 0, 0, 2, 0, 1, 1, 2, 3, 2, 3, 3, 0, 3, 3, 0, 1, 2, 0, 1, 1, 3, 2, 3, 2, 1, 0, 2, 0, 1, 1, 1, 2, 3, 0, 2, 0, 1, 2, 1, 3, 3, 0, 2, 3, 1)
  False       13999          1  (1, 3, 2, 2, 0, 0, 1, 3, 3, 3, 1, 3, 2, 0, 2, 2, 0, 1, 3, 3, 1, 1, 3, 1, 0, 1, 0, 1, 2, 2, 2, 1, 3, 3, 3, 3, 0, 2, 1, 1, 2, 0, 0, 2, 2, 1, 0, 3, 1, 1, 2, 2, 3, 1, 1, 3, 0, 2, 0, 2, 1, 0, 3, 2, 3, 0, 1, 3, 2, 1)
