Test Parameters:
	filename: graph20.txt
	numRuns: 300
	colors: 4
	max generations: 4000
	population size: 20
	mutation chance: 0.8
	tournament size: 10
	tournament chance: 0.8

Summary:
300 tests were run. 100.0% of them succeeded.
Of the successes, the average number iterations was 62.78 (min 6, max 676).
Of the failures, the average conflicts in the best result was 0.00 (min 999999999, max 0)

All results:
Success  Iterations  Conflicts  Color Sequence
   True          24          0  (1, 2, 0, 2, 0, 3, 0, 3, 1, 0, 1, 2, 0, 1, 2, 1, 3, 2, 1, 0)
   True          31          0  (3, 2, 1, 2, 3, 0, 2, 0, 3, 2, 1, 1, 2, 1, 0, 3, 1, 2, 1, 3)
   True          17          0  (2, 3, 1, 3, 1, 3, 1, 0, 3, 2, 3, 0, 2, 1, 0, 3, 1, 2, 0, 3)
   True          20          0  (0, 2, 1, 2, 0, 2, 1, 3, 0, 2, 1, 3, 1, 0, 2, 0, 3, 2, 3, 1)
   True          19          0  (1, 0, 3, 0, 3, 3, 0, 2, 3, 0, 1, 2, 0, 1, 2, 3, 1, 0, 1, 3)
   True         101          0  (3, 1, 0, 1, 3, 0, 1, 2, 0, 1, 0, 3, 2, 3, 0, 0, 3, 1, 0, 2)
   True          56          0  (2, 3, 0, 3, 0, 0, 3, 1, 0, 3, 2, 2, 1, 2, 0, 0, 2, 3, 2, 1)
   True         296          0  (3, 2, 0, 2, 0, 0, 2, 1, 0, 3, 2, 1, 3, 2, 1, 0, 2, 3, 1, 0)
   True          33          0  (3, 0, 2, 0, 3, 0, 2, 1, 0, 2, 0, 3, 2, 3, 0, 0, 3, 2, 0, 1)
   True         102          0  (3, 2, 1, 2, 1, 2, 1, 0, 2, 1, 3, 3, 1, 3, 2, 3, 0, 2, 0, 1)
   True         156          0  (2, 0, 3, 0, 2, 1, 0, 1, 3, 2, 0, 2, 0, 3, 2, 0, 1, 3, 1, 0)
   True          70          0  (2, 3, 0, 3, 2, 3, 0, 1, 3, 2, 3, 1, 0, 1, 2, 3, 1, 0, 1, 3)
   True         178          0  (3, 0, 1, 0, 1, 1, 0, 2, 1, 3, 0, 3, 2, 0, 1, 1, 0, 3, 0, 2)
   True          43          0  (3, 2, 0, 2, 0, 0, 2, 1, 0, 3, 2, 3, 1, 2, 3, 0, 2, 3, 1, 0)
   True         125          0  (1, 3, 2, 3, 1, 0, 3, 0, 1, 2, 3, 2, 3, 1, 2, 1, 0, 2, 0, 1)
   True          11          0  (0, 1, 2, 1, 0, 2, 1, 3, 2, 1, 1, 3, 0, 3, 2, 0, 3, 2, 1, 0)
   True          47          0  (0, 2, 1, 2, 0, 2, 1, 3, 2, 1, 2, 3, 0, 1, 2, 2, 3, 1, 2, 0)
   True          39          0  (0, 3, 2, 3, 2, 1, 2, 1, 0, 3, 0, 3, 2, 0, 3, 0, 1, 3, 1, 2)
   True         119          0  (1, 3, 0, 3, 0, 0, 3, 2, 0, 1, 3, 1, 2, 3, 0, 0, 3, 1, 3, 2)
   True          23          0  (3, 0, 2, 0, 2, 2, 0, 1, 2, 0, 3, 1, 3, 0, 2, 3, 1, 0, 1, 3)
   True          35          0  (1, 0, 3, 0, 1, 0, 3, 2, 0, 1, 3, 2, 1, 3, 0, 3, 2, 0, 3, 1)
   True          29          0  (2, 0, 1, 0, 2, 0, 1, 3, 0, 1, 0, 2, 1, 3, 0, 0, 3, 1, 3, 2)
   True          20          0  (1, 2, 3, 2, 1, 0, 3, 0, 1, 2, 3, 2, 3, 1, 2, 3, 0, 2, 3, 1)
   True          68          0  (1, 2, 3, 2, 1, 3, 2, 0, 3, 2, 2, 0, 1, 2, 3, 1, 0, 3, 2, 1)
   True         142          0  (0, 2, 3, 2, 3, 1, 3, 1, 2, 0, 0, 0, 3, 2, 0, 3, 1, 2, 1, 3)
   True         176          0  (3, 1, 0, 1, 3, 2, 0, 2, 3, 1, 0, 1, 0, 3, 1, 3, 2, 1, 2, 3)
   True          15          0  (0, 2, 1, 2, 0, 1, 2, 3, 0, 1, 1, 3, 2, 0, 1, 0, 3, 2, 1, 0)
   True          34          0  (2, 1, 3, 1, 3, 3, 1, 0, 3, 2, 1, 2, 1, 0, 3, 1, 0, 2, 0, 1)
   True          74          0  (0, 3, 1, 3, 1, 1, 3, 2, 0, 3, 0, 2, 3, 0, 2, 0, 1, 3, 2, 0)
   True           8          0  (3, 1, 2, 1, 3, 1, 2, 0, 1, 2, 1, 3, 2, 3, 1, 1, 0, 2, 1, 3)
   True          10          0  (1, 3, 0, 3, 1, 2, 0, 2, 3, 1, 3, 1, 0, 3, 1, 3, 2, 0, 2, 3)
   True          18          0  (3, 2, 0, 2, 3, 1, 2, 1, 3, 2, 0, 0, 2, 3, 1, 3, 0, 2, 1, 3)
   True          44          0  (3, 0, 2, 0, 2, 1, 2, 1, 3, 0, 3, 0, 2, 3, 0, 2, 1, 0, 3, 2)
   True          35          0  (1, 0, 2, 0, 1, 0, 2, 3, 1, 2, 0, 3, 2, 1, 3, 1, 0, 2, 3, 1)
   True          12          0  (0, 2, 3, 2, 3, 2, 3, 1, 2, 0, 0, 1, 0, 3, 2, 3, 1, 2, 1, 0)
   True          26          0  (0, 2, 3, 2, 0, 2, 3, 1, 2, 3, 2, 0, 3, 0, 2, 2, 1, 3, 2, 0)
   True          78          0  (3, 1, 0, 1, 0, 0, 1, 2, 0, 3, 1, 3, 2, 3, 0, 0, 1, 3, 1, 2)
   True          23          0  (0, 2, 3, 2, 0, 1, 2, 1, 3, 2, 3, 0, 2, 3, 0, 0, 1, 2, 1, 3)
   True         171          0  (0, 3, 2, 3, 0, 3, 2, 1, 3, 0, 2, 0, 2, 1, 3, 2, 1, 3, 2, 0)
   True          14          0  (0, 1, 2, 1, 2, 3, 2, 3, 0, 2, 1, 1, 2, 0, 1, 1, 3, 0, 3, 2)
   True          10          0  (1, 0, 2, 0, 1, 2, 0, 3, 1, 2, 0, 3, 0, 1, 2, 0, 3, 2, 3, 0)
   True          19          0  (3, 1, 0, 1, 0, 0, 1, 2, 0, 3, 1, 3, 1, 2, 0, 1, 2, 3, 2, 1)
   True          50          0  (1, 0, 2, 0, 1, 0, 2, 3, 0, 2, 2, 1, 2, 1, 0, 1, 3, 0, 3, 2)
   True          82          0  (3, 1, 2, 1, 2, 1, 2, 0, 1, 2, 1, 0, 3, 0, 1, 1, 0, 3, 0, 2)
   True          55          0  (2, 0, 3, 0, 3, 3, 0, 1, 3, 2, 2, 1, 2, 0, 3, 3, 1, 0, 1, 2)
   True          14          0  (3, 2, 0, 2, 3, 0, 2, 1, 0, 2, 0, 1, 3, 2, 0, 0, 1, 2, 1, 3)
   True           6          0  (0, 1, 3, 1, 3, 2, 1, 2, 3, 0, 1, 0, 1, 3, 0, 3, 2, 0, 2, 1)
   True          12          0  (3, 1, 2, 1, 3, 2, 1, 0, 2, 1, 2, 3, 1, 3, 2, 2, 0, 1, 0, 3)
   True          19          0  (1, 2, 0, 2, 1, 0, 2, 3, 0, 1, 0, 3, 2, 1, 0, 0, 3, 2, 0, 1)
   True           7          0  (2, 3, 0, 3, 0, 0, 3, 1, 0, 2, 3, 2, 1, 3, 0, 0, 3, 2, 3, 1)
   True          24          0  (2, 0, 1, 0, 2, 3, 0, 3, 1, 0, 1, 2, 0, 1, 2, 2, 3, 0, 3, 1)
   True          78          0  (2, 3, 0, 3, 0, 1, 3, 1, 2, 3, 2, 0, 3, 0, 2, 2, 1, 3, 2, 0)
   True         185          0  (2, 1, 3, 1, 2, 3, 1, 0, 3, 1, 1, 0, 2, 1, 3, 2, 0, 3, 0, 2)
   True          19          0  (2, 0, 3, 0, 3, 1, 3, 1, 2, 0, 0, 0, 3, 2, 0, 3, 1, 2, 1, 3)
   True          19          0  (0, 3, 2, 3, 0, 2, 3, 1, 2, 0, 3, 1, 0, 1, 2, 3, 1, 2, 1, 0)
   True          14          0  (0, 2, 1, 2, 0, 3, 1, 3, 2, 1, 2, 0, 1, 2, 0, 2, 3, 1, 3, 2)
   True          89          0  (1, 0, 2, 0, 2, 3, 2, 3, 0, 1, 0, 1, 2, 0, 1, 2, 3, 1, 3, 2)
   True          17          0  (2, 1, 3, 1, 3, 1, 3, 0, 2, 3, 1, 0, 3, 0, 2, 1, 0, 2, 1, 3)
   True         267          0  (0, 3, 1, 3, 0, 2, 1, 2, 0, 1, 3, 3, 1, 3, 0, 0, 3, 1, 3, 2)
   True          21          0  (0, 2, 3, 2, 0, 2, 3, 1, 2, 3, 2, 0, 3, 0, 1, 2, 0, 3, 1, 2)
   True          10          0  (3, 1, 0, 1, 0, 1, 0, 2, 3, 0, 3, 2, 0, 3, 1, 3, 2, 1, 2, 0)
   True          39          0  (3, 1, 2, 1, 3, 1, 2, 0, 3, 2, 1, 0, 2, 0, 3, 3, 0, 2, 0, 1)
   True          18          0  (0, 2, 3, 2, 0, 2, 3, 1, 2, 0, 2, 1, 3, 0, 2, 2, 1, 3, 1, 0)
   True          73          0  (3, 2, 1, 2, 3, 0, 1, 0, 2, 1, 2, 3, 1, 3, 0, 2, 3, 1, 0, 2)
   True         156          0  (1, 3, 0, 3, 0, 3, 0, 2, 3, 0, 1, 2, 1, 0, 3, 1, 2, 3, 2, 1)
   True          28          0  (3, 0, 2, 0, 2, 2, 0, 1, 2, 0, 3, 1, 0, 1, 2, 2, 1, 0, 1, 3)
   True          61          0  (1, 0, 2, 0, 1, 2, 0, 3, 2, 0, 0, 1, 0, 3, 2, 1, 3, 2, 3, 0)
   True          14          0  (1, 3, 2, 3, 1, 3, 2, 0, 3, 1, 3, 1, 2, 0, 3, 3, 0, 2, 0, 1)
   True           9          0  (0, 2, 3, 2, 0, 3, 2, 1, 0, 3, 2, 1, 2, 0, 3, 2, 1, 3, 2, 0)
   True          32          0  (2, 3, 1, 3, 1, 3, 1, 0, 3, 2, 3, 0, 2, 1, 3, 1, 0, 2, 0, 1)
   True           6          0  (2, 3, 0, 3, 2, 0, 3, 1, 0, 2, 3, 1, 3, 2, 0, 3, 1, 0, 1, 3)
   True          52          0  (2, 3, 0, 3, 0, 1, 0, 1, 3, 2, 3, 2, 0, 3, 2, 0, 1, 2, 1, 3)
   True          31          0  (2, 0, 1, 0, 2, 1, 0, 3, 1, 0, 0, 2, 0, 2, 1, 2, 3, 1, 0, 2)
   True          82          0  (3, 1, 2, 1, 3, 0, 1, 0, 3, 1, 2, 2, 1, 2, 3, 3, 2, 1, 2, 0)
   True          32          0  (3, 0, 2, 0, 2, 0, 2, 1, 0, 2, 3, 3, 2, 3, 0, 3, 1, 0, 3, 2)
   True          77          0  (3, 1, 0, 1, 0, 1, 0, 2, 1, 3, 1, 2, 0, 2, 3, 1, 2, 3, 1, 0)
   True          30          0  (1, 0, 2, 0, 1, 0, 2, 3, 0, 1, 0, 3, 1, 3, 2, 0, 3, 2, 3, 1)
   True          58          0  (1, 2, 0, 2, 0, 0, 2, 3, 0, 2, 1, 1, 2, 3, 1, 0, 3, 2, 3, 0)
   True          16          0  (0, 1, 3, 1, 3, 3, 1, 2, 3, 0, 1, 2, 0, 1, 3, 1, 2, 0, 2, 1)
   True          51          0  (3, 2, 0, 2, 0, 0, 2, 1, 0, 3, 2, 3, 1, 2, 3, 0, 2, 3, 2, 0)
   True          45          0  (0, 1, 3, 1, 3, 3, 1, 2, 0, 1, 0, 2, 1, 2, 0, 0, 2, 1, 0, 3)
   True          68          0  (2, 0, 1, 0, 2, 1, 0, 3, 1, 0, 0, 3, 2, 3, 0, 2, 3, 1, 0, 2)
   True          81          0  (0, 3, 2, 3, 0, 3, 2, 1, 3, 0, 2, 0, 2, 0, 3, 2, 1, 3, 2, 0)
   True          14          0  (1, 3, 0, 3, 0, 0, 3, 2, 1, 0, 1, 2, 3, 2, 1, 1, 2, 3, 2, 0)
   True          51          0  (0, 2, 3, 2, 3, 2, 3, 1, 2, 0, 0, 0, 3, 1, 2, 3, 1, 2, 1, 3)
   True          42          0  (1, 0, 3, 0, 3, 3, 0, 2, 3, 1, 0, 2, 1, 0, 2, 3, 0, 1, 0, 3)
   True          50          0  (1, 2, 3, 2, 1, 0, 2, 0, 1, 3, 2, 3, 2, 1, 3, 2, 0, 3, 2, 1)
   True          85          0  (2, 0, 1, 0, 1, 3, 1, 3, 2, 0, 2, 0, 1, 2, 0, 1, 3, 0, 2, 1)
   True          21          0  (2, 1, 0, 1, 0, 0, 1, 3, 0, 1, 2, 2, 3, 2, 0, 0, 2, 1, 2, 3)
   True          23          0  (2, 3, 0, 3, 2, 0, 3, 1, 0, 3, 0, 1, 2, 1, 0, 0, 1, 3, 1, 2)
   True          15          0  (3, 0, 2, 0, 2, 2, 0, 1, 2, 3, 0, 1, 3, 0, 1, 2, 0, 3, 0, 2)
   True         197          0  (0, 1, 3, 1, 3, 2, 3, 2, 1, 0, 1, 0, 3, 1, 0, 3, 2, 0, 1, 3)
   True          12          0  (3, 1, 2, 1, 2, 1, 2, 0, 1, 2, 1, 0, 2, 3, 1, 1, 0, 3, 0, 2)
   True          65          0  (2, 1, 3, 1, 3, 3, 1, 0, 3, 1, 2, 2, 0, 2, 3, 3, 2, 1, 2, 0)
   True          13          0  (3, 1, 0, 1, 0, 0, 1, 2, 0, 1, 1, 3, 1, 2, 0, 0, 2, 3, 2, 1)
   True          67          0  (3, 0, 2, 0, 3, 0, 2, 1, 3, 0, 0, 1, 2, 1, 3, 3, 1, 2, 1, 0)
   True          10          0  (0, 1, 3, 1, 3, 2, 3, 2, 0, 3, 1, 1, 3, 1, 0, 1, 2, 0, 1, 3)
   True          26          0  (1, 2, 0, 2, 1, 0, 2, 3, 0, 1, 0, 3, 1, 3, 0, 0, 3, 2, 0, 1)
   True           7          0  (3, 1, 2, 1, 2, 0, 2, 0, 3, 1, 1, 1, 2, 3, 1, 2, 0, 3, 1, 2)
   True          21          0  (1, 2, 3, 2, 3, 3, 2, 0, 1, 2, 1, 0, 2, 0, 3, 1, 0, 2, 0, 1)
   True          21          0  (3, 1, 2, 1, 2, 2, 1, 0, 2, 1, 1, 0, 3, 0, 1, 2, 0, 3, 1, 2)
   True          18          0  (1, 0, 3, 0, 3, 2, 0, 2, 1, 3, 0, 3, 0, 1, 3, 0, 2, 1, 2, 0)
   True         107          0  (1, 3, 2, 3, 1, 0, 3, 0, 2, 1, 3, 1, 3, 1, 2, 3, 0, 2, 0, 3)
   True          17          0  (0, 3, 1, 3, 1, 3, 1, 2, 3, 1, 0, 2, 1, 2, 3, 0, 2, 3, 2, 1)
   True          10          0  (0, 3, 1, 3, 1, 1, 3, 2, 1, 3, 0, 0, 3, 0, 2, 1, 0, 3, 0, 1)
   True          39          0  (2, 3, 1, 3, 1, 1, 3, 0, 1, 3, 2, 0, 2, 0, 3, 2, 0, 3, 0, 1)
   True         167          0  (3, 1, 0, 1, 0, 0, 1, 2, 0, 1, 1, 2, 3, 2, 1, 0, 2, 3, 1, 0)
   True          32          0  (2, 1, 3, 1, 2, 3, 1, 0, 3, 2, 3, 0, 2, 0, 1, 3, 0, 1, 0, 3)
   True          88          0  (1, 3, 2, 3, 2, 3, 2, 0, 3, 1, 1, 0, 1, 0, 3, 2, 0, 3, 0, 1)
   True          21          0  (0, 3, 1, 3, 1, 2, 3, 2, 1, 0, 3, 0, 3, 1, 0, 3, 2, 0, 3, 1)
   True          20          0  (0, 1, 3, 1, 0, 2, 1, 2, 0, 1, 3, 3, 1, 3, 0, 0, 3, 1, 3, 2)
   True          19          0  (2, 1, 3, 1, 3, 3, 1, 0, 3, 1, 2, 2, 0, 1, 3, 3, 2, 1, 2, 0)
   True          41          0  (0, 2, 1, 2, 1, 1, 2, 3, 1, 2, 2, 3, 2, 3, 0, 1, 3, 0, 3, 1)
   True          25          0  (3, 1, 0, 1, 0, 1, 0, 2, 1, 3, 1, 3, 2, 0, 3, 1, 0, 3, 2, 1)
   True          46          0  (3, 0, 1, 0, 1, 0, 1, 2, 0, 3, 0, 2, 3, 2, 0, 1, 2, 3, 0, 1)
   True          46          0  (1, 3, 0, 3, 0, 3, 0, 2, 1, 3, 3, 2, 0, 2, 1, 0, 2, 1, 2, 0)
   True          74          0  (0, 2, 1, 2, 1, 1, 2, 3, 1, 2, 0, 0, 3, 0, 1, 1, 0, 2, 0, 3)
   True          70          0  (3, 2, 0, 2, 3, 1, 0, 1, 3, 0, 2, 2, 0, 3, 2, 2, 1, 0, 2, 3)
   True          22          0  (2, 0, 1, 0, 1, 3, 0, 3, 2, 1, 0, 1, 0, 1, 2, 0, 3, 2, 3, 1)
   True          46          0  (1, 0, 2, 0, 1, 3, 2, 3, 0, 2, 0, 1, 2, 1, 0, 0, 1, 2, 0, 3)
   True          50          0  (0, 3, 1, 3, 0, 1, 3, 2, 1, 3, 1, 0, 3, 0, 1, 0, 2, 3, 1, 0)
   True          37          0  (0, 3, 2, 3, 2, 3, 2, 1, 3, 0, 3, 0, 2, 1, 0, 2, 1, 0, 3, 2)
   True          37          0  (0, 3, 2, 3, 2, 3, 2, 1, 3, 0, 3, 1, 0, 1, 3, 3, 1, 0, 3, 2)
   True          16          0  (2, 3, 0, 3, 2, 3, 0, 1, 2, 0, 3, 1, 0, 1, 2, 2, 3, 0, 3, 1)
   True          24          0  (2, 1, 3, 1, 3, 1, 3, 0, 2, 1, 1, 0, 3, 0, 2, 3, 0, 2, 0, 1)
   True          21          0  (2, 0, 3, 0, 2, 0, 3, 1, 0, 2, 0, 1, 2, 3, 0, 0, 1, 3, 1, 2)
   True          65          0  (2, 3, 1, 3, 1, 1, 3, 0, 1, 3, 2, 0, 2, 0, 3, 2, 0, 3, 2, 1)
   True          14          0  (3, 0, 1, 0, 3, 0, 1, 2, 3, 1, 0, 2, 1, 3, 0, 3, 2, 1, 2, 3)
   True          95          0  (0, 3, 2, 3, 2, 2, 3, 1, 2, 0, 3, 0, 1, 3, 0, 2, 3, 0, 3, 2)
   True         169          0  (3, 2, 1, 2, 3, 1, 2, 0, 1, 2, 2, 0, 3, 2, 1, 3, 0, 1, 2, 3)
   True          45          0  (3, 0, 2, 0, 2, 0, 2, 1, 0, 3, 0, 1, 2, 1, 3, 0, 1, 3, 1, 2)
   True         218          0  (3, 0, 1, 0, 1, 2, 1, 2, 0, 3, 0, 3, 1, 0, 3, 0, 2, 3, 0, 1)
   True          19          0  (3, 1, 2, 1, 3, 1, 2, 0, 3, 2, 2, 0, 2, 0, 1, 3, 0, 1, 2, 3)
   True          18          0  (0, 3, 1, 3, 0, 1, 3, 2, 1, 3, 1, 2, 3, 0, 2, 1, 0, 3, 2, 1)
   True          37          0  (3, 1, 0, 1, 0, 0, 1, 2, 0, 3, 1, 3, 2, 3, 0, 0, 1, 3, 1, 2)
   True          32          0  (2, 3, 1, 3, 2, 3, 1, 0, 3, 1, 3, 2, 1, 2, 3, 3, 2, 1, 3, 0)
   True          18          0  (1, 2, 3, 2, 1, 2, 3, 0, 2, 1, 2, 0, 1, 0, 2, 2, 0, 3, 2, 1)
   True          30          0  (0, 2, 1, 2, 0, 2, 1, 3, 2, 1, 2, 3, 0, 3, 1, 2, 3, 1, 3, 0)
   True          37          0  (1, 0, 3, 0, 1, 0, 3, 2, 1, 0, 3, 2, 3, 2, 0, 1, 2, 0, 2, 3)
   True         668          0  (3, 1, 0, 1, 0, 1, 0, 2, 1, 3, 3, 3, 0, 3, 1, 0, 2, 1, 3, 0)
   True          74          0  (2, 1, 3, 1, 2, 3, 1, 0, 3, 2, 1, 0, 1, 2, 3, 1, 0, 3, 0, 2)
   True          71          0  (1, 3, 0, 3, 1, 3, 0, 2, 3, 0, 3, 1, 0, 2, 3, 3, 1, 0, 3, 2)
   True          17          0  (1, 3, 0, 3, 1, 2, 0, 2, 3, 1, 3, 1, 0, 3, 1, 3, 2, 0, 2, 3)
   True          60          0  (1, 0, 3, 0, 3, 3, 0, 2, 3, 0, 1, 1, 2, 1, 0, 3, 1, 0, 1, 3)
   True          22          0  (2, 0, 3, 0, 3, 3, 0, 1, 3, 2, 2, 1, 0, 1, 2, 3, 1, 0, 2, 3)
   True          18          0  (2, 3, 1, 3, 1, 3, 1, 0, 3, 2, 2, 2, 1, 0, 3, 1, 0, 3, 0, 2)
   True          15          0  (2, 1, 3, 1, 2, 3, 1, 0, 3, 1, 3, 0, 2, 0, 1, 2, 0, 1, 3, 2)
   True          24          0  (0, 2, 1, 2, 0, 2, 1, 3, 0, 1, 2, 3, 1, 3, 0, 2, 3, 1, 3, 2)
   True          66          0  (2, 0, 1, 0, 1, 0, 1, 3, 0, 2, 0, 2, 3, 2, 0, 0, 1, 2, 0, 3)
   True          61          0  (1, 2, 0, 2, 0, 3, 0, 3, 2, 0, 2, 1, 0, 2, 1, 2, 3, 1, 3, 0)
   True          30          0  (1, 3, 0, 3, 0, 0, 3, 2, 0, 1, 3, 1, 2, 3, 1, 0, 3, 1, 3, 0)
   True          91          0  (0, 2, 1, 2, 0, 1, 2, 3, 1, 2, 1, 3, 0, 3, 2, 0, 3, 2, 1, 0)
   True          14          0  (3, 2, 1, 2, 1, 0, 2, 0, 1, 2, 3, 3, 2, 3, 1, 1, 3, 2, 3, 0)
   True          10          0  (3, 0, 2, 0, 3, 0, 2, 1, 0, 3, 0, 1, 3, 1, 2, 0, 1, 2, 1, 0)
   True          19          0  (3, 2, 1, 2, 3, 1, 2, 0, 1, 2, 2, 0, 2, 3, 1, 3, 0, 1, 0, 2)
   True          74          0  (3, 1, 2, 1, 2, 1, 2, 0, 1, 3, 1, 3, 0, 3, 1, 1, 2, 3, 1, 0)
   True          30          0  (0, 2, 1, 2, 1, 3, 2, 3, 0, 2, 0, 1, 2, 0, 1, 0, 3, 2, 3, 0)
   True          19          0  (3, 2, 0, 2, 3, 1, 2, 1, 0, 2, 2, 3, 2, 0, 3, 3, 1, 0, 1, 2)
   True          22          0  (3, 1, 0, 1, 3, 0, 1, 2, 0, 3, 1, 3, 1, 2, 3, 1, 2, 0, 2, 1)
   True          29          0  (3, 1, 0, 1, 0, 2, 0, 2, 3, 0, 3, 1, 0, 1, 3, 3, 2, 1, 3, 0)
   True          37          0  (1, 0, 3, 0, 1, 0, 3, 2, 0, 1, 3, 2, 1, 2, 0, 3, 2, 0, 3, 1)
   True          47          0  (3, 1, 0, 1, 0, 1, 0, 2, 1, 3, 1, 2, 3, 2, 0, 1, 2, 3, 2, 1)
   True         380          0  (3, 2, 0, 2, 3, 2, 0, 1, 2, 0, 0, 3, 0, 3, 2, 3, 1, 2, 0, 3)
   True         288          0  (0, 3, 1, 3, 1, 3, 1, 2, 3, 1, 0, 2, 1, 0, 3, 0, 2, 3, 0, 1)
   True          83          0  (0, 2, 1, 2, 1, 3, 1, 3, 0, 2, 2, 2, 1, 2, 0, 1, 3, 0, 2, 1)
   True          12          0  (3, 1, 2, 1, 3, 1, 2, 0, 1, 3, 2, 3, 2, 0, 1, 2, 0, 1, 2, 3)
   True          26          0  (2, 3, 0, 3, 2, 0, 3, 1, 2, 0, 0, 1, 3, 1, 2, 2, 1, 3, 1, 0)
   True         131          0  (2, 3, 1, 3, 2, 0, 1, 0, 3, 2, 1, 2, 1, 2, 3, 1, 0, 3, 1, 2)
   True          26          0  (3, 1, 0, 1, 0, 1, 0, 2, 1, 3, 1, 3, 0, 2, 3, 1, 2, 3, 2, 1)
   True          63          0  (2, 0, 1, 0, 2, 1, 0, 3, 1, 0, 0, 2, 0, 3, 2, 2, 3, 1, 3, 0)
   True          95          0  (0, 3, 1, 3, 1, 1, 3, 2, 0, 3, 3, 2, 3, 2, 0, 1, 2, 0, 3, 1)
   True          55          0  (3, 0, 1, 0, 3, 1, 0, 2, 1, 0, 0, 2, 3, 0, 1, 3, 2, 1, 2, 0)
   True          38          0  (1, 0, 2, 0, 2, 0, 2, 3, 0, 1, 0, 1, 2, 3, 1, 2, 3, 1, 3, 2)
   True          45          0  (3, 0, 1, 0, 1, 2, 0, 2, 1, 3, 0, 3, 0, 1, 3, 1, 2, 3, 2, 1)
   True         140          0  (1, 2, 0, 2, 0, 0, 2, 3, 0, 1, 2, 1, 3, 2, 0, 0, 2, 1, 2, 3)
   True           9          0  (2, 1, 0, 1, 0, 1, 0, 3, 2, 0, 2, 3, 0, 3, 2, 2, 3, 1, 3, 0)
   True         267          0  (3, 0, 2, 0, 2, 0, 2, 1, 0, 3, 3, 3, 2, 1, 0, 2, 1, 0, 3, 2)
   True         374          0  (3, 1, 0, 1, 3, 1, 0, 2, 3, 1, 0, 2, 0, 2, 1, 3, 2, 1, 0, 3)
   True          43          0  (1, 3, 0, 3, 0, 3, 0, 2, 3, 1, 3, 1, 0, 2, 1, 3, 2, 1, 2, 3)
   True         111          0  (0, 3, 2, 3, 2, 3, 2, 1, 0, 3, 3, 1, 2, 0, 3, 2, 1, 0, 1, 2)
   True          58          0  (0, 1, 2, 1, 2, 3, 1, 3, 0, 1, 0, 2, 1, 2, 0, 0, 3, 1, 3, 2)
   True         166          0  (1, 3, 0, 3, 0, 3, 0, 2, 3, 1, 3, 2, 1, 2, 3, 3, 0, 1, 3, 2)
   True          15          0  (1, 3, 2, 3, 1, 2, 3, 0, 2, 3, 2, 0, 1, 0, 3, 1, 0, 3, 0, 1)
   True         243          0  (0, 3, 2, 3, 0, 1, 3, 1, 2, 3, 2, 0, 3, 0, 1, 2, 0, 3, 1, 2)
   True          83          0  (3, 2, 0, 2, 3, 0, 2, 1, 0, 2, 0, 3, 1, 3, 0, 0, 3, 2, 0, 1)
   True          77          0  (3, 2, 0, 2, 0, 0, 2, 1, 0, 2, 3, 1, 3, 1, 2, 3, 1, 2, 3, 0)
   True          19          0  (2, 0, 1, 0, 1, 0, 1, 3, 0, 1, 0, 3, 1, 2, 0, 0, 3, 2, 0, 1)
   True           6          0  (0, 3, 1, 3, 0, 1, 3, 2, 1, 0, 1, 2, 3, 0, 1, 1, 2, 3, 1, 0)
   True          51          0  (1, 2, 3, 2, 3, 3, 2, 0, 3, 2, 1, 0, 1, 0, 2, 3, 0, 2, 0, 1)
   True          88          0  (0, 2, 1, 2, 0, 2, 1, 3, 2, 0, 1, 0, 1, 0, 2, 1, 3, 2, 3, 0)
   True          70          0  (2, 3, 0, 3, 0, 0, 3, 1, 0, 3, 2, 2, 1, 2, 3, 0, 2, 3, 2, 1)
   True          19          0  (0, 2, 3, 2, 3, 3, 2, 1, 3, 2, 0, 0, 2, 0, 3, 3, 0, 2, 0, 1)
   True          57          0  (0, 2, 1, 2, 1, 2, 1, 3, 0, 2, 2, 3, 1, 3, 2, 1, 3, 0, 2, 1)
   True         145          0  (1, 0, 3, 0, 3, 2, 3, 2, 1, 3, 0, 0, 3, 0, 1, 0, 2, 1, 0, 3)
   True         221          0  (1, 0, 2, 0, 2, 2, 0, 3, 2, 0, 0, 1, 0, 3, 2, 2, 3, 1, 3, 0)
   True          48          0  (2, 3, 0, 3, 0, 0, 3, 1, 2, 3, 3, 1, 3, 1, 0, 0, 1, 2, 1, 3)
   True          10          0  (2, 1, 3, 1, 3, 0, 3, 0, 2, 3, 1, 1, 3, 2, 1, 1, 0, 2, 1, 3)
   True          67          0  (1, 3, 0, 3, 1, 2, 3, 2, 1, 3, 0, 0, 3, 0, 2, 1, 0, 3, 2, 1)
   True          69          0  (2, 1, 3, 1, 3, 0, 3, 0, 2, 1, 1, 1, 3, 1, 2, 3, 0, 2, 0, 3)
   True          19          0  (1, 0, 2, 0, 1, 2, 0, 3, 2, 0, 0, 3, 0, 1, 2, 1, 3, 2, 3, 0)
   True          12          0  (1, 3, 2, 3, 2, 3, 2, 0, 3, 2, 3, 1, 2, 0, 1, 3, 0, 1, 0, 2)
   True          10          0  (3, 2, 1, 2, 3, 1, 2, 0, 1, 3, 1, 0, 3, 0, 1, 1, 0, 2, 0, 3)
   True          19          0  (3, 0, 1, 0, 3, 2, 1, 2, 0, 1, 0, 3, 1, 3, 2, 0, 3, 1, 2, 0)
   True          13          0  (3, 2, 0, 2, 3, 0, 2, 1, 3, 0, 0, 1, 2, 1, 0, 3, 1, 2, 0, 3)
   True          11          0  (2, 3, 0, 3, 2, 1, 0, 1, 2, 0, 3, 3, 0, 3, 1, 2, 3, 0, 1, 2)
   True          29          0  (1, 0, 2, 0, 2, 0, 2, 3, 0, 1, 0, 1, 3, 2, 0, 0, 2, 1, 0, 3)
   True          37          0  (1, 2, 3, 2, 1, 3, 2, 0, 3, 1, 3, 1, 2, 1, 3, 3, 0, 2, 0, 1)
   True          82          0  (3, 0, 1, 0, 1, 2, 1, 2, 0, 3, 3, 3, 1, 0, 3, 1, 2, 0, 2, 1)
   True         127          0  (1, 3, 0, 3, 1, 3, 0, 2, 3, 0, 0, 2, 1, 2, 3, 1, 2, 3, 0, 1)
   True          33          0  (3, 1, 0, 1, 0, 1, 0, 2, 3, 1, 1, 2, 0, 3, 1, 0, 2, 3, 2, 0)
   True          36          0  (0, 2, 1, 2, 1, 2, 1, 3, 2, 1, 0, 3, 1, 3, 2, 0, 3, 2, 0, 1)
   True         431          0  (1, 0, 2, 0, 2, 2, 0, 3, 2, 1, 0, 1, 3, 0, 2, 2, 0, 1, 0, 3)
   True          13          0  (2, 1, 3, 1, 3, 0, 3, 0, 2, 3, 2, 1, 3, 1, 2, 2, 0, 1, 0, 3)
   True          26          0  (2, 3, 0, 3, 2, 3, 0, 1, 3, 0, 0, 2, 0, 1, 3, 2, 1, 3, 0, 2)
   True          47          0  (1, 2, 0, 2, 0, 0, 2, 3, 0, 2, 2, 3, 2, 1, 0, 0, 3, 1, 3, 2)
   True          25          0  (3, 0, 2, 0, 3, 1, 0, 1, 3, 2, 0, 2, 0, 3, 2, 0, 1, 2, 1, 0)
   True          31          0  (3, 2, 0, 2, 3, 1, 0, 1, 2, 0, 0, 3, 0, 3, 2, 3, 1, 2, 0, 3)
   True          33          0  (3, 1, 0, 1, 0, 1, 0, 2, 3, 1, 1, 2, 0, 2, 3, 0, 2, 3, 1, 0)
   True          18          0  (0, 1, 2, 1, 2, 1, 2, 3, 1, 0, 1, 3, 0, 2, 3, 1, 2, 0, 3, 1)
   True          20          0  (1, 2, 3, 2, 1, 3, 2, 0, 1, 3, 2, 0, 2, 0, 3, 2, 0, 3, 0, 2)
   True          23          0  (0, 3, 1, 3, 0, 1, 3, 2, 1, 3, 1, 0, 2, 3, 1, 1, 0, 3, 1, 2)
   True          27          0  (0, 1, 3, 1, 3, 1, 3, 2, 1, 0, 1, 2, 3, 2, 1, 3, 2, 0, 1, 3)
   True          30          0  (1, 0, 3, 0, 1, 3, 0, 2, 3, 1, 3, 2, 1, 2, 0, 3, 2, 0, 2, 3)
   True           8          0  (0, 2, 3, 2, 3, 2, 3, 1, 0, 2, 0, 1, 3, 0, 2, 3, 1, 2, 0, 3)
   True          17          0  (0, 1, 3, 1, 3, 2, 1, 2, 0, 1, 0, 3, 1, 0, 2, 0, 3, 1, 2, 0)
   True          50          0  (0, 1, 3, 1, 3, 3, 1, 2, 3, 0, 1, 2, 1, 2, 0, 3, 2, 0, 2, 1)
   True          52          0  (3, 1, 2, 1, 2, 1, 2, 0, 1, 3, 1, 3, 0, 2, 3, 1, 2, 3, 1, 0)
   True          65          0  (0, 3, 1, 3, 1, 1, 3, 2, 1, 0, 3, 2, 0, 3, 1, 1, 2, 0, 2, 3)
   True          40          0  (3, 1, 0, 1, 0, 1, 0, 2, 1, 3, 1, 3, 0, 2, 3, 0, 2, 3, 1, 0)
   True         191          0  (2, 1, 3, 1, 3, 3, 1, 0, 3, 2, 1, 2, 0, 1, 2, 3, 1, 2, 1, 3)
   True          38          0  (1, 3, 2, 3, 1, 0, 3, 0, 2, 3, 2, 1, 3, 2, 1, 2, 0, 3, 0, 2)
   True          21          0  (0, 3, 1, 3, 0, 1, 3, 2, 0, 1, 3, 2, 3, 2, 0, 3, 2, 1, 2, 3)
   True         564          0  (3, 2, 0, 2, 0, 2, 0, 1, 3, 2, 3, 1, 0, 1, 2, 3, 1, 2, 3, 0)
   True          16          0  (0, 3, 1, 3, 1, 2, 1, 2, 3, 1, 0, 0, 1, 3, 0, 0, 2, 3, 0, 1)
   True          65          0  (1, 0, 3, 0, 3, 3, 0, 2, 3, 1, 0, 1, 0, 2, 1, 0, 2, 1, 0, 3)
   True          32          0  (0, 3, 2, 3, 2, 1, 3, 1, 2, 0, 3, 0, 3, 2, 0, 3, 1, 0, 1, 3)
   True           8          0  (2, 0, 1, 0, 2, 1, 0, 3, 1, 2, 1, 3, 0, 3, 2, 1, 3, 0, 3, 1)
   True          40          0  (3, 1, 2, 1, 3, 2, 1, 0, 2, 1, 2, 3, 0, 3, 1, 2, 3, 1, 0, 2)
   True          19          0  (2, 3, 1, 3, 1, 0, 3, 0, 1, 3, 2, 2, 3, 1, 2, 2, 0, 3, 2, 1)
   True          24          0  (0, 1, 2, 1, 2, 2, 1, 3, 2, 0, 1, 3, 0, 1, 3, 2, 1, 0, 3, 2)
   True          56          0  (1, 3, 2, 3, 2, 2, 3, 0, 2, 1, 3, 0, 1, 0, 2, 3, 0, 1, 0, 3)
   True          38          0  (0, 1, 2, 1, 2, 2, 1, 3, 2, 0, 1, 0, 1, 3, 2, 1, 3, 0, 3, 1)
   True          12          0  (3, 0, 1, 0, 1, 1, 0, 2, 1, 3, 0, 2, 3, 0, 2, 1, 0, 3, 0, 1)
   True           6          0  (1, 2, 0, 2, 0, 0, 2, 3, 0, 1, 2, 3, 1, 2, 3, 0, 2, 1, 2, 0)
   True          24          0  (3, 0, 1, 0, 3, 1, 0, 2, 1, 0, 1, 3, 2, 3, 1, 1, 3, 0, 1, 2)
   True          40          0  (2, 1, 0, 1, 2, 1, 0, 3, 2, 0, 0, 3, 0, 3, 1, 2, 3, 1, 0, 2)
   True          33          0  (0, 1, 3, 1, 0, 3, 1, 2, 3, 1, 1, 0, 1, 0, 3, 0, 2, 3, 2, 1)
   True          28          0  (0, 3, 1, 3, 0, 3, 1, 2, 0, 1, 3, 2, 1, 0, 2, 0, 3, 1, 2, 0)
   True          22          0  (3, 2, 1, 2, 1, 1, 2, 0, 3, 2, 3, 0, 2, 3, 0, 3, 1, 2, 0, 3)
   True          91          0  (1, 2, 3, 2, 1, 0, 3, 0, 2, 3, 2, 1, 3, 1, 0, 2, 1, 3, 0, 2)
   True         206          0  (3, 0, 2, 0, 2, 0, 2, 1, 0, 3, 3, 3, 2, 3, 0, 2, 1, 0, 1, 3)
   True          65          0  (2, 0, 3, 0, 3, 3, 0, 1, 2, 3, 0, 1, 0, 1, 2, 0, 1, 2, 1, 0)
   True         142          0  (0, 2, 1, 2, 1, 1, 2, 3, 1, 0, 2, 3, 0, 2, 3, 1, 2, 0, 3, 1)
   True          18          0  (2, 0, 3, 0, 2, 1, 3, 1, 2, 3, 0, 0, 3, 0, 2, 0, 1, 3, 1, 0)
   True          21          0  (1, 3, 0, 3, 0, 0, 3, 2, 0, 3, 3, 2, 3, 2, 1, 0, 2, 1, 3, 0)
   True         385          0  (1, 0, 3, 0, 3, 2, 0, 2, 1, 0, 1, 3, 0, 3, 2, 1, 3, 0, 2, 1)
   True          15          0  (0, 3, 2, 3, 0, 2, 3, 1, 0, 2, 3, 1, 3, 0, 2, 0, 1, 2, 1, 3)
   True         120          0  (0, 1, 3, 1, 0, 3, 1, 2, 3, 1, 3, 2, 0, 1, 3, 3, 2, 1, 2, 0)
   True          39          0  (2, 0, 3, 0, 2, 0, 3, 1, 0, 3, 0, 2, 3, 2, 0, 0, 2, 3, 0, 1)
   True          30          0  (3, 2, 1, 2, 3, 2, 1, 0, 3, 2, 2, 0, 1, 0, 2, 3, 0, 1, 2, 3)
   True          24          0  (3, 1, 2, 1, 3, 0, 2, 0, 1, 2, 2, 3, 2, 3, 1, 3, 0, 1, 0, 2)
   True          19          0  (1, 0, 3, 0, 3, 0, 3, 2, 1, 3, 0, 2, 3, 2, 1, 0, 2, 1, 0, 3)
   True          51          0  (1, 0, 2, 0, 1, 2, 0, 3, 2, 0, 2, 3, 1, 0, 2, 2, 3, 0, 3, 1)
   True         264          0  (3, 1, 2, 1, 3, 1, 2, 0, 1, 3, 2, 3, 2, 3, 1, 2, 0, 1, 2, 3)
   True          68          0  (3, 2, 1, 2, 1, 1, 2, 0, 1, 3, 2, 0, 3, 2, 1, 1, 0, 3, 0, 2)
   True          14          0  (0, 2, 3, 2, 3, 1, 2, 1, 0, 2, 0, 3, 2, 3, 0, 0, 3, 2, 0, 1)
   True          35          0  (1, 2, 0, 2, 1, 0, 2, 3, 0, 2, 0, 3, 1, 3, 2, 0, 3, 2, 3, 1)
   True          45          0  (1, 0, 3, 0, 3, 3, 0, 2, 3, 1, 0, 2, 1, 2, 3, 0, 2, 1, 2, 0)
   True          38          0  (2, 3, 1, 3, 2, 0, 1, 0, 2, 1, 1, 3, 1, 2, 3, 2, 0, 3, 1, 2)
   True          51          0  (1, 0, 2, 0, 2, 2, 0, 3, 2, 0, 0, 3, 1, 0, 2, 2, 3, 1, 3, 0)
   True           9          0  (1, 2, 3, 2, 1, 0, 2, 0, 1, 3, 3, 3, 2, 3, 1, 1, 0, 2, 0, 3)
   True          19          0  (0, 1, 2, 1, 2, 1, 2, 3, 1, 2, 0, 0, 2, 3, 1, 0, 3, 1, 3, 2)
   True          89          0  (1, 3, 0, 3, 1, 0, 3, 2, 0, 1, 3, 2, 3, 2, 0, 3, 2, 0, 2, 3)
   True         676          0  (3, 2, 1, 2, 3, 0, 1, 0, 2, 1, 1, 3, 1, 3, 2, 3, 0, 2, 1, 3)
   True           9          0  (3, 2, 1, 2, 3, 2, 1, 0, 3, 1, 2, 0, 1, 0, 3, 2, 0, 1, 0, 2)
   True          26          0  (2, 0, 1, 0, 1, 0, 1, 3, 0, 2, 0, 3, 1, 3, 0, 0, 3, 2, 0, 1)
   True          69          0  (3, 0, 1, 0, 1, 1, 0, 2, 1, 3, 0, 3, 2, 0, 3, 1, 0, 3, 0, 1)
   True          79          0  (2, 0, 1, 0, 1, 1, 0, 3, 2, 0, 0, 3, 0, 3, 2, 1, 3, 2, 0, 1)
   True          14          0  (3, 0, 1, 0, 3, 0, 1, 2, 0, 3, 0, 3, 1, 3, 0, 0, 2, 1, 0, 3)
   True          24          0  (3, 2, 1, 2, 1, 2, 1, 0, 3, 2, 2, 0, 1, 3, 2, 1, 0, 3, 0, 1)
   True          68          0  (2, 3, 1, 3, 2, 0, 3, 0, 1, 3, 3, 2, 3, 2, 1, 2, 0, 1, 0, 2)
   True          11          0  (2, 3, 0, 3, 0, 3, 0, 1, 3, 2, 3, 2, 1, 0, 2, 3, 0, 2, 1, 3)
   True          12          0  (2, 0, 1, 0, 2, 3, 0, 3, 2, 1, 1, 1, 0, 1, 2, 2, 3, 0, 3, 1)
   True         110          0  (3, 2, 1, 2, 1, 2, 1, 0, 2, 3, 3, 0, 1, 0, 3, 1, 0, 2, 0, 1)
   True          33          0  (2, 1, 0, 1, 2, 3, 0, 3, 2, 0, 1, 1, 0, 2, 3, 2, 1, 0, 1, 2)
   True          46          0  (0, 2, 3, 2, 3, 2, 3, 1, 2, 0, 0, 0, 3, 0, 2, 3, 1, 2, 1, 3)
   True          21          0  (1, 2, 0, 2, 0, 3, 2, 3, 0, 1, 1, 1, 2, 1, 0, 0, 3, 2, 3, 1)
   True          87          0  (0, 2, 3, 2, 0, 3, 2, 1, 3, 0, 2, 1, 2, 0, 3, 2, 1, 3, 1, 0)
   True          24          0  (3, 2, 1, 2, 1, 0, 2, 0, 3, 2, 3, 1, 2, 3, 0, 3, 1, 2, 0, 3)
   True          36          0  (0, 2, 3, 2, 0, 1, 3, 1, 0, 3, 2, 2, 3, 0, 2, 0, 1, 3, 1, 0)
   True          18          0  (3, 0, 1, 0, 3, 1, 0, 2, 1, 0, 1, 3, 2, 3, 1, 1, 3, 0, 1, 2)
   True          19          0  (0, 3, 1, 3, 0, 3, 1, 2, 3, 0, 3, 0, 1, 0, 3, 3, 2, 1, 2, 0)
   True          11          0  (2, 0, 1, 0, 1, 1, 0, 3, 1, 0, 2, 2, 0, 2, 1, 1, 2, 0, 2, 3)
   True         255          0  (1, 3, 0, 3, 0, 2, 3, 2, 1, 3, 1, 0, 3, 0, 1, 1, 0, 3, 1, 2)
   True          51          0  (2, 3, 0, 3, 2, 3, 0, 1, 2, 0, 3, 1, 0, 1, 2, 2, 1, 0, 1, 3)
   True          17          0  (0, 2, 1, 2, 1, 2, 1, 3, 2, 0, 2, 0, 1, 0, 2, 2, 3, 0, 3, 1)
   True          18          0  (1, 3, 0, 3, 1, 2, 0, 2, 3, 0, 3, 1, 0, 1, 3, 3, 1, 0, 3, 2)
   True          30          0  (2, 3, 0, 3, 2, 1, 0, 1, 2, 3, 3, 3, 0, 3, 2, 2, 1, 0, 1, 3)
   True          22          0  (0, 2, 3, 2, 0, 1, 2, 1, 0, 2, 3, 3, 2, 3, 1, 0, 3, 2, 1, 0)
   True          65          0  (0, 2, 3, 2, 3, 2, 3, 1, 2, 0, 2, 0, 1, 3, 0, 2, 3, 0, 2, 1)
