Test Parameters:
	filename: graph30.txt
	numRuns: 200
	colors: 4
	max generations: 6000
	population size: 20
	mutation chance: 0.8
	tournament size: 10
	tournament chance: 0.8

Summary:
200 tests were run. 99.5% of them succeeded.
Of the successes, the average number iterations was 215.00 (min 14, max 5855).
Of the failures, the average conflicts in the best result was 1.00 (min 1, max 1)

All results:
Success  Iterations  Conflicts  Color Sequence
   True         352          0  (3, 1, 2, 1, 1, 2, 0, 0, 2, 3, 3, 0, 2, 1, 3, 3, 0, 2, 0, 3, 0, 1, 2, 0, 3, 2, 3, 2, 0, 1)
  False        5999          1  (0, 3, 2, 0, 2, 2, 1, 0, 1, 3, 3, 0, 1, 0, 3, 2, 2, 1, 0, 0, 0, 3, 3, 1, 2, 3, 1, 2, 2, 0)
   True          69          0  (0, 3, 0, 1, 1, 2, 3, 1, 3, 2, 3, 1, 0, 1, 2, 2, 3, 0, 3, 0, 0, 1, 2, 3, 0, 1, 2, 0, 3, 1)
   True         529          0  (2, 1, 2, 0, 1, 0, 3, 3, 2, 1, 1, 0, 0, 2, 0, 1, 3, 2, 3, 2, 0, 1, 1, 0, 3, 2, 0, 3, 1, 2)
   True          43          0  (2, 0, 1, 3, 3, 1, 0, 3, 0, 2, 0, 3, 1, 2, 1, 2, 0, 1, 3, 2, 3, 3, 1, 0, 3, 1, 0, 1, 3, 2)
   True          32          0  (0, 2, 3, 2, 3, 1, 2, 0, 0, 1, 3, 3, 2, 0, 1, 1, 3, 0, 2, 0, 2, 2, 1, 3, 0, 3, 1, 0, 0, 2)
   True          21          0  (0, 3, 1, 2, 3, 1, 2, 2, 3, 0, 3, 1, 1, 0, 1, 0, 3, 2, 1, 2, 1, 0, 1, 3, 0, 2, 3, 1, 0, 2)
   True          34          0  (0, 1, 2, 3, 3, 2, 1, 0, 2, 1, 1, 3, 2, 0, 2, 1, 3, 2, 0, 2, 3, 1, 0, 3, 2, 2, 3, 0, 0, 1)
   True         688          0  (2, 0, 3, 2, 0, 1, 3, 2, 0, 1, 3, 2, 0, 2, 1, 1, 3, 0, 3, 0, 0, 2, 2, 1, 3, 2, 1, 3, 3, 0)
   True         290          0  (2, 3, 1, 2, 0, 1, 3, 0, 0, 3, 2, 2, 1, 0, 1, 3, 2, 1, 0, 0, 2, 3, 1, 2, 0, 1, 2, 0, 0, 3)
   True          14          0  (0, 2, 3, 2, 2, 3, 1, 1, 3, 0, 2, 2, 3, 0, 3, 1, 1, 3, 0, 0, 0, 2, 3, 1, 0, 2, 1, 3, 3, 2)
   True          34          0  (1, 2, 1, 2, 3, 0, 2, 3, 3, 0, 2, 2, 1, 3, 0, 0, 2, 3, 1, 3, 3, 1, 0, 2, 3, 2, 0, 3, 3, 1)
   True         117          0  (2, 1, 3, 0, 1, 3, 0, 0, 1, 2, 2, 0, 3, 1, 3, 2, 0, 1, 3, 2, 0, 3, 3, 0, 2, 1, 0, 2, 3, 1)
   True         645          0  (1, 0, 3, 2, 2, 3, 0, 2, 1, 0, 0, 2, 3, 1, 3, 0, 2, 1, 3, 1, 2, 0, 3, 2, 1, 1, 2, 1, 3, 0)
   True         111          0  (0, 1, 0, 2, 2, 2, 3, 3, 3, 1, 0, 0, 2, 1, 0, 1, 3, 2, 0, 2, 0, 0, 1, 3, 0, 2, 3, 1, 1, 2)
   True         325          0  (3, 2, 0, 3, 2, 0, 1, 3, 0, 2, 1, 3, 0, 2, 3, 1, 1, 0, 2, 0, 2, 2, 2, 1, 3, 3, 1, 3, 2, 0)
   True         168          0  (1, 0, 1, 2, 2, 3, 0, 2, 0, 3, 1, 1, 0, 2, 3, 3, 1, 2, 0, 2, 0, 3, 3, 1, 0, 2, 1, 0, 0, 2)
   True         158          0  (2, 0, 2, 3, 1, 1, 3, 3, 2, 0, 0, 3, 1, 2, 0, 1, 3, 2, 0, 2, 0, 1, 0, 3, 1, 2, 3, 0, 1, 2)
   True          35          0  (0, 1, 3, 0, 2, 3, 1, 0, 1, 2, 1, 3, 3, 2, 3, 2, 0, 1, 3, 2, 3, 3, 3, 0, 2, 1, 0, 2, 3, 1)
   True        5855          0  (0, 3, 2, 0, 3, 2, 1, 0, 3, 1, 1, 0, 2, 3, 2, 2, 0, 3, 1, 3, 1, 1, 2, 0, 3, 0, 2, 3, 3, 1)
   True         411          0  (0, 3, 1, 2, 2, 2, 1, 0, 0, 3, 3, 2, 1, 0, 3, 3, 2, 0, 1, 3, 0, 1, 0, 2, 3, 2, 3, 0, 0, 1)
   True          97          0  (2, 1, 2, 3, 0, 0, 1, 3, 1, 0, 1, 2, 2, 3, 2, 0, 1, 3, 2, 0, 1, 2, 3, 1, 2, 3, 1, 3, 2, 0)
   True          58          0  (3, 1, 0, 3, 1, 2, 0, 3, 1, 2, 0, 3, 1, 3, 2, 0, 0, 1, 2, 1, 1, 2, 2, 0, 1, 3, 0, 1, 2, 3)
   True         165          0  (0, 3, 2, 1, 1, 2, 3, 1, 3, 0, 0, 1, 3, 1, 0, 2, 2, 3, 0, 3, 3, 1, 1, 2, 0, 1, 2, 0, 0, 3)
   True         856          0  (2, 1, 2, 3, 0, 0, 3, 3, 0, 1, 1, 3, 0, 2, 1, 1, 3, 0, 2, 1, 2, 2, 0, 3, 1, 3, 1, 0, 0, 2)
   True         231          0  (1, 2, 3, 1, 0, 3, 2, 1, 0, 2, 2, 1, 3, 1, 3, 2, 0, 3, 1, 1, 1, 2, 3, 0, 1, 3, 0, 3, 1, 2)
   True         130          0  (2, 3, 1, 3, 0, 1, 3, 2, 1, 0, 3, 2, 1, 0, 2, 0, 3, 1, 2, 1, 2, 2, 2, 3, 0, 1, 3, 0, 0, 1)
   True          81          0  (3, 1, 2, 0, 2, 2, 1, 3, 3, 1, 1, 0, 0, 3, 0, 2, 2, 3, 1, 1, 1, 0, 0, 2, 1, 3, 2, 1, 1, 3)
   True         116          0  (1, 0, 3, 0, 3, 3, 0, 1, 1, 2, 2, 3, 3, 1, 2, 2, 0, 1, 0, 1, 0, 3, 3, 2, 0, 1, 2, 0, 0, 1)
   True        1146          0  (0, 1, 2, 3, 1, 2, 3, 3, 2, 1, 1, 3, 2, 0, 2, 1, 3, 2, 3, 1, 3, 0, 2, 3, 1, 2, 1, 2, 3, 0)
   True        1004          0  (0, 1, 3, 1, 1, 3, 2, 0, 3, 2, 2, 1, 3, 1, 3, 2, 0, 3, 0, 3, 1, 2, 1, 0, 3, 3, 1, 3, 0, 2)
   True         318          0  (1, 2, 0, 1, 0, 0, 3, 3, 3, 2, 2, 0, 0, 1, 2, 2, 3, 1, 3, 1, 3, 0, 2, 3, 1, 0, 2, 1, 1, 0)
   True          77          0  (2, 0, 3, 1, 3, 3, 0, 1, 3, 2, 0, 0, 3, 1, 2, 2, 0, 1, 3, 3, 3, 2, 2, 0, 3, 1, 0, 3, 2, 1)
   True         507          0  (3, 1, 0, 1, 0, 0, 1, 2, 2, 3, 3, 1, 1, 2, 3, 0, 0, 2, 1, 3, 2, 1, 2, 0, 3, 3, 0, 2, 2, 1)
   True         206          0  (2, 0, 3, 1, 0, 3, 1, 2, 3, 0, 1, 1, 3, 2, 3, 0, 1, 3, 2, 2, 2, 0, 3, 1, 0, 3, 1, 3, 0, 2)
   True         281          0  (1, 0, 1, 2, 2, 2, 0, 3, 1, 0, 0, 2, 1, 3, 1, 3, 2, 1, 0, 1, 0, 0, 3, 2, 1, 1, 2, 3, 3, 0)
   True         344          0  (2, 0, 2, 3, 3, 1, 0, 3, 0, 1, 2, 3, 0, 3, 1, 2, 2, 0, 1, 1, 1, 3, 0, 2, 1, 3, 2, 1, 1, 3)
   True          41          0  (0, 3, 2, 1, 2, 1, 3, 0, 0, 3, 2, 1, 1, 0, 1, 2, 2, 0, 3, 0, 3, 3, 1, 2, 0, 0, 1, 0, 2, 3)
   True          96          0  (3, 1, 0, 1, 1, 0, 2, 2, 0, 3, 3, 2, 0, 1, 3, 3, 2, 1, 0, 3, 0, 0, 1, 2, 3, 1, 3, 1, 2, 0)
   True         113          0  (3, 2, 3, 2, 1, 1, 2, 0, 3, 1, 2, 0, 3, 0, 3, 1, 2, 3, 2, 3, 0, 1, 0, 2, 3, 3, 0, 3, 2, 1)
   True          37          0  (0, 1, 0, 3, 2, 3, 1, 2, 2, 1, 1, 0, 3, 0, 3, 1, 2, 3, 0, 3, 0, 1, 0, 2, 3, 3, 2, 3, 0, 1)
   True          48          0  (2, 1, 3, 2, 0, 3, 1, 0, 0, 1, 1, 2, 3, 0, 3, 3, 2, 0, 1, 0, 1, 1, 3, 2, 1, 0, 2, 3, 3, 0)
   True          53          0  (2, 0, 2, 1, 1, 3, 0, 1, 2, 0, 0, 1, 3, 2, 3, 3, 1, 2, 1, 3, 2, 0, 2, 1, 3, 0, 3, 2, 2, 0)
   True         524          0  (2, 0, 1, 3, 1, 1, 3, 3, 2, 0, 0, 3, 1, 2, 0, 1, 3, 2, 0, 2, 0, 0, 0, 3, 2, 2, 3, 2, 0, 1)
   True          96          0  (2, 3, 1, 3, 1, 0, 3, 2, 2, 0, 1, 1, 3, 2, 0, 0, 1, 2, 3, 2, 1, 3, 0, 1, 2, 2, 0, 2, 1, 3)
   True          98          0  (0, 2, 1, 0, 2, 1, 3, 0, 1, 3, 2, 0, 1, 0, 1, 2, 2, 1, 3, 0, 3, 3, 1, 2, 0, 1, 2, 0, 0, 3)
   True          40          0  (0, 1, 3, 2, 2, 3, 1, 2, 1, 0, 0, 3, 1, 2, 0, 0, 3, 2, 1, 0, 1, 1, 2, 3, 0, 3, 0, 2, 2, 1)
   True         168          0  (3, 0, 2, 1, 1, 1, 2, 3, 2, 0, 0, 1, 2, 3, 0, 0, 1, 3, 2, 3, 1, 2, 2, 0, 1, 3, 0, 1, 1, 3)
   True         115          0  (0, 1, 3, 1, 1, 2, 3, 0, 0, 2, 3, 1, 1, 0, 2, 3, 3, 0, 1, 0, 1, 2, 2, 3, 0, 2, 3, 0, 0, 1)
   True          98          0  (2, 3, 0, 2, 3, 1, 0, 2, 0, 3, 0, 2, 1, 3, 1, 3, 2, 0, 1, 0, 0, 1, 1, 3, 2, 2, 3, 2, 1, 0)
   True          22          0  (3, 1, 2, 3, 2, 0, 1, 3, 2, 0, 1, 3, 2, 3, 0, 1, 1, 2, 3, 2, 3, 3, 0, 1, 3, 2, 1, 0, 3, 2)
   True          65          0  (1, 2, 1, 3, 0, 0, 3, 3, 0, 2, 1, 3, 0, 2, 1, 2, 3, 0, 1, 1, 1, 2, 0, 3, 1, 0, 3, 1, 1, 2)
   True         226          0  (2, 0, 3, 2, 0, 1, 3, 2, 3, 0, 3, 2, 1, 0, 1, 1, 2, 3, 2, 3, 2, 0, 0, 1, 2, 3, 1, 2, 2, 3)
   True         236          0  (1, 2, 0, 1, 2, 0, 3, 1, 0, 3, 2, 2, 0, 1, 0, 3, 2, 0, 1, 1, 1, 3, 0, 2, 3, 0, 2, 0, 3, 1)
   True         383          0  (1, 2, 1, 3, 3, 0, 2, 3, 2, 0, 1, 1, 2, 3, 0, 0, 1, 3, 1, 3, 3, 2, 0, 1, 3, 2, 0, 3, 1, 2)
   True         577          0  (0, 2, 1, 0, 2, 3, 1, 0, 3, 2, 1, 0, 3, 2, 3, 1, 1, 3, 0, 2, 2, 0, 3, 1, 2, 3, 2, 3, 1, 0)
   True          43          0  (0, 3, 1, 2, 3, 1, 2, 2, 1, 3, 0, 0, 1, 3, 0, 3, 2, 1, 0, 1, 0, 0, 0, 3, 2, 2, 3, 2, 0, 1)
   True         204          0  (0, 1, 2, 0, 2, 2, 1, 3, 3, 1, 1, 0, 0, 3, 0, 1, 2, 3, 0, 3, 2, 0, 0, 1, 2, 3, 1, 2, 0, 3)
   True         222          0  (2, 1, 0, 2, 1, 3, 0, 2, 1, 3, 1, 2, 0, 2, 3, 3, 1, 0, 2, 0, 2, 2, 3, 1, 2, 0, 1, 3, 2, 0)
   True         160          0  (1, 2, 1, 3, 3, 3, 2, 0, 0, 2, 2, 3, 1, 0, 1, 2, 3, 0, 1, 0, 3, 1, 1, 3, 2, 0, 3, 2, 1, 0)
   True          15          0  (1, 0, 2, 3, 3, 2, 0, 3, 2, 1, 0, 0, 2, 1, 2, 1, 0, 3, 2, 3, 2, 1, 2, 0, 1, 3, 0, 2, 2, 3)
   True         919          0  (0, 3, 2, 3, 2, 2, 3, 0, 0, 1, 3, 3, 2, 1, 0, 1, 3, 2, 0, 2, 3, 0, 1, 3, 0, 2, 3, 1, 1, 2)
   True          42          0  (3, 0, 3, 1, 1, 1, 2, 2, 3, 0, 3, 1, 1, 0, 3, 2, 2, 3, 1, 3, 0, 1, 0, 2, 3, 3, 0, 3, 2, 1)
   True         465          0  (1, 2, 1, 0, 0, 3, 2, 0, 2, 3, 2, 1, 1, 0, 1, 3, 2, 0, 1, 0, 2, 1, 1, 2, 0, 0, 2, 0, 1, 3)
   True          41          0  (2, 3, 0, 2, 3, 0, 1, 1, 1, 3, 3, 2, 0, 2, 0, 3, 1, 0, 2, 3, 2, 2, 0, 1, 3, 0, 3, 0, 1, 2)
   True          43          0  (1, 0, 2, 0, 3, 3, 0, 1, 2, 3, 0, 0, 2, 1, 2, 1, 0, 2, 3, 1, 3, 3, 2, 0, 1, 0, 1, 2, 2, 3)
   True          38          0  (2, 3, 0, 1, 0, 0, 3, 1, 3, 2, 2, 0, 3, 1, 2, 2, 0, 3, 1, 1, 1, 2, 2, 0, 1, 3, 0, 1, 1, 3)
   True         441          0  (3, 2, 1, 0, 2, 0, 1, 3, 3, 2, 1, 0, 0, 2, 3, 2, 1, 3, 0, 2, 0, 0, 3, 1, 2, 3, 1, 2, 2, 0)
   True          62          0  (2, 1, 0, 2, 3, 3, 0, 2, 1, 3, 0, 2, 1, 2, 1, 0, 0, 1, 2, 3, 3, 2, 1, 0, 3, 1, 3, 1, 0, 2)
   True          62          0  (3, 1, 0, 3, 0, 0, 2, 3, 2, 1, 2, 0, 0, 3, 1, 1, 2, 3, 0, 3, 3, 0, 1, 2, 3, 2, 1, 3, 3, 0)
   True         154          0  (2, 1, 0, 1, 0, 0, 3, 3, 3, 2, 1, 0, 0, 2, 1, 2, 3, 1, 0, 1, 1, 0, 2, 3, 1, 3, 2, 1, 1, 0)
   True          67          0  (3, 0, 2, 3, 0, 2, 1, 1, 2, 0, 3, 3, 2, 0, 2, 0, 3, 2, 1, 0, 3, 1, 2, 3, 0, 2, 3, 2, 0, 1)
   True          30          0  (3, 2, 3, 1, 1, 1, 0, 0, 3, 2, 3, 0, 1, 2, 3, 2, 0, 1, 3, 1, 3, 3, 3, 0, 1, 1, 0, 1, 3, 2)
   True          84          0  (0, 3, 1, 3, 3, 1, 2, 2, 2, 0, 3, 3, 1, 0, 1, 0, 3, 1, 2, 1, 3, 0, 0, 3, 1, 1, 3, 1, 0, 2)
   True         169          0  (1, 3, 1, 0, 2, 2, 0, 0, 2, 3, 3, 0, 2, 1, 3, 3, 0, 2, 0, 2, 0, 1, 1, 3, 0, 1, 3, 0, 0, 2)
   True         307          0  (2, 0, 1, 3, 3, 3, 0, 2, 1, 0, 0, 3, 1, 2, 1, 2, 3, 1, 0, 2, 0, 0, 1, 3, 0, 1, 3, 1, 0, 2)
   True          78          0  (0, 3, 0, 2, 1, 1, 2, 2, 1, 3, 3, 0, 1, 0, 3, 3, 2, 1, 0, 1, 0, 0, 0, 3, 2, 1, 3, 2, 0, 1)
   True         286          0  (2, 1, 2, 0, 3, 3, 1, 0, 2, 1, 1, 0, 2, 0, 2, 3, 3, 2, 1, 0, 1, 1, 2, 3, 0, 2, 0, 2, 3, 1)
   True         156          0  (0, 2, 0, 2, 3, 1, 2, 3, 0, 1, 2, 2, 0, 3, 1, 1, 2, 3, 0, 1, 0, 0, 0, 2, 1, 3, 2, 1, 0, 3)
   True         412          0  (1, 3, 2, 3, 2, 2, 3, 0, 0, 1, 1, 2, 3, 0, 1, 1, 2, 3, 0, 1, 3, 0, 3, 2, 1, 2, 1, 3, 3, 0)
   True          52          0  (2, 1, 3, 1, 0, 3, 1, 0, 3, 2, 2, 0, 1, 0, 2, 2, 3, 1, 0, 1, 1, 0, 2, 3, 1, 3, 2, 1, 1, 0)
   True         136          0  (0, 3, 2, 1, 1, 1, 2, 0, 0, 3, 3, 1, 2, 0, 3, 2, 1, 0, 1, 0, 3, 2, 2, 3, 1, 0, 3, 1, 2, 0)
   True          27          0  (3, 2, 3, 1, 1, 1, 0, 0, 3, 2, 2, 1, 1, 3, 2, 0, 0, 3, 1, 1, 3, 2, 3, 0, 2, 2, 0, 3, 3, 1)
   True          51          0  (3, 1, 2, 1, 2, 2, 1, 0, 0, 3, 3, 1, 1, 0, 3, 2, 2, 0, 3, 0, 0, 1, 3, 2, 0, 1, 2, 3, 3, 1)
   True          38          0  (1, 0, 3, 2, 2, 3, 0, 2, 3, 1, 1, 2, 3, 2, 3, 1, 0, 3, 2, 1, 2, 2, 2, 0, 3, 3, 0, 3, 2, 1)
   True          99          0  (3, 2, 1, 0, 0, 0, 1, 3, 3, 2, 2, 1, 1, 3, 2, 2, 0, 3, 1, 3, 3, 1, 2, 0, 3, 0, 2, 3, 3, 1)
   True         116          0  (0, 3, 0, 1, 2, 2, 1, 1, 0, 3, 3, 1, 2, 0, 3, 3, 1, 0, 2, 0, 2, 3, 3, 1, 0, 0, 1, 0, 3, 2)
   True         136          0  (0, 1, 2, 0, 2, 2, 3, 0, 2, 1, 3, 0, 2, 1, 0, 3, 3, 2, 1, 2, 1, 1, 1, 0, 3, 2, 0, 3, 1, 2)
   True          58          0  (0, 1, 2, 1, 2, 2, 1, 3, 2, 0, 0, 1, 2, 3, 0, 0, 1, 3, 2, 3, 2, 2, 0, 1, 3, 3, 1, 3, 0, 2)
   True         291          0  (2, 1, 0, 2, 0, 0, 1, 2, 0, 3, 3, 1, 1, 2, 3, 3, 0, 2, 0, 2, 0, 3, 3, 1, 0, 2, 1, 0, 0, 2)
   True         419          0  (0, 1, 2, 0, 3, 3, 2, 0, 2, 1, 1, 0, 2, 0, 1, 3, 3, 2, 0, 2, 2, 0, 1, 3, 0, 1, 3, 1, 0, 2)
   True         740          0  (1, 3, 2, 1, 3, 0, 2, 1, 0, 3, 2, 2, 0, 3, 0, 3, 2, 0, 2, 0, 0, 1, 3, 2, 0, 1, 3, 0, 0, 1)
   True         184          0  (0, 2, 3, 1, 3, 3, 2, 1, 3, 2, 2, 0, 0, 1, 0, 2, 3, 1, 0, 1, 0, 2, 2, 3, 0, 1, 3, 0, 0, 1)
   True          27          0  (1, 3, 2, 1, 3, 2, 0, 1, 2, 3, 3, 1, 2, 1, 2, 0, 0, 2, 3, 2, 2, 3, 1, 0, 2, 1, 0, 1, 2, 3)
   True         134          0  (3, 1, 0, 3, 1, 0, 2, 2, 2, 1, 3, 0, 0, 1, 0, 1, 3, 2, 3, 2, 3, 0, 0, 1, 3, 2, 1, 3, 3, 2)
   True          21          0  (0, 3, 1, 2, 3, 1, 2, 2, 3, 0, 3, 1, 1, 0, 1, 0, 3, 2, 3, 2, 3, 0, 0, 1, 3, 2, 1, 3, 0, 2)
   True          25          0  (1, 0, 3, 2, 2, 3, 0, 2, 0, 1, 0, 2, 3, 1, 3, 3, 2, 0, 2, 0, 2, 1, 3, 2, 0, 0, 3, 0, 2, 1)
   True          88          0  (3, 0, 2, 1, 2, 2, 1, 3, 2, 0, 0, 3, 2, 3, 0, 0, 1, 2, 3, 2, 1, 0, 3, 1, 0, 2, 1, 3, 0, 2)
   True         129          0  (3, 1, 2, 1, 2, 2, 1, 3, 2, 0, 0, 3, 1, 3, 0, 0, 2, 1, 2, 1, 2, 0, 0, 3, 2, 1, 3, 2, 2, 1)
   True         174          0  (3, 2, 0, 1, 1, 0, 2, 3, 0, 2, 1, 1, 0, 3, 0, 2, 1, 0, 3, 0, 0, 3, 2, 1, 0, 1, 2, 0, 0, 3)
   True          65          0  (0, 3, 0, 2, 2, 1, 3, 2, 0, 1, 0, 2, 3, 2, 1, 1, 0, 3, 2, 1, 2, 2, 2, 0, 1, 3, 0, 1, 2, 3)
   True          96          0  (3, 1, 2, 3, 0, 2, 1, 3, 2, 1, 1, 3, 2, 3, 2, 0, 0, 2, 1, 2, 2, 3, 1, 0, 2, 3, 0, 2, 2, 3)
   True          49          0  (3, 0, 1, 2, 2, 2, 0, 3, 1, 0, 0, 2, 1, 3, 1, 3, 2, 1, 0, 1, 2, 0, 3, 2, 1, 1, 3, 1, 2, 0)
   True         158          0  (0, 2, 1, 3, 2, 1, 3, 0, 1, 2, 3, 0, 1, 2, 0, 2, 3, 1, 3, 0, 0, 2, 1, 3, 0, 1, 0, 1, 3, 2)
   True          86          0  (3, 2, 0, 1, 0, 0, 2, 1, 2, 3, 3, 1, 2, 1, 3, 0, 0, 2, 1, 1, 1, 3, 3, 0, 1, 2, 0, 1, 1, 2)
   True         129          0  (3, 1, 3, 1, 2, 0, 1, 2, 2, 0, 1, 1, 3, 2, 0, 0, 1, 3, 2, 3, 3, 2, 0, 1, 3, 1, 0, 3, 3, 2)
   True         386          0  (0, 2, 1, 3, 1, 1, 2, 3, 0, 2, 2, 3, 0, 3, 0, 1, 1, 0, 2, 3, 0, 2, 2, 1, 0, 3, 1, 0, 2, 3)
   True         103          0  (1, 2, 0, 1, 2, 0, 3, 1, 0, 3, 3, 1, 0, 2, 0, 3, 1, 2, 0, 0, 1, 3, 2, 1, 0, 2, 1, 2, 0, 3)
   True         146          0  (1, 3, 0, 2, 2, 0, 3, 2, 0, 1, 1, 3, 0, 2, 1, 1, 3, 2, 0, 1, 0, 0, 2, 3, 1, 2, 3, 1, 1, 0)
   True          32          0  (1, 0, 2, 3, 0, 2, 3, 1, 1, 0, 3, 2, 2, 0, 2, 0, 1, 3, 2, 2, 1, 0, 3, 1, 2, 3, 1, 2, 2, 0)
   True         103          0  (2, 3, 1, 0, 1, 1, 3, 0, 1, 2, 3, 0, 1, 0, 2, 3, 3, 1, 0, 1, 0, 0, 2, 3, 0, 1, 3, 2, 0, 1)
   True         313          0  (1, 0, 3, 2, 3, 3, 2, 1, 3, 0, 0, 2, 3, 1, 0, 0, 2, 3, 2, 3, 2, 0, 0, 1, 2, 3, 1, 2, 2, 3)
   True         104          0  (2, 3, 0, 1, 1, 1, 0, 2, 2, 3, 0, 1, 1, 3, 2, 0, 0, 2, 1, 3, 1, 1, 1, 0, 2, 3, 0, 2, 2, 3)
   True          70          0  (0, 2, 1, 2, 1, 1, 2, 3, 1, 0, 0, 3, 2, 3, 0, 0, 1, 2, 1, 2, 3, 0, 0, 3, 1, 2, 3, 1, 0, 2)
   True          43          0  (2, 1, 0, 1, 3, 0, 1, 2, 2, 3, 3, 0, 0, 2, 0, 3, 1, 2, 0, 3, 1, 0, 0, 1, 3, 2, 1, 3, 3, 2)
   True         331          0  (1, 2, 0, 2, 0, 0, 2, 3, 0, 1, 1, 2, 2, 3, 1, 1, 0, 3, 2, 3, 2, 2, 2, 1, 0, 3, 1, 0, 0, 3)
   True          76          0  (2, 0, 3, 0, 3, 3, 1, 1, 1, 2, 2, 3, 3, 0, 2, 2, 1, 0, 3, 2, 3, 3, 0, 1, 2, 1, 2, 0, 0, 3)
   True          99          0  (0, 1, 2, 3, 2, 2, 1, 0, 0, 1, 1, 3, 3, 0, 3, 2, 2, 0, 1, 0, 3, 3, 1, 2, 3, 0, 2, 1, 3, 0)
   True          27          0  (1, 3, 2, 0, 0, 0, 2, 1, 1, 3, 3, 0, 0, 1, 3, 2, 2, 1, 0, 1, 0, 0, 3, 2, 1, 1, 2, 3, 3, 0)
   True          71          0  (1, 3, 0, 2, 2, 2, 0, 1, 1, 3, 3, 0, 0, 1, 3, 3, 2, 1, 0, 1, 2, 3, 3, 2, 1, 1, 2, 1, 3, 0)
   True         194          0  (3, 1, 2, 3, 1, 0, 2, 3, 1, 0, 2, 2, 1, 3, 0, 0, 2, 3, 2, 3, 2, 1, 0, 2, 3, 3, 0, 3, 2, 1)
   True          20          0  (0, 1, 3, 0, 2, 2, 3, 0, 1, 2, 3, 0, 1, 0, 1, 2, 3, 1, 0, 0, 3, 2, 1, 3, 0, 1, 3, 0, 0, 2)
   True         201          0  (3, 1, 3, 0, 0, 2, 1, 0, 1, 2, 3, 0, 1, 0, 2, 3, 3, 1, 0, 1, 0, 0, 2, 3, 1, 2, 3, 2, 1, 0)
   True         198          0  (1, 2, 3, 1, 0, 3, 2, 1, 2, 0, 2, 1, 3, 0, 3, 3, 1, 2, 1, 2, 1, 0, 3, 1, 2, 2, 3, 2, 1, 0)
   True         239          0  (0, 3, 2, 0, 3, 2, 1, 0, 1, 3, 1, 0, 2, 3, 2, 2, 0, 1, 3, 1, 3, 2, 3, 0, 2, 1, 0, 3, 2, 1)
   True         365          0  (1, 3, 2, 3, 0, 2, 3, 0, 2, 1, 3, 0, 2, 1, 2, 1, 0, 3, 2, 3, 2, 2, 2, 0, 1, 3, 0, 1, 2, 3)
   True         346          0  (0, 2, 3, 0, 1, 3, 2, 1, 3, 2, 2, 0, 3, 1, 3, 2, 0, 1, 0, 1, 1, 3, 3, 2, 0, 3, 2, 0, 0, 1)
   True         140          0  (3, 1, 0, 1, 0, 0, 1, 2, 0, 3, 1, 1, 0, 2, 3, 2, 1, 0, 3, 3, 3, 2, 0, 1, 3, 0, 1, 0, 3, 2)
   True         298          0  (2, 1, 0, 1, 0, 3, 1, 2, 2, 3, 0, 1, 1, 2, 3, 0, 0, 2, 3, 2, 3, 3, 3, 0, 1, 2, 0, 1, 1, 2)
   True         105          0  (1, 2, 3, 0, 0, 0, 3, 1, 1, 2, 3, 0, 0, 2, 1, 2, 3, 1, 3, 1, 3, 0, 2, 3, 1, 0, 2, 1, 1, 0)
   True         285          0  (2, 0, 1, 2, 0, 3, 1, 2, 3, 0, 1, 2, 3, 0, 2, 1, 1, 3, 0, 2, 0, 0, 3, 1, 2, 3, 2, 3, 1, 0)
   True         253          0  (3, 0, 2, 3, 1, 1, 2, 3, 1, 0, 0, 2, 2, 3, 0, 0, 1, 3, 2, 0, 1, 2, 3, 1, 0, 3, 1, 0, 0, 2)
   True         118          0  (0, 3, 2, 0, 2, 2, 3, 0, 2, 3, 3, 1, 1, 0, 1, 3, 2, 0, 2, 0, 2, 1, 1, 3, 2, 0, 3, 2, 2, 0)
   True          56          0  (0, 2, 0, 3, 2, 3, 1, 1, 0, 2, 0, 3, 3, 2, 3, 1, 1, 0, 2, 0, 3, 2, 2, 3, 1, 0, 3, 1, 1, 0)
   True          96          0  (3, 1, 3, 0, 0, 2, 1, 0, 1, 2, 1, 0, 3, 0, 3, 2, 1, 3, 0, 0, 0, 2, 3, 1, 0, 3, 1, 0, 0, 2)
   True         409          0  (2, 0, 1, 0, 3, 1, 0, 3, 3, 2, 2, 0, 1, 3, 2, 1, 0, 3, 2, 2, 0, 1, 3, 0, 2, 3, 0, 3, 2, 1)
   True         110          0  (1, 3, 0, 3, 0, 0, 3, 1, 1, 2, 3, 0, 0, 1, 2, 2, 3, 1, 0, 2, 3, 0, 1, 3, 2, 1, 3, 1, 2, 0)
   True         272          0  (2, 1, 3, 2, 3, 3, 1, 2, 3, 0, 0, 1, 1, 2, 0, 0, 3, 2, 3, 0, 3, 1, 2, 3, 0, 1, 0, 2, 2, 1)
   True         159          0  (0, 1, 0, 2, 2, 2, 3, 3, 0, 1, 1, 2, 2, 0, 1, 3, 3, 0, 1, 2, 0, 1, 1, 3, 0, 2, 3, 0, 0, 2)
   True         132          0  (2, 0, 1, 2, 1, 1, 3, 2, 1, 0, 3, 2, 1, 0, 2, 0, 3, 1, 2, 1, 2, 0, 2, 3, 0, 1, 3, 2, 0, 1)
   True         188          0  (1, 3, 0, 1, 2, 2, 0, 1, 0, 3, 3, 2, 0, 1, 3, 3, 2, 1, 0, 1, 0, 0, 3, 2, 1, 1, 2, 3, 3, 0)
   True          49          0  (0, 1, 3, 1, 1, 3, 2, 2, 3, 0, 0, 2, 3, 1, 0, 0, 2, 1, 2, 1, 2, 3, 0, 2, 1, 3, 0, 1, 1, 3)
   True         145          0  (0, 2, 1, 0, 1, 1, 3, 3, 3, 2, 0, 0, 1, 2, 0, 2, 3, 1, 3, 1, 0, 0, 0, 2, 3, 1, 2, 3, 3, 1)
   True          48          0  (0, 2, 1, 0, 1, 3, 2, 0, 1, 3, 2, 0, 1, 0, 3, 2, 2, 1, 3, 1, 3, 3, 0, 2, 3, 1, 2, 0, 3, 1)
   True         151          0  (3, 0, 2, 0, 2, 1, 0, 3, 2, 1, 2, 3, 0, 3, 1, 1, 2, 0, 3, 0, 3, 1, 3, 2, 1, 0, 2, 3, 3, 0)
   True          47          0  (1, 3, 0, 3, 0, 2, 3, 1, 0, 2, 0, 1, 3, 1, 2, 2, 0, 3, 0, 3, 0, 2, 2, 1, 0, 3, 1, 0, 0, 3)
   True         143          0  (1, 3, 0, 2, 0, 0, 2, 2, 3, 1, 1, 2, 0, 3, 1, 0, 2, 3, 1, 3, 2, 0, 0, 2, 1, 3, 2, 1, 0, 3)
   True         372          0  (3, 2, 1, 0, 0, 1, 2, 0, 2, 3, 3, 1, 2, 0, 3, 3, 1, 2, 1, 2, 1, 3, 3, 0, 1, 2, 0, 1, 3, 2)
   True          54          0  (2, 0, 3, 2, 0, 1, 3, 2, 3, 0, 3, 1, 1, 0, 1, 0, 3, 2, 3, 2, 1, 0, 1, 3, 2, 2, 1, 2, 3, 0)
   True         142          0  (3, 1, 2, 1, 0, 2, 1, 0, 0, 3, 3, 1, 1, 0, 3, 3, 2, 0, 2, 3, 2, 1, 0, 2, 3, 1, 3, 0, 2, 1)
   True         512          0  (0, 1, 2, 3, 2, 2, 3, 0, 2, 1, 3, 3, 2, 0, 1, 1, 3, 2, 0, 2, 2, 0, 1, 3, 2, 3, 1, 2, 2, 0)
   True         190          0  (0, 1, 3, 2, 2, 3, 1, 2, 3, 0, 1, 1, 3, 0, 3, 0, 2, 3, 2, 0, 2, 1, 3, 2, 0, 1, 0, 3, 3, 1)
   True          28          0  (1, 2, 0, 2, 0, 0, 2, 1, 1, 3, 3, 0, 2, 1, 3, 3, 0, 1, 2, 3, 2, 2, 2, 0, 3, 1, 0, 3, 3, 1)
   True         159          0  (2, 0, 1, 3, 0, 3, 1, 2, 1, 0, 1, 3, 3, 0, 2, 0, 1, 2, 1, 0, 2, 3, 2, 1, 0, 3, 0, 2, 2, 3)
   True         213          0  (3, 2, 1, 3, 2, 0, 1, 3, 1, 2, 1, 3, 0, 2, 0, 2, 3, 0, 1, 1, 1, 2, 0, 3, 1, 0, 3, 0, 1, 2)
   True          55          0  (2, 1, 3, 2, 0, 3, 1, 0, 3, 1, 1, 2, 3, 2, 3, 1, 0, 3, 2, 2, 0, 1, 3, 0, 2, 3, 0, 3, 2, 1)
   True         156          0  (3, 2, 1, 0, 1, 1, 0, 0, 1, 3, 2, 0, 1, 3, 2, 3, 0, 2, 1, 1, 1, 3, 2, 0, 1, 2, 0, 2, 1, 3)
   True         258          0  (1, 3, 1, 0, 2, 0, 3, 2, 1, 3, 3, 0, 0, 1, 0, 3, 2, 1, 2, 1, 2, 3, 3, 0, 2, 1, 0, 2, 2, 1)
   True         172          0  (2, 1, 0, 2, 3, 0, 1, 2, 0, 1, 1, 3, 0, 2, 0, 1, 3, 2, 0, 0, 0, 1, 1, 3, 0, 2, 3, 0, 0, 2)
   True         241          0  (1, 3, 2, 1, 3, 0, 2, 1, 3, 0, 2, 2, 3, 1, 0, 0, 2, 1, 2, 1, 3, 3, 3, 0, 2, 1, 0, 2, 3, 1)
   True          40          0  (2, 3, 0, 1, 1, 1, 0, 2, 2, 3, 3, 1, 0, 2, 3, 3, 1, 0, 2, 0, 2, 3, 3, 1, 2, 0, 1, 2, 2, 0)
   True         103          0  (0, 2, 1, 0, 3, 3, 1, 0, 3, 2, 1, 0, 3, 2, 0, 2, 1, 3, 0, 3, 0, 0, 0, 2, 1, 3, 2, 1, 0, 3)
   True         323          0  (1, 2, 1, 0, 3, 3, 0, 0, 3, 2, 2, 0, 3, 1, 2, 2, 0, 3, 1, 3, 1, 1, 2, 0, 3, 0, 2, 3, 3, 1)
   True         181          0  (1, 3, 2, 3, 3, 2, 0, 0, 0, 1, 3, 3, 2, 1, 2, 1, 3, 2, 3, 2, 3, 1, 0, 3, 2, 2, 0, 2, 3, 1)
   True         545          0  (1, 3, 0, 1, 0, 0, 3, 1, 3, 2, 2, 1, 3, 1, 2, 0, 0, 3, 1, 1, 3, 2, 3, 0, 2, 2, 0, 3, 3, 1)
   True          64          0  (3, 1, 0, 1, 1, 2, 0, 3, 0, 2, 1, 3, 0, 3, 2, 2, 1, 0, 3, 0, 0, 3, 3, 2, 1, 1, 2, 1, 3, 0)
   True         208          0  (2, 0, 1, 0, 3, 3, 1, 2, 2, 3, 1, 1, 0, 2, 0, 3, 1, 2, 1, 0, 1, 3, 2, 1, 0, 2, 0, 2, 1, 3)
   True          29          0  (3, 0, 2, 3, 2, 2, 0, 3, 0, 1, 1, 2, 2, 3, 1, 1, 0, 3, 2, 3, 0, 2, 1, 0, 3, 3, 1, 3, 0, 2)
   True         389          0  (3, 1, 0, 1, 0, 2, 1, 3, 3, 2, 0, 1, 1, 3, 2, 0, 0, 3, 1, 1, 1, 2, 3, 0, 2, 2, 0, 3, 3, 1)
   True         181          0  (3, 1, 2, 1, 0, 0, 1, 3, 2, 0, 1, 1, 2, 3, 2, 3, 1, 2, 0, 3, 0, 0, 0, 1, 2, 2, 1, 2, 0, 3)
   True         328          0  (0, 1, 3, 0, 1, 3, 2, 0, 3, 2, 2, 1, 3, 0, 3, 2, 1, 3, 0, 2, 0, 0, 3, 1, 2, 1, 2, 3, 3, 0)
   True          59          0  (3, 2, 0, 3, 0, 0, 1, 1, 0, 2, 2, 3, 0, 3, 2, 1, 1, 0, 3, 0, 0, 2, 3, 1, 2, 2, 1, 3, 3, 0)
   True          85          0  (0, 1, 2, 3, 2, 2, 1, 0, 0, 1, 1, 3, 3, 0, 3, 2, 2, 0, 3, 0, 1, 1, 1, 2, 3, 0, 2, 3, 3, 0)
   True         779          0  (3, 0, 2, 3, 0, 1, 2, 3, 1, 0, 2, 3, 1, 0, 3, 0, 2, 1, 2, 1, 2, 0, 0, 3, 2, 1, 3, 2, 2, 1)
   True          32          0  (1, 0, 3, 0, 0, 3, 2, 1, 1, 2, 2, 3, 3, 0, 3, 2, 1, 0, 1, 3, 3, 2, 0, 1, 3, 0, 3, 0, 1, 2)
   True         139          0  (3, 0, 1, 2, 1, 1, 0, 2, 1, 3, 3, 2, 1, 2, 3, 0, 0, 1, 3, 1, 1, 2, 3, 0, 2, 2, 0, 3, 3, 1)
   True         214          0  (3, 1, 3, 1, 0, 0, 1, 2, 3, 0, 1, 1, 3, 2, 3, 0, 1, 2, 1, 2, 1, 0, 3, 1, 2, 2, 3, 2, 1, 0)
   True          55          0  (2, 3, 2, 1, 3, 1, 0, 0, 2, 3, 2, 1, 1, 3, 1, 0, 0, 2, 3, 2, 1, 3, 3, 1, 0, 2, 1, 0, 0, 2)
   True          43          0  (2, 1, 3, 2, 1, 0, 3, 2, 0, 1, 3, 3, 0, 1, 2, 1, 3, 0, 3, 0, 3, 1, 2, 3, 0, 0, 2, 0, 3, 1)
   True         154          0  (1, 0, 1, 2, 2, 2, 3, 3, 1, 0, 0, 2, 2, 1, 0, 3, 3, 1, 2, 1, 2, 2, 2, 0, 3, 1, 0, 3, 3, 1)
   True         133          0  (3, 1, 2, 3, 2, 2, 0, 0, 2, 1, 3, 3, 2, 1, 3, 0, 0, 2, 3, 2, 3, 3, 3, 0, 1, 2, 0, 1, 1, 2)
   True         456          0  (0, 3, 1, 0, 3, 2, 1, 0, 1, 2, 3, 3, 1, 0, 2, 2, 3, 0, 1, 2, 0, 1, 0, 3, 2, 3, 2, 0, 0, 1)
   True          26          0  (1, 2, 3, 0, 3, 3, 0, 0, 2, 1, 1, 0, 3, 2, 1, 1, 0, 3, 0, 3, 3, 2, 1, 0, 3, 2, 1, 3, 0, 2)
   True         278          0  (2, 0, 1, 2, 1, 1, 0, 2, 0, 3, 3, 2, 0, 2, 3, 1, 1, 0, 3, 0, 3, 3, 2, 1, 3, 0, 1, 2, 2, 0)
   True          56          0  (2, 1, 3, 0, 0, 0, 3, 2, 2, 1, 3, 0, 0, 2, 1, 3, 3, 2, 0, 0, 1, 1, 1, 3, 0, 2, 3, 0, 0, 2)
   True          67          0  (3, 0, 2, 1, 2, 1, 0, 3, 2, 0, 0, 3, 1, 2, 1, 0, 3, 1, 2, 0, 3, 2, 1, 3, 0, 1, 3, 0, 0, 2)
   True          21          0  (1, 3, 1, 0, 0, 2, 3, 0, 3, 2, 1, 0, 3, 0, 2, 1, 1, 3, 2, 0, 2, 2, 2, 1, 3, 0, 1, 3, 3, 0)
   True          89          0  (3, 0, 2, 3, 1, 2, 0, 1, 1, 0, 0, 3, 3, 1, 3, 2, 2, 1, 3, 0, 3, 3, 1, 2, 3, 0, 2, 1, 3, 0)
   True          64          0  (1, 0, 2, 3, 3, 3, 2, 1, 2, 0, 0, 3, 2, 1, 0, 1, 3, 2, 0, 2, 3, 1, 0, 3, 1, 2, 3, 0, 1, 2)
   True          21          0  (2, 0, 1, 0, 3, 1, 0, 3, 3, 2, 0, 1, 1, 3, 1, 2, 0, 3, 1, 2, 0, 1, 1, 0, 3, 3, 0, 3, 1, 2)
   True          70          0  (2, 3, 0, 1, 3, 0, 1, 2, 2, 3, 1, 1, 0, 3, 2, 3, 1, 2, 0, 3, 1, 0, 2, 1, 0, 2, 1, 2, 0, 3)
   True          40          0  (0, 2, 3, 2, 1, 3, 2, 1, 3, 0, 2, 2, 3, 0, 3, 1, 2, 3, 0, 1, 2, 0, 3, 2, 1, 3, 2, 3, 1, 0)
   True         143          0  (3, 2, 0, 1, 1, 0, 2, 1, 3, 2, 2, 1, 3, 1, 3, 0, 0, 3, 2, 1, 3, 2, 3, 0, 2, 1, 0, 3, 2, 1)
   True         359          0  (0, 2, 3, 2, 1, 3, 2, 0, 3, 1, 2, 2, 3, 1, 3, 0, 0, 3, 2, 2, 2, 1, 3, 0, 2, 3, 0, 3, 2, 1)
   True          74          0  (1, 3, 0, 2, 2, 2, 0, 1, 1, 3, 3, 2, 2, 1, 3, 0, 0, 1, 2, 1, 3, 3, 2, 0, 3, 1, 0, 2, 2, 1)
   True         380          0  (1, 2, 0, 1, 0, 0, 3, 1, 3, 2, 3, 0, 0, 2, 1, 2, 3, 1, 3, 1, 1, 0, 2, 3, 1, 0, 2, 1, 3, 0)
   True         390          0  (0, 3, 0, 3, 1, 1, 3, 2, 0, 1, 3, 3, 0, 2, 0, 1, 3, 0, 2, 1, 0, 2, 0, 3, 1, 3, 1, 0, 0, 2)
   True         187          0  (2, 0, 1, 3, 1, 1, 3, 3, 2, 0, 2, 3, 1, 0, 2, 0, 3, 2, 3, 2, 3, 1, 0, 3, 2, 2, 0, 2, 3, 1)
   True         114          0  (3, 1, 2, 3, 2, 2, 0, 3, 2, 1, 0, 3, 2, 3, 1, 1, 0, 2, 0, 2, 0, 1, 1, 3, 0, 2, 3, 0, 0, 2)
   True          31          0  (1, 3, 0, 1, 2, 2, 0, 1, 0, 3, 3, 1, 0, 1, 3, 2, 2, 0, 1, 0, 3, 1, 1, 3, 2, 0, 3, 2, 2, 0)
