Test Parameters:
	filename: graph30.txt
	numRuns: 200
	colors: 4
	max generations: 6000
	population size: 20
	mutation chance: 0.8
	tournament size: 10
	tournament chance: 0.4

Summary:
200 tests were run. 100.0% of them succeeded.
Of the successes, the average number iterations was 217.72 (min 20, max 1607).
Of the failures, the average conflicts in the best result was 0.00 (min 999999999, max 0)

All results:
Success  Iterations  Conflicts  Color Sequence
   True         676          0  (2, 0, 1, 3, 3, 1, 0, 3, 1, 2, 2, 0, 1, 3, 1, 2, 0, 1, 3, 1, 0, 2, 2, 0, 1, 1, 0, 1, 2, 3)
   True         241          0  (1, 2, 3, 1, 2, 3, 0, 1, 2, 0, 0, 3, 3, 1, 3, 0, 2, 1, 3, 0, 3, 3, 3, 2, 0, 1, 2, 0, 3, 1)
   True         200          0  (1, 3, 2, 1, 3, 0, 2, 1, 2, 3, 2, 1, 0, 3, 0, 0, 1, 2, 3, 0, 3, 3, 2, 1, 0, 1, 0, 2, 2, 3)
   True          63          0  (0, 1, 2, 3, 3, 2, 1, 3, 1, 0, 1, 3, 2, 0, 2, 2, 3, 1, 3, 1, 3, 0, 0, 2, 3, 1, 2, 3, 3, 1)
   True          77          0  (3, 1, 0, 1, 2, 0, 1, 2, 2, 3, 3, 1, 1, 2, 3, 3, 0, 2, 1, 2, 0, 3, 3, 0, 2, 2, 0, 2, 3, 1)
   True         182          0  (0, 1, 2, 3, 1, 2, 3, 0, 0, 1, 3, 3, 2, 1, 2, 2, 3, 0, 1, 0, 3, 1, 2, 3, 1, 0, 3, 2, 2, 0)
   True          28          0  (2, 3, 1, 2, 3, 1, 0, 2, 1, 3, 0, 2, 1, 3, 2, 0, 0, 1, 3, 1, 3, 3, 2, 0, 1, 1, 0, 2, 2, 3)
   True         383          0  (0, 1, 0, 2, 3, 2, 1, 3, 3, 1, 1, 2, 2, 3, 2, 0, 0, 3, 2, 1, 2, 2, 2, 0, 3, 1, 0, 3, 3, 1)
   True         267          0  (3, 1, 0, 2, 1, 0, 2, 3, 3, 1, 2, 2, 0, 1, 3, 0, 2, 3, 1, 0, 2, 1, 3, 2, 0, 3, 2, 0, 0, 1)
   True          59          0  (3, 2, 1, 0, 0, 1, 2, 0, 1, 3, 2, 0, 1, 0, 1, 2, 2, 1, 0, 3, 0, 0, 0, 2, 1, 1, 2, 1, 0, 3)
   True         112          0  (1, 3, 0, 2, 2, 2, 0, 1, 1, 3, 3, 2, 0, 1, 3, 0, 2, 1, 3, 1, 3, 3, 3, 0, 2, 1, 0, 2, 2, 1)
   True          75          0  (3, 0, 2, 1, 1, 2, 0, 1, 0, 3, 0, 1, 2, 3, 2, 2, 1, 0, 1, 0, 0, 3, 3, 2, 1, 3, 2, 1, 1, 0)
   True          92          0  (3, 2, 0, 3, 0, 0, 2, 3, 0, 1, 2, 3, 0, 3, 1, 1, 2, 0, 3, 0, 3, 3, 1, 2, 3, 0, 2, 1, 1, 0)
   True         107          0  (0, 3, 2, 3, 2, 2, 1, 1, 1, 0, 3, 2, 2, 0, 3, 0, 1, 3, 2, 2, 1, 0, 3, 1, 2, 3, 1, 3, 2, 0)
   True         605          0  (1, 0, 2, 3, 0, 2, 3, 1, 2, 0, 3, 3, 2, 0, 2, 1, 1, 2, 0, 3, 0, 0, 2, 1, 3, 3, 1, 3, 2, 0)
   True         164          0  (1, 2, 0, 1, 2, 0, 3, 1, 0, 2, 3, 3, 0, 2, 1, 2, 3, 1, 0, 2, 3, 0, 1, 3, 2, 1, 3, 1, 2, 0)
   True         206          0  (0, 1, 2, 1, 2, 2, 1, 3, 3, 0, 1, 2, 2, 0, 3, 0, 1, 3, 2, 3, 2, 0, 0, 1, 3, 3, 1, 3, 0, 2)
   True         177          0  (0, 2, 0, 3, 3, 1, 2, 3, 0, 1, 0, 2, 2, 3, 1, 1, 0, 3, 2, 1, 2, 2, 3, 0, 1, 0, 1, 3, 3, 2)
   True          83          0  (0, 2, 3, 1, 2, 1, 3, 0, 3, 2, 3, 1, 1, 0, 1, 2, 3, 0, 1, 0, 3, 2, 1, 3, 0, 0, 3, 0, 1, 2)
   True          86          0  (2, 3, 1, 2, 0, 0, 3, 2, 1, 3, 3, 2, 1, 2, 1, 0, 0, 1, 3, 3, 1, 2, 1, 0, 3, 2, 0, 3, 1, 2)
   True         500          0  (0, 1, 2, 1, 2, 3, 1, 0, 2, 3, 2, 0, 1, 0, 3, 3, 2, 1, 0, 0, 2, 3, 3, 2, 0, 1, 2, 0, 3, 1)
   True         624          0  (3, 0, 1, 0, 2, 1, 0, 2, 1, 3, 0, 0, 1, 3, 1, 2, 2, 1, 0, 1, 1, 3, 0, 2, 1, 3, 2, 1, 0, 3)
   True         286          0  (3, 0, 3, 0, 2, 1, 0, 2, 2, 1, 3, 3, 0, 2, 1, 1, 3, 0, 2, 0, 3, 2, 2, 1, 3, 0, 1, 3, 2, 0)
   True          91          0  (0, 1, 0, 2, 1, 2, 3, 3, 3, 1, 0, 0, 2, 1, 0, 1, 3, 2, 0, 2, 0, 0, 0, 1, 3, 3, 1, 3, 0, 2)
   True          96          0  (3, 1, 3, 0, 1, 0, 2, 2, 2, 1, 3, 0, 0, 1, 0, 3, 3, 2, 1, 2, 1, 0, 0, 3, 2, 0, 3, 2, 2, 1)
   True          43          0  (3, 2, 1, 3, 0, 0, 1, 3, 2, 0, 1, 1, 2, 3, 2, 0, 1, 2, 3, 0, 3, 3, 2, 1, 3, 2, 1, 2, 3, 0)
   True          68          0  (0, 1, 0, 3, 1, 3, 2, 2, 0, 1, 0, 3, 3, 1, 3, 2, 2, 0, 1, 1, 3, 3, 3, 2, 1, 0, 2, 1, 3, 0)
   True         372          0  (3, 1, 3, 2, 2, 2, 0, 0, 0, 1, 3, 2, 2, 1, 3, 1, 0, 3, 0, 3, 2, 1, 2, 0, 3, 3, 2, 3, 0, 1)
   True         474          0  (1, 0, 2, 3, 0, 2, 3, 1, 1, 0, 3, 3, 2, 0, 2, 0, 1, 2, 3, 0, 2, 3, 2, 1, 0, 1, 0, 2, 2, 3)
   True         654          0  (3, 1, 3, 2, 2, 0, 1, 2, 3, 0, 1, 2, 3, 2, 0, 1, 1, 3, 0, 3, 0, 0, 0, 1, 3, 3, 1, 3, 0, 2)
   True         235          0  (2, 1, 3, 0, 0, 3, 1, 0, 1, 2, 1, 3, 3, 0, 2, 2, 1, 0, 1, 0, 1, 3, 2, 1, 0, 0, 2, 0, 1, 3)
   True          72          0  (3, 1, 3, 0, 0, 0, 2, 2, 3, 1, 3, 0, 0, 1, 3, 2, 2, 3, 1, 3, 1, 1, 0, 2, 3, 0, 2, 0, 3, 1)
   True          49          0  (2, 3, 0, 1, 1, 0, 3, 1, 2, 3, 3, 0, 2, 1, 2, 3, 0, 1, 2, 3, 0, 2, 2, 0, 3, 1, 0, 3, 2, 1)
   True         137          0  (0, 1, 2, 3, 3, 2, 1, 3, 2, 1, 1, 3, 2, 3, 2, 0, 0, 2, 1, 3, 1, 1, 2, 0, 3, 3, 0, 3, 2, 1)
   True         434          0  (0, 1, 2, 3, 3, 2, 1, 0, 2, 1, 1, 3, 2, 3, 2, 1, 0, 2, 0, 1, 0, 3, 2, 0, 1, 2, 1, 2, 0, 3)
   True          83          0  (2, 1, 3, 2, 0, 3, 1, 2, 3, 0, 1, 2, 3, 0, 3, 0, 1, 3, 2, 3, 2, 0, 0, 1, 3, 3, 1, 3, 0, 2)
   True         125          0  (2, 0, 3, 0, 3, 3, 0, 2, 2, 1, 1, 0, 0, 2, 1, 3, 3, 2, 1, 2, 1, 0, 0, 3, 1, 2, 3, 1, 1, 2)
   True        1313          0  (3, 1, 2, 1, 2, 0, 1, 3, 2, 0, 2, 1, 1, 3, 0, 0, 2, 3, 1, 3, 1, 1, 0, 2, 3, 3, 2, 3, 0, 1)
   True        1607          0  (0, 3, 2, 0, 2, 2, 1, 0, 2, 3, 1, 0, 2, 3, 0, 3, 1, 2, 1, 2, 0, 3, 3, 0, 1, 2, 0, 1, 1, 2)
   True          48          0  (0, 2, 1, 3, 3, 3, 1, 0, 1, 2, 2, 0, 3, 0, 2, 2, 1, 3, 0, 3, 1, 0, 0, 1, 2, 3, 1, 2, 2, 3)
   True         432          0  (2, 1, 3, 0, 0, 0, 3, 2, 3, 1, 3, 0, 0, 1, 2, 1, 3, 2, 0, 2, 0, 1, 0, 3, 2, 2, 3, 0, 0, 1)
   True          52          0  (1, 3, 2, 0, 0, 2, 3, 0, 2, 1, 3, 0, 2, 0, 1, 1, 3, 2, 3, 2, 2, 0, 0, 1, 3, 0, 1, 3, 3, 2)
   True          54          0  (0, 1, 3, 0, 1, 3, 2, 0, 3, 2, 2, 1, 3, 1, 3, 2, 0, 3, 1, 3, 1, 1, 2, 0, 3, 3, 0, 3, 2, 1)
   True          39          0  (0, 2, 1, 2, 2, 1, 3, 3, 3, 0, 2, 1, 1, 0, 1, 0, 3, 2, 3, 2, 3, 1, 1, 0, 3, 2, 0, 3, 1, 2)
   True         157          0  (0, 2, 0, 2, 1, 3, 2, 1, 1, 3, 0, 0, 2, 1, 3, 3, 0, 2, 1, 1, 0, 3, 2, 0, 3, 2, 0, 2, 3, 1)
   True         111          0  (1, 3, 0, 3, 3, 2, 0, 1, 0, 2, 0, 1, 3, 1, 2, 2, 0, 3, 0, 3, 1, 2, 2, 1, 0, 3, 1, 0, 2, 3)
   True          59          0  (3, 0, 2, 0, 0, 2, 1, 3, 2, 1, 1, 3, 2, 0, 2, 1, 3, 0, 3, 0, 2, 1, 1, 2, 3, 0, 2, 3, 1, 0)
   True         109          0  (0, 2, 3, 1, 2, 3, 1, 1, 0, 2, 0, 3, 3, 2, 0, 2, 1, 0, 1, 3, 3, 2, 0, 1, 3, 0, 3, 0, 1, 2)
   True         128          0  (2, 0, 3, 1, 1, 3, 0, 1, 3, 2, 2, 0, 3, 1, 2, 2, 0, 1, 0, 1, 1, 3, 2, 0, 1, 3, 2, 1, 0, 3)
   True         517          0  (2, 1, 0, 1, 0, 0, 3, 3, 0, 2, 2, 1, 0, 1, 2, 2, 3, 0, 1, 0, 3, 1, 1, 2, 3, 0, 2, 3, 1, 0)
   True          95          0  (3, 2, 3, 0, 0, 0, 2, 1, 1, 2, 2, 0, 3, 1, 3, 3, 0, 1, 0, 3, 0, 2, 1, 0, 3, 1, 3, 1, 0, 2)
   True          79          0  (2, 3, 0, 3, 0, 0, 1, 1, 1, 2, 2, 0, 0, 3, 2, 2, 1, 3, 0, 2, 0, 0, 3, 1, 2, 3, 2, 3, 1, 0)
   True         247          0  (0, 1, 2, 1, 1, 2, 3, 3, 3, 0, 1, 2, 2, 0, 2, 0, 3, 1, 2, 2, 3, 0, 1, 3, 2, 1, 3, 1, 2, 0)
   True          66          0  (1, 3, 2, 1, 3, 2, 0, 1, 2, 0, 3, 3, 2, 1, 2, 0, 3, 1, 2, 2, 2, 0, 1, 3, 2, 1, 3, 1, 2, 0)
   True          82          0  (0, 1, 3, 2, 2, 3, 1, 2, 3, 1, 0, 2, 3, 2, 3, 0, 0, 3, 2, 1, 2, 2, 3, 0, 2, 3, 0, 3, 2, 1)
   True         216          0  (3, 1, 0, 1, 1, 0, 2, 3, 3, 2, 1, 1, 0, 3, 0, 0, 1, 3, 2, 0, 1, 2, 3, 1, 0, 3, 0, 3, 1, 2)
   True          26          0  (1, 3, 2, 1, 0, 0, 2, 1, 2, 3, 2, 0, 0, 1, 3, 3, 2, 1, 2, 1, 2, 0, 3, 2, 1, 0, 3, 1, 2, 0)
   True         157          0  (1, 0, 3, 2, 2, 3, 0, 2, 3, 1, 0, 2, 3, 2, 1, 0, 0, 3, 2, 3, 2, 2, 2, 0, 1, 1, 0, 1, 2, 3)
   True         150          0  (0, 2, 0, 1, 3, 1, 2, 3, 3, 2, 2, 0, 1, 3, 1, 2, 0, 1, 0, 1, 0, 2, 3, 0, 1, 1, 3, 1, 0, 2)
   True         369          0  (0, 3, 1, 0, 3, 1, 2, 0, 2, 3, 2, 0, 1, 3, 1, 3, 0, 1, 2, 1, 0, 3, 2, 0, 1, 1, 0, 2, 2, 3)
   True         217          0  (2, 1, 3, 1, 1, 3, 0, 2, 3, 0, 0, 2, 3, 2, 3, 0, 1, 3, 1, 0, 1, 2, 3, 1, 0, 2, 0, 3, 3, 2)
   True         132          0  (0, 3, 1, 2, 1, 1, 2, 0, 1, 3, 2, 2, 1, 0, 3, 3, 2, 0, 1, 3, 2, 1, 0, 2, 3, 0, 2, 3, 3, 1)
   True         385          0  (0, 1, 0, 2, 3, 3, 1, 2, 0, 3, 1, 2, 0, 2, 0, 1, 1, 0, 2, 0, 0, 3, 2, 1, 0, 3, 1, 0, 0, 3)
   True         674          0  (3, 2, 0, 2, 1, 1, 0, 3, 3, 1, 0, 0, 2, 3, 2, 1, 0, 3, 2, 3, 0, 2, 2, 1, 0, 3, 1, 0, 0, 3)
   True         332          0  (3, 1, 2, 3, 1, 2, 0, 3, 2, 0, 1, 3, 2, 3, 2, 1, 1, 2, 0, 3, 3, 0, 2, 1, 3, 2, 3, 2, 1, 0)
   True         212          0  (3, 1, 3, 0, 1, 0, 2, 2, 2, 1, 3, 0, 0, 1, 0, 3, 3, 2, 1, 1, 1, 0, 0, 3, 2, 0, 3, 2, 2, 1)
   True          39          0  (2, 3, 0, 1, 3, 0, 1, 1, 2, 3, 3, 1, 0, 2, 0, 0, 1, 2, 3, 0, 2, 3, 2, 1, 0, 1, 0, 2, 2, 3)
   True         133          0  (2, 0, 3, 2, 3, 3, 1, 1, 1, 0, 0, 3, 3, 2, 0, 0, 1, 2, 1, 2, 1, 3, 0, 1, 2, 3, 0, 2, 1, 3)
   True         104          0  (3, 2, 1, 3, 0, 1, 2, 3, 1, 2, 2, 0, 1, 0, 1, 2, 3, 1, 0, 1, 3, 0, 2, 3, 1, 1, 3, 2, 2, 0)
   True         263          0  (0, 3, 2, 1, 1, 1, 2, 0, 0, 3, 2, 2, 1, 3, 0, 3, 2, 1, 2, 1, 1, 0, 0, 3, 2, 0, 3, 2, 2, 1)
   True          55          0  (1, 0, 3, 1, 2, 2, 3, 1, 2, 0, 0, 1, 2, 1, 0, 0, 3, 2, 3, 0, 2, 1, 2, 3, 0, 1, 0, 2, 2, 1)
   True         308          0  (2, 0, 3, 1, 3, 3, 1, 2, 2, 0, 0, 1, 1, 2, 0, 3, 3, 2, 0, 2, 0, 0, 0, 3, 2, 1, 3, 2, 2, 1)
   True          64          0  (2, 1, 3, 0, 3, 3, 1, 0, 3, 2, 2, 0, 3, 0, 2, 2, 1, 3, 1, 2, 1, 0, 3, 1, 2, 0, 2, 3, 1, 0)
   True         136          0  (3, 2, 1, 2, 0, 1, 2, 3, 3, 0, 2, 2, 1, 0, 1, 1, 2, 3, 0, 0, 2, 1, 1, 2, 3, 3, 2, 3, 1, 0)
   True          56          0  (0, 2, 1, 3, 3, 1, 2, 3, 2, 0, 2, 3, 1, 0, 1, 1, 3, 2, 0, 1, 3, 0, 2, 3, 1, 2, 3, 2, 1, 0)
   True          65          0  (2, 1, 0, 1, 3, 0, 1, 3, 0, 2, 2, 1, 0, 3, 2, 3, 1, 0, 2, 3, 2, 2, 2, 1, 0, 0, 1, 0, 2, 3)
   True         117          0  (2, 3, 0, 3, 1, 0, 3, 2, 2, 1, 1, 3, 0, 2, 0, 0, 3, 2, 1, 0, 3, 1, 2, 3, 0, 2, 3, 0, 0, 1)
   True          67          0  (0, 1, 0, 2, 2, 3, 1, 2, 3, 1, 1, 2, 3, 2, 3, 0, 0, 3, 2, 1, 1, 2, 3, 0, 1, 3, 1, 3, 0, 2)
   True          48          0  (3, 0, 1, 2, 1, 1, 0, 2, 1, 3, 0, 2, 1, 2, 3, 3, 0, 1, 2, 3, 1, 2, 1, 0, 3, 0, 3, 1, 1, 2)
   True         126          0  (1, 2, 3, 1, 0, 3, 2, 1, 3, 2, 0, 0, 3, 1, 3, 2, 0, 1, 3, 2, 0, 3, 3, 0, 1, 1, 0, 1, 3, 2)
   True          76          0  (3, 0, 2, 3, 2, 2, 0, 3, 2, 1, 0, 0, 2, 1, 3, 1, 0, 3, 0, 3, 0, 1, 2, 0, 3, 3, 2, 3, 0, 1)
   True         388          0  (2, 1, 2, 3, 1, 3, 0, 0, 2, 1, 1, 3, 3, 2, 3, 0, 0, 2, 1, 2, 3, 1, 1, 3, 0, 2, 3, 0, 1, 2)
   True         258          0  (0, 2, 3, 0, 2, 3, 1, 0, 3, 1, 2, 0, 3, 0, 3, 2, 2, 3, 0, 3, 3, 0, 1, 2, 3, 1, 2, 3, 3, 0)
   True         190          0  (3, 0, 2, 3, 2, 2, 0, 3, 0, 1, 1, 3, 0, 3, 1, 2, 2, 0, 3, 0, 3, 3, 1, 2, 0, 1, 2, 1, 0, 3)
   True         135          0  (3, 0, 1, 2, 1, 1, 0, 2, 1, 3, 3, 0, 1, 2, 3, 3, 0, 2, 0, 2, 1, 1, 1, 3, 0, 2, 3, 0, 0, 2)
   True         102          0  (0, 1, 0, 3, 1, 2, 3, 3, 0, 1, 0, 3, 2, 1, 2, 2, 3, 0, 3, 0, 3, 1, 2, 3, 0, 0, 2, 0, 3, 1)
   True          27          0  (2, 3, 0, 1, 1, 0, 3, 1, 2, 3, 3, 0, 0, 2, 0, 3, 1, 2, 0, 2, 0, 0, 0, 1, 3, 2, 1, 3, 3, 2)
   True          50          0  (2, 3, 0, 1, 1, 1, 0, 2, 0, 3, 3, 1, 0, 2, 3, 3, 1, 2, 1, 3, 1, 0, 2, 1, 3, 0, 3, 2, 1, 0)
   True          44          0  (3, 2, 1, 0, 1, 1, 2, 0, 1, 3, 3, 0, 1, 0, 3, 2, 2, 1, 0, 1, 0, 0, 3, 2, 1, 1, 2, 3, 3, 0)
   True         158          0  (1, 0, 2, 0, 0, 2, 3, 3, 2, 1, 1, 3, 2, 0, 1, 1, 3, 0, 2, 0, 3, 2, 1, 3, 0, 0, 3, 0, 1, 2)
   True         535          0  (2, 1, 0, 2, 1, 0, 3, 2, 3, 1, 3, 2, 0, 1, 0, 0, 2, 3, 2, 3, 2, 1, 1, 0, 2, 1, 0, 2, 2, 3)
   True         102          0  (1, 2, 0, 2, 3, 0, 2, 3, 3, 1, 2, 2, 0, 3, 0, 1, 2, 0, 3, 0, 2, 1, 3, 2, 0, 0, 2, 0, 3, 1)
   True         140          0  (3, 1, 2, 0, 2, 2, 0, 0, 3, 1, 1, 0, 2, 3, 1, 2, 0, 3, 1, 3, 0, 2, 1, 0, 3, 3, 0, 3, 1, 2)
   True          51          0  (2, 1, 2, 3, 1, 3, 0, 0, 2, 1, 2, 3, 3, 1, 2, 0, 0, 2, 3, 2, 3, 1, 1, 0, 2, 1, 0, 2, 2, 3)
   True         195          0  (3, 2, 1, 3, 2, 0, 1, 3, 1, 2, 1, 3, 0, 2, 0, 2, 3, 1, 0, 1, 0, 2, 0, 3, 1, 1, 3, 1, 0, 2)
   True         419          0  (0, 3, 2, 1, 1, 2, 3, 1, 3, 0, 3, 2, 2, 0, 2, 0, 1, 3, 2, 3, 2, 0, 0, 1, 2, 3, 1, 2, 0, 3)
   True          66          0  (0, 2, 1, 0, 3, 1, 2, 0, 2, 3, 2, 0, 1, 3, 1, 3, 0, 1, 2, 2, 0, 3, 3, 0, 1, 1, 0, 1, 3, 2)
   True         114          0  (3, 0, 3, 0, 1, 2, 0, 1, 3, 2, 0, 0, 3, 1, 3, 2, 0, 1, 3, 1, 3, 3, 3, 2, 0, 0, 2, 0, 3, 1)
   True          89          0  (3, 1, 2, 1, 0, 2, 1, 0, 2, 3, 1, 0, 2, 3, 2, 3, 0, 1, 2, 1, 0, 2, 2, 0, 3, 1, 0, 3, 3, 1)
   True         120          0  (1, 0, 3, 0, 2, 3, 0, 2, 2, 1, 0, 0, 3, 2, 1, 1, 0, 2, 3, 2, 2, 3, 3, 1, 0, 0, 1, 0, 3, 2)
   True         168          0  (2, 1, 3, 0, 3, 3, 0, 2, 2, 1, 1, 0, 0, 2, 1, 3, 3, 2, 1, 2, 1, 0, 1, 3, 2, 0, 3, 1, 1, 0)
   True          42          0  (0, 1, 3, 2, 2, 2, 3, 0, 0, 1, 3, 3, 2, 0, 1, 1, 3, 2, 0, 1, 0, 0, 0, 3, 1, 2, 3, 1, 0, 2)
   True         277          0  (0, 2, 1, 0, 1, 1, 3, 0, 1, 2, 2, 3, 1, 0, 2, 2, 3, 0, 1, 1, 1, 2, 2, 3, 1, 0, 3, 1, 1, 0)
   True          55          0  (1, 0, 3, 2, 2, 2, 3, 1, 1, 0, 3, 2, 2, 1, 0, 3, 3, 1, 0, 2, 0, 0, 0, 3, 1, 1, 3, 1, 0, 2)
   True         185          0  (1, 0, 2, 3, 2, 3, 0, 1, 1, 0, 2, 3, 3, 1, 3, 2, 2, 1, 3, 1, 3, 0, 3, 2, 1, 1, 2, 3, 3, 0)
   True          67          0  (2, 1, 0, 1, 1, 3, 0, 2, 2, 3, 0, 0, 1, 2, 3, 3, 0, 1, 2, 1, 2, 2, 3, 0, 1, 0, 3, 1, 1, 2)
   True          40          0  (0, 2, 0, 1, 3, 1, 2, 3, 3, 2, 2, 1, 0, 3, 0, 2, 1, 0, 1, 2, 1, 3, 0, 1, 2, 0, 2, 0, 1, 3)
   True        1055          0  (0, 2, 3, 2, 2, 3, 1, 0, 3, 1, 1, 0, 3, 2, 3, 1, 0, 3, 0, 3, 2, 2, 1, 0, 3, 3, 1, 3, 0, 2)
   True         189          0  (1, 2, 3, 0, 2, 3, 0, 0, 3, 2, 1, 1, 3, 2, 3, 2, 1, 3, 0, 3, 0, 0, 2, 1, 3, 3, 2, 3, 1, 0)
   True         770          0  (2, 0, 1, 3, 1, 1, 0, 3, 1, 2, 2, 3, 0, 3, 2, 2, 1, 0, 3, 3, 3, 2, 2, 1, 3, 0, 1, 3, 2, 0)
   True          60          0  (1, 0, 2, 3, 2, 3, 0, 1, 1, 0, 2, 2, 3, 1, 3, 0, 2, 1, 2, 1, 1, 3, 3, 0, 2, 3, 0, 2, 2, 1)
   True         102          0  (0, 1, 3, 1, 3, 3, 1, 0, 0, 2, 2, 1, 1, 0, 2, 3, 3, 0, 2, 2, 0, 1, 0, 3, 2, 1, 3, 0, 2, 1)
   True         331          0  (3, 1, 2, 3, 2, 2, 0, 3, 2, 1, 0, 3, 2, 3, 1, 0, 0, 2, 1, 2, 1, 1, 1, 0, 3, 2, 0, 3, 3, 2)
   True         796          0  (3, 2, 0, 1, 2, 1, 0, 3, 3, 2, 0, 1, 1, 2, 3, 0, 0, 3, 2, 3, 3, 1, 1, 0, 3, 1, 0, 3, 3, 2)
   True          89          0  (0, 2, 1, 2, 2, 3, 1, 0, 0, 3, 1, 1, 2, 0, 3, 3, 1, 0, 1, 0, 0, 2, 2, 3, 1, 2, 3, 1, 1, 0)
   True         139          0  (1, 0, 3, 2, 3, 3, 0, 2, 0, 1, 1, 3, 0, 2, 1, 1, 3, 0, 2, 1, 3, 2, 0, 3, 1, 0, 3, 0, 1, 2)
   True         302          0  (3, 1, 0, 3, 2, 2, 0, 3, 1, 2, 0, 3, 1, 3, 1, 2, 0, 1, 0, 1, 0, 2, 3, 0, 1, 1, 3, 1, 0, 2)
   True         132          0  (0, 1, 3, 1, 3, 3, 2, 2, 2, 0, 0, 3, 3, 1, 0, 0, 2, 1, 3, 0, 2, 3, 3, 2, 0, 1, 2, 0, 0, 1)
   True         338          0  (0, 2, 1, 2, 3, 1, 2, 3, 3, 0, 2, 2, 1, 0, 1, 0, 3, 1, 3, 0, 3, 2, 1, 3, 0, 2, 0, 1, 1, 2)
   True         130          0  (2, 1, 2, 1, 3, 3, 1, 0, 0, 3, 1, 1, 2, 0, 2, 3, 1, 0, 2, 0, 1, 2, 2, 1, 3, 0, 1, 3, 3, 0)
   True          47          0  (2, 1, 0, 3, 0, 0, 3, 3, 1, 2, 1, 3, 0, 2, 1, 2, 3, 0, 3, 0, 1, 2, 2, 1, 3, 0, 1, 3, 2, 0)
   True         350          0  (1, 0, 3, 1, 2, 3, 0, 1, 2, 0, 0, 1, 3, 2, 3, 3, 1, 2, 0, 2, 0, 0, 0, 1, 3, 2, 1, 3, 0, 2)
   True         129          0  (2, 1, 0, 3, 1, 0, 3, 3, 1, 2, 1, 0, 0, 2, 0, 2, 3, 1, 3, 1, 0, 0, 0, 2, 3, 1, 2, 3, 0, 1)
   True         148          0  (3, 0, 1, 3, 1, 2, 0, 3, 1, 2, 0, 3, 1, 3, 2, 0, 0, 1, 2, 2, 1, 3, 1, 0, 2, 3, 0, 1, 2, 3)
   True          74          0  (0, 1, 3, 2, 3, 3, 2, 2, 3, 0, 0, 1, 3, 1, 0, 0, 2, 3, 1, 1, 1, 0, 0, 2, 1, 3, 2, 1, 1, 3)
   True         103          0  (2, 3, 1, 0, 0, 0, 1, 2, 1, 3, 1, 2, 0, 2, 3, 3, 1, 0, 1, 0, 1, 2, 2, 3, 1, 2, 3, 1, 1, 0)
   True         650          0  (2, 1, 3, 0, 3, 3, 1, 0, 3, 1, 1, 0, 2, 0, 2, 1, 3, 2, 0, 2, 0, 0, 1, 3, 2, 3, 1, 2, 2, 0)
   True         508          0  (0, 2, 3, 0, 2, 3, 1, 0, 1, 2, 1, 0, 3, 2, 0, 2, 1, 3, 0, 3, 0, 0, 0, 2, 1, 1, 2, 1, 0, 3)
   True         134          0  (0, 2, 3, 0, 1, 1, 2, 0, 3, 2, 2, 1, 3, 0, 3, 2, 1, 0, 1, 0, 1, 2, 3, 1, 0, 0, 3, 0, 1, 2)
   True         860          0  (3, 2, 0, 3, 0, 0, 1, 3, 1, 2, 2, 3, 1, 3, 2, 0, 0, 1, 2, 1, 2, 2, 2, 3, 0, 1, 3, 0, 0, 1)
   True         239          0  (3, 2, 1, 2, 1, 1, 0, 0, 1, 3, 2, 2, 1, 3, 2, 0, 0, 1, 2, 1, 1, 3, 2, 0, 1, 3, 0, 1, 2, 3)
   True         147          0  (2, 3, 1, 0, 0, 0, 1, 2, 2, 3, 1, 0, 0, 2, 3, 1, 1, 2, 3, 2, 3, 0, 3, 1, 0, 0, 1, 3, 3, 2)
   True         195          0  (1, 2, 0, 3, 2, 3, 0, 1, 1, 2, 0, 3, 3, 2, 1, 0, 0, 1, 2, 1, 1, 2, 3, 0, 1, 3, 0, 3, 1, 2)
   True         839          0  (0, 3, 1, 2, 3, 2, 1, 0, 0, 3, 3, 1, 2, 0, 2, 3, 1, 0, 2, 3, 1, 2, 2, 1, 0, 0, 1, 0, 2, 3)
   True          42          0  (0, 2, 0, 2, 3, 1, 2, 3, 3, 1, 2, 2, 0, 3, 1, 1, 2, 3, 2, 3, 3, 0, 0, 1, 2, 0, 1, 2, 2, 3)
   True         382          0  (3, 1, 0, 3, 1, 2, 0, 3, 2, 1, 0, 3, 2, 3, 2, 0, 0, 2, 1, 3, 3, 1, 2, 0, 3, 2, 0, 2, 3, 1)
   True         245          0  (0, 3, 1, 3, 2, 1, 3, 2, 1, 0, 0, 3, 1, 2, 1, 2, 3, 1, 3, 1, 1, 0, 2, 3, 1, 0, 2, 1, 1, 0)
   True         159          0  (1, 0, 3, 0, 2, 3, 0, 2, 2, 1, 0, 3, 3, 1, 3, 1, 2, 0, 3, 0, 3, 1, 3, 2, 1, 0, 2, 3, 1, 0)
   True         302          0  (1, 0, 1, 2, 0, 3, 2, 2, 3, 0, 1, 2, 3, 0, 1, 1, 2, 3, 2, 3, 2, 0, 0, 1, 2, 3, 1, 2, 0, 3)
   True         501          0  (2, 1, 2, 3, 0, 3, 1, 0, 2, 1, 1, 3, 3, 2, 3, 1, 0, 2, 3, 2, 0, 3, 3, 1, 0, 2, 1, 0, 3, 2)
   True          68          0  (1, 0, 3, 2, 2, 3, 0, 2, 3, 1, 1, 2, 0, 2, 1, 1, 3, 0, 3, 0, 3, 2, 1, 3, 0, 2, 1, 0, 3, 2)
   True          45          0  (1, 2, 3, 2, 3, 3, 0, 0, 3, 1, 2, 2, 3, 1, 2, 0, 0, 3, 1, 3, 1, 1, 1, 0, 2, 2, 0, 2, 1, 3)
   True          28          0  (1, 2, 3, 1, 2, 0, 3, 1, 3, 2, 3, 0, 0, 2, 1, 2, 3, 1, 0, 1, 0, 0, 2, 3, 1, 1, 2, 1, 3, 0)
   True          53          0  (3, 2, 1, 0, 0, 0, 2, 3, 3, 2, 2, 1, 1, 3, 1, 2, 0, 3, 0, 3, 0, 1, 1, 2, 0, 3, 2, 0, 0, 3)
   True          93          0  (0, 2, 3, 1, 1, 3, 2, 0, 3, 2, 2, 1, 3, 1, 3, 0, 0, 3, 1, 1, 3, 2, 3, 0, 1, 2, 0, 3, 3, 2)
   True          23          0  (1, 2, 0, 3, 2, 0, 3, 3, 1, 2, 1, 3, 0, 2, 0, 0, 3, 1, 3, 0, 1, 2, 1, 3, 0, 2, 0, 1, 3, 2)
   True          84          0  (1, 2, 0, 1, 2, 0, 3, 1, 0, 2, 3, 1, 0, 1, 0, 2, 3, 0, 3, 0, 3, 1, 2, 3, 0, 0, 2, 0, 3, 1)
   True         252          0  (2, 0, 3, 2, 1, 3, 0, 2, 1, 0, 0, 3, 3, 2, 3, 0, 1, 2, 3, 3, 3, 0, 2, 1, 3, 2, 1, 3, 3, 0)
   True         280          0  (1, 3, 2, 1, 2, 2, 3, 1, 3, 0, 3, 2, 2, 0, 1, 0, 3, 1, 2, 2, 2, 0, 0, 3, 1, 1, 3, 1, 0, 2)
   True         135          0  (3, 2, 1, 0, 2, 1, 0, 0, 2, 3, 3, 0, 1, 2, 3, 1, 0, 2, 3, 2, 3, 3, 1, 0, 3, 2, 0, 1, 1, 2)
   True         257          0  (0, 2, 3, 2, 3, 3, 2, 1, 1, 0, 0, 2, 3, 1, 0, 0, 2, 1, 3, 1, 2, 3, 3, 0, 2, 1, 0, 2, 3, 1)
   True         324          0  (0, 1, 3, 0, 2, 2, 3, 0, 1, 2, 3, 0, 1, 0, 1, 2, 3, 1, 0, 0, 3, 2, 1, 3, 0, 1, 3, 1, 0, 2)
   True         126          0  (0, 1, 2, 1, 1, 2, 3, 3, 3, 0, 1, 2, 2, 0, 2, 0, 3, 1, 3, 1, 3, 0, 0, 2, 3, 1, 2, 3, 3, 1)
   True         354          0  (1, 2, 0, 1, 3, 0, 2, 1, 3, 2, 2, 0, 0, 1, 0, 2, 3, 1, 3, 1, 0, 2, 2, 0, 3, 1, 0, 3, 2, 1)
   True          40          0  (2, 0, 2, 1, 3, 3, 1, 1, 3, 0, 2, 2, 3, 0, 2, 0, 1, 3, 2, 3, 1, 2, 2, 1, 3, 3, 1, 3, 2, 0)
   True         228          0  (3, 0, 3, 1, 1, 1, 2, 2, 3, 0, 3, 1, 1, 0, 3, 2, 2, 3, 0, 1, 3, 0, 0, 2, 3, 1, 2, 3, 0, 1)
   True          71          0  (0, 1, 2, 1, 2, 2, 1, 3, 2, 0, 1, 1, 2, 0, 3, 3, 1, 2, 1, 2, 1, 3, 3, 0, 1, 2, 0, 1, 3, 2)
   True          67          0  (0, 2, 1, 3, 2, 1, 3, 0, 0, 2, 3, 1, 1, 0, 1, 2, 3, 0, 1, 0, 1, 1, 2, 3, 1, 0, 3, 2, 2, 0)
   True          31          0  (3, 0, 1, 3, 1, 1, 2, 2, 1, 0, 0, 2, 1, 3, 0, 0, 2, 1, 2, 1, 3, 3, 3, 0, 2, 1, 0, 2, 2, 1)
   True         218          0  (3, 1, 0, 3, 0, 2, 1, 3, 0, 2, 1, 1, 0, 3, 2, 2, 1, 3, 0, 2, 3, 0, 3, 1, 2, 1, 2, 3, 3, 0)
   True         457          0  (0, 3, 1, 2, 3, 2, 1, 0, 0, 3, 3, 2, 2, 0, 2, 1, 1, 0, 3, 2, 0, 3, 0, 1, 2, 2, 1, 2, 0, 3)
   True          94          0  (2, 0, 3, 0, 0, 3, 1, 2, 3, 1, 1, 2, 3, 0, 3, 1, 2, 0, 3, 3, 3, 1, 0, 2, 3, 0, 2, 0, 3, 1)
   True         161          0  (3, 0, 1, 3, 1, 1, 2, 3, 2, 0, 0, 3, 2, 3, 0, 0, 1, 2, 3, 2, 3, 3, 0, 1, 3, 2, 1, 0, 0, 2)
   True         715          0  (2, 0, 1, 3, 0, 1, 3, 3, 2, 0, 2, 3, 1, 0, 2, 1, 3, 2, 3, 2, 3, 0, 1, 3, 2, 0, 1, 2, 3, 0)
   True         127          0  (2, 0, 3, 0, 1, 1, 3, 2, 2, 1, 3, 3, 0, 2, 0, 1, 3, 0, 3, 0, 3, 2, 1, 3, 0, 0, 1, 0, 3, 2)
   True         352          0  (0, 3, 1, 3, 1, 1, 3, 2, 2, 0, 3, 3, 1, 0, 2, 1, 3, 2, 0, 2, 2, 0, 1, 3, 2, 3, 1, 2, 2, 0)
   True         151          0  (1, 2, 3, 0, 0, 0, 3, 1, 1, 2, 3, 0, 0, 1, 2, 3, 3, 1, 0, 1, 0, 0, 0, 2, 3, 1, 2, 3, 3, 1)
   True         276          0  (1, 2, 0, 2, 2, 3, 0, 1, 0, 3, 2, 2, 0, 1, 3, 3, 2, 0, 1, 0, 2, 3, 3, 2, 0, 0, 2, 0, 3, 1)
   True         283          0  (0, 3, 1, 2, 2, 2, 1, 0, 1, 3, 1, 0, 2, 3, 0, 3, 1, 2, 1, 0, 0, 3, 2, 1, 0, 2, 0, 2, 1, 3)
   True          35          0  (0, 2, 3, 2, 1, 3, 2, 1, 1, 0, 2, 3, 3, 0, 3, 0, 1, 2, 1, 2, 1, 3, 3, 0, 1, 3, 0, 1, 1, 2)
   True          31          0  (0, 2, 1, 2, 1, 1, 2, 0, 1, 3, 2, 2, 1, 3, 0, 0, 2, 1, 3, 1, 3, 3, 3, 0, 2, 1, 0, 2, 2, 1)
   True         208          0  (3, 2, 0, 3, 0, 0, 2, 3, 1, 2, 2, 3, 1, 3, 1, 2, 0, 1, 3, 2, 0, 3, 1, 0, 2, 1, 0, 2, 2, 3)
   True         194          0  (1, 3, 1, 0, 2, 2, 0, 0, 1, 3, 1, 0, 2, 3, 1, 2, 0, 1, 3, 1, 0, 3, 3, 0, 1, 1, 0, 1, 3, 2)
   True         379          0  (2, 0, 3, 2, 1, 3, 0, 2, 0, 1, 0, 2, 3, 1, 3, 3, 2, 0, 1, 0, 2, 1, 3, 2, 1, 0, 2, 3, 1, 0)
   True          50          0  (2, 1, 2, 0, 1, 3, 0, 0, 3, 1, 1, 0, 3, 2, 3, 1, 0, 3, 2, 3, 2, 2, 1, 0, 3, 0, 1, 3, 3, 2)
   True         148          0  (1, 0, 3, 2, 3, 3, 0, 2, 0, 1, 0, 2, 3, 1, 2, 1, 0, 3, 2, 1, 0, 2, 2, 0, 1, 3, 0, 1, 2, 3)
   True         505          0  (2, 3, 0, 1, 1, 1, 0, 2, 2, 3, 0, 1, 1, 3, 2, 3, 0, 2, 1, 2, 1, 1, 3, 0, 2, 0, 3, 2, 2, 1)
   True          20          0  (1, 2, 1, 0, 2, 0, 3, 3, 1, 2, 1, 0, 0, 2, 0, 3, 3, 1, 2, 1, 0, 2, 0, 3, 1, 1, 3, 0, 0, 2)
   True         229          0  (0, 2, 1, 3, 1, 1, 2, 3, 0, 2, 2, 3, 0, 3, 0, 2, 1, 0, 1, 0, 0, 3, 2, 1, 0, 3, 2, 0, 0, 3)
   True          52          0  (3, 2, 0, 2, 1, 0, 2, 1, 0, 3, 2, 1, 0, 3, 0, 3, 1, 2, 1, 2, 0, 0, 0, 3, 1, 2, 3, 1, 0, 2)
   True         121          0  (3, 2, 0, 3, 1, 1, 0, 3, 2, 1, 0, 3, 2, 3, 2, 1, 0, 2, 0, 3, 3, 1, 2, 0, 3, 2, 3, 2, 0, 1)
   True         562          0  (2, 3, 0, 3, 0, 0, 3, 1, 1, 2, 3, 3, 0, 1, 2, 2, 3, 1, 0, 2, 0, 0, 0, 3, 2, 1, 3, 2, 0, 1)
   True          64          0  (3, 0, 3, 1, 1, 2, 0, 1, 0, 2, 3, 3, 0, 1, 2, 2, 3, 0, 3, 0, 3, 2, 2, 1, 3, 0, 1, 3, 2, 0)
   True          31          0  (1, 0, 2, 3, 2, 2, 0, 3, 0, 1, 1, 2, 2, 3, 1, 1, 0, 3, 0, 3, 2, 2, 2, 1, 0, 3, 1, 0, 2, 3)
   True         147          0  (0, 2, 3, 1, 1, 3, 2, 0, 3, 2, 2, 1, 3, 1, 3, 0, 0, 3, 1, 3, 1, 1, 2, 0, 3, 3, 0, 2, 2, 1)
   True          29          0  (1, 2, 0, 1, 2, 0, 3, 3, 0, 2, 2, 1, 0, 1, 0, 3, 3, 0, 2, 1, 2, 2, 0, 3, 2, 1, 3, 0, 0, 1)
   True         135          0  (3, 2, 0, 1, 2, 1, 0, 3, 0, 2, 0, 1, 1, 2, 1, 2, 3, 0, 1, 0, 1, 1, 2, 3, 1, 0, 3, 2, 1, 0)
   True         176          0  (0, 1, 0, 2, 1, 3, 2, 2, 3, 1, 0, 2, 3, 1, 0, 0, 2, 3, 2, 0, 3, 1, 3, 2, 0, 1, 0, 3, 3, 1)
   True         932          0  (2, 0, 1, 2, 1, 1, 0, 2, 0, 3, 3, 2, 0, 2, 3, 3, 1, 0, 2, 0, 1, 2, 2, 1, 3, 0, 1, 3, 2, 0)
   True          30          0  (1, 3, 2, 0, 2, 2, 0, 0, 2, 1, 1, 0, 2, 3, 1, 3, 0, 2, 1, 2, 0, 1, 1, 0, 3, 2, 0, 3, 1, 2)
   True         219          0  (3, 0, 2, 3, 0, 1, 2, 3, 2, 0, 2, 3, 1, 0, 1, 0, 2, 1, 2, 0, 1, 3, 1, 2, 0, 3, 0, 1, 2, 3)
   True          53          0  (2, 3, 1, 0, 1, 0, 3, 2, 2, 3, 1, 0, 0, 2, 0, 1, 1, 2, 3, 2, 0, 3, 3, 0, 1, 2, 0, 1, 1, 2)
   True         104          0  (1, 2, 3, 1, 0, 3, 2, 1, 3, 0, 2, 1, 3, 0, 3, 2, 2, 3, 0, 3, 0, 1, 0, 2, 3, 1, 2, 3, 0, 1)
   True         108          0  (0, 2, 1, 0, 2, 1, 3, 0, 1, 2, 3, 0, 1, 2, 0, 3, 3, 1, 2, 0, 0, 2, 1, 3, 0, 1, 3, 0, 0, 2)
   True          51          0  (3, 0, 2, 0, 1, 1, 2, 3, 3, 1, 2, 0, 0, 3, 0, 2, 2, 3, 0, 1, 0, 0, 3, 2, 0, 3, 2, 3, 0, 1)
   True          21          0  (1, 3, 2, 3, 3, 2, 0, 0, 0, 1, 1, 2, 2, 3, 2, 1, 0, 3, 2, 1, 2, 2, 2, 0, 1, 3, 0, 1, 1, 3)
   True         456          0  (0, 2, 0, 1, 2, 3, 1, 1, 0, 2, 0, 1, 3, 2, 0, 2, 1, 3, 0, 3, 0, 2, 0, 1, 3, 3, 1, 0, 0, 2)
   True         324          0  (0, 1, 0, 3, 2, 2, 1, 3, 0, 1, 1, 2, 0, 3, 0, 1, 2, 0, 3, 1, 2, 3, 3, 2, 0, 0, 2, 0, 3, 1)
   True         116          0  (2, 3, 1, 0, 3, 1, 0, 0, 2, 3, 2, 0, 1, 3, 1, 1, 0, 2, 3, 2, 3, 1, 1, 0, 2, 2, 0, 2, 1, 3)
   True         168          0  (1, 3, 1, 0, 0, 2, 3, 0, 3, 2, 1, 0, 3, 0, 2, 1, 1, 3, 0, 3, 0, 0, 0, 2, 1, 3, 2, 1, 0, 3)
