Test Parameters:
	filename: graph30.txt
	numRuns: 200
	colors: 4
	max generations: 6000
	population size: 20
	mutation chance: 0.8
	tournament size: 10
	tournament chance: 1.0

Summary:
200 tests were run. 98.5% of them succeeded.
Of the successes, the average number iterations was 199.06 (min 13, max 1955).
Of the failures, the average conflicts in the best result was 1.00 (min 1, max 1)

All results:
Success  Iterations  Conflicts  Color Sequence
   True         816          0  (1, 3, 2, 1, 0, 0, 2, 1, 2, 3, 3, 1, 2, 1, 3, 3, 0, 2, 0, 2, 1, 1, 1, 3, 0, 2, 3, 0, 1, 2)
   True          49          0  (1, 0, 2, 1, 2, 3, 0, 1, 2, 0, 0, 1, 3, 2, 3, 0, 1, 2, 3, 2, 2, 3, 3, 0, 1, 1, 0, 1, 3, 2)
   True         127          0  (0, 2, 3, 1, 1, 3, 2, 0, 3, 2, 2, 0, 3, 1, 3, 2, 0, 1, 3, 3, 0, 2, 1, 0, 3, 1, 0, 3, 3, 2)
   True         293          0  (0, 2, 3, 0, 2, 1, 3, 0, 3, 1, 2, 2, 3, 0, 1, 1, 2, 3, 0, 3, 0, 0, 0, 1, 2, 3, 1, 2, 2, 3)
   True          33          0  (1, 2, 0, 2, 3, 0, 2, 3, 3, 1, 1, 2, 0, 3, 1, 0, 2, 3, 1, 3, 2, 1, 1, 2, 3, 3, 2, 3, 1, 0)
   True          62          0  (1, 0, 1, 2, 0, 3, 2, 2, 1, 0, 1, 2, 3, 0, 3, 3, 2, 1, 2, 1, 2, 3, 3, 0, 2, 1, 0, 2, 3, 1)
   True          58          0  (0, 1, 2, 1, 3, 2, 1, 3, 3, 0, 1, 2, 2, 3, 0, 0, 1, 3, 2, 3, 2, 2, 0, 1, 3, 3, 1, 3, 0, 2)
   True          92          0  (3, 2, 1, 3, 1, 1, 0, 3, 1, 2, 2, 3, 1, 3, 2, 0, 0, 1, 3, 2, 3, 3, 1, 0, 2, 1, 0, 1, 2, 3)
   True          26          0  (1, 0, 2, 1, 2, 2, 0, 1, 2, 3, 0, 1, 2, 1, 3, 0, 0, 2, 3, 3, 3, 1, 2, 0, 3, 1, 0, 2, 2, 1)
   True          29          0  (0, 1, 2, 3, 2, 2, 3, 0, 2, 1, 3, 3, 2, 1, 0, 1, 3, 2, 0, 2, 3, 0, 0, 1, 3, 2, 1, 3, 0, 2)
   True         320          0  (0, 1, 0, 1, 3, 2, 1, 3, 3, 2, 0, 1, 1, 3, 2, 0, 0, 3, 1, 2, 2, 1, 1, 0, 2, 3, 0, 2, 1, 3)
   True         293          0  (2, 3, 1, 2, 0, 1, 3, 2, 1, 3, 3, 2, 1, 0, 1, 3, 2, 0, 1, 0, 1, 3, 1, 2, 0, 0, 2, 0, 1, 3)
   True          52          0  (2, 1, 0, 2, 1, 0, 3, 2, 0, 3, 1, 2, 0, 2, 0, 3, 1, 0, 2, 0, 2, 2, 3, 1, 0, 0, 3, 0, 1, 2)
   True         588          0  (0, 1, 2, 3, 1, 3, 2, 0, 2, 1, 2, 3, 3, 1, 3, 1, 0, 2, 3, 1, 3, 3, 3, 0, 1, 2, 0, 1, 3, 2)
   True          57          0  (2, 1, 0, 1, 1, 3, 0, 2, 0, 3, 1, 1, 0, 2, 3, 3, 1, 2, 0, 2, 1, 0, 0, 3, 1, 2, 3, 1, 0, 2)
   True          55          0  (0, 3, 2, 0, 2, 2, 1, 1, 2, 3, 0, 0, 2, 3, 0, 3, 1, 2, 1, 2, 0, 3, 3, 0, 1, 2, 0, 1, 3, 2)
   True          51          0  (0, 1, 2, 0, 2, 3, 1, 0, 1, 3, 2, 0, 1, 0, 3, 2, 2, 1, 0, 1, 3, 3, 3, 2, 0, 1, 2, 0, 0, 1)
   True         203          0  (1, 3, 0, 1, 0, 0, 2, 1, 0, 3, 3, 1, 2, 1, 3, 3, 0, 2, 1, 2, 1, 1, 3, 0, 1, 2, 0, 3, 3, 2)
   True         127          0  (0, 3, 1, 0, 2, 1, 3, 0, 1, 2, 3, 0, 1, 0, 1, 3, 3, 1, 0, 1, 2, 0, 2, 3, 1, 1, 3, 2, 2, 0)
   True         320          0  (1, 3, 2, 0, 2, 2, 3, 0, 2, 1, 3, 0, 2, 1, 0, 3, 3, 2, 1, 0, 1, 1, 2, 3, 0, 2, 3, 0, 0, 1)
   True          53          0  (3, 0, 2, 1, 1, 2, 0, 1, 2, 3, 0, 1, 2, 3, 2, 3, 1, 0, 2, 0, 2, 2, 3, 1, 2, 0, 1, 3, 2, 0)
   True          78          0  (0, 3, 1, 3, 2, 2, 1, 0, 0, 2, 1, 3, 3, 0, 3, 2, 1, 0, 3, 0, 3, 2, 3, 1, 2, 0, 1, 3, 2, 0)
   True         278          0  (1, 0, 3, 2, 2, 2, 3, 1, 1, 0, 3, 2, 2, 0, 1, 0, 3, 1, 2, 2, 2, 0, 1, 3, 0, 1, 3, 1, 0, 2)
   True         201          0  (0, 3, 1, 2, 2, 1, 3, 2, 0, 3, 3, 1, 1, 2, 1, 3, 0, 2, 1, 3, 0, 1, 2, 0, 1, 2, 0, 2, 1, 3)
   True         731          0  (0, 3, 2, 0, 2, 2, 3, 0, 2, 1, 1, 3, 2, 0, 1, 1, 3, 0, 2, 1, 3, 2, 0, 3, 1, 0, 3, 0, 1, 2)
   True          35          0  (2, 0, 2, 1, 0, 3, 1, 1, 3, 0, 2, 1, 3, 0, 2, 0, 1, 2, 3, 3, 3, 0, 0, 1, 2, 2, 1, 2, 0, 3)
   True         910          0  (3, 2, 0, 2, 0, 1, 2, 3, 3, 1, 0, 0, 2, 3, 1, 1, 0, 3, 2, 3, 0, 2, 2, 1, 0, 3, 1, 0, 0, 3)
   True          55          0  (0, 1, 2, 1, 3, 2, 1, 0, 2, 3, 1, 1, 2, 3, 0, 3, 1, 0, 2, 3, 2, 2, 0, 1, 3, 0, 1, 3, 3, 2)
   True          99          0  (3, 2, 1, 3, 2, 1, 0, 3, 0, 2, 0, 1, 1, 2, 3, 2, 0, 3, 1, 1, 1, 2, 3, 0, 1, 3, 0, 1, 1, 2)
   True          18          0  (2, 3, 1, 3, 0, 1, 3, 0, 0, 2, 2, 3, 1, 0, 1, 1, 3, 0, 2, 2, 2, 1, 1, 3, 0, 0, 3, 0, 1, 2)
   True         395          0  (3, 2, 0, 3, 0, 0, 1, 3, 0, 2, 1, 1, 0, 3, 2, 2, 1, 3, 0, 0, 0, 2, 2, 1, 0, 3, 1, 0, 2, 3)
   True          17          0  (3, 0, 3, 2, 0, 1, 2, 2, 3, 0, 3, 2, 1, 0, 1, 1, 2, 3, 0, 3, 2, 0, 0, 2, 1, 3, 2, 1, 0, 3)
   True         224          0  (1, 3, 0, 2, 3, 0, 2, 2, 0, 1, 3, 2, 0, 1, 0, 1, 3, 0, 2, 1, 0, 2, 0, 3, 1, 3, 1, 0, 0, 2)
   True         828          0  (2, 1, 3, 0, 3, 3, 1, 0, 2, 1, 1, 3, 2, 0, 2, 1, 3, 2, 0, 1, 3, 0, 2, 3, 1, 2, 1, 2, 3, 0)
   True         504          0  (1, 3, 2, 0, 3, 2, 0, 0, 2, 3, 1, 0, 2, 3, 2, 1, 1, 2, 0, 0, 0, 3, 2, 1, 0, 3, 1, 2, 0, 3)
   True          83          0  (1, 3, 0, 2, 0, 2, 3, 1, 0, 3, 3, 1, 2, 0, 2, 3, 1, 2, 0, 3, 0, 0, 2, 1, 0, 2, 1, 2, 0, 3)
   True         223          0  (1, 2, 1, 0, 0, 3, 2, 0, 1, 2, 2, 3, 3, 0, 3, 2, 1, 0, 1, 0, 1, 3, 3, 2, 1, 3, 2, 1, 1, 0)
   True          30          0  (2, 1, 0, 1, 3, 0, 1, 3, 0, 2, 1, 3, 0, 2, 0, 2, 3, 1, 0, 2, 3, 0, 0, 3, 2, 1, 3, 2, 2, 1)
   True         133          0  (1, 0, 3, 0, 3, 3, 0, 2, 2, 1, 1, 0, 0, 2, 1, 3, 3, 2, 0, 2, 1, 0, 0, 3, 1, 2, 3, 1, 0, 2)
   True          53          0  (2, 1, 0, 1, 1, 3, 0, 2, 2, 3, 1, 1, 0, 2, 3, 3, 1, 0, 2, 2, 2, 3, 0, 1, 3, 0, 1, 0, 3, 2)
   True          22          0  (1, 3, 1, 0, 2, 0, 3, 2, 1, 3, 3, 0, 0, 1, 0, 2, 2, 1, 0, 1, 1, 3, 0, 2, 3, 3, 2, 0, 0, 1)
   True        1258          0  (2, 0, 1, 0, 0, 1, 3, 3, 3, 2, 2, 0, 1, 0, 1, 2, 3, 1, 0, 1, 3, 2, 0, 3, 1, 1, 3, 0, 0, 2)
   True          20          0  (3, 0, 3, 1, 0, 1, 2, 2, 3, 0, 3, 2, 1, 0, 3, 0, 2, 1, 3, 3, 3, 0, 1, 2, 3, 1, 2, 3, 3, 0)
   True          31          0  (0, 1, 2, 3, 2, 2, 1, 3, 1, 0, 1, 3, 2, 3, 0, 0, 1, 2, 3, 0, 2, 3, 2, 1, 0, 1, 0, 2, 2, 3)
   True         358          0  (1, 3, 0, 3, 0, 0, 2, 2, 2, 1, 3, 0, 0, 1, 3, 1, 2, 3, 0, 1, 0, 0, 3, 2, 0, 3, 2, 3, 0, 1)
   True         440          0  (3, 1, 2, 1, 0, 2, 1, 3, 3, 0, 1, 1, 2, 0, 2, 2, 1, 3, 0, 2, 0, 0, 3, 1, 2, 1, 2, 3, 3, 0)
   True          49          0  (0, 3, 2, 3, 2, 2, 3, 0, 0, 1, 3, 2, 2, 1, 0, 1, 3, 0, 2, 1, 3, 2, 0, 3, 2, 0, 3, 0, 2, 1)
   True         250          0  (0, 1, 3, 2, 3, 3, 1, 2, 1, 0, 0, 2, 1, 2, 0, 3, 3, 1, 2, 0, 0, 2, 1, 3, 0, 1, 0, 1, 3, 2)
   True          87          0  (0, 2, 0, 2, 3, 3, 2, 1, 1, 3, 2, 2, 0, 1, 0, 0, 2, 1, 2, 0, 2, 3, 1, 2, 0, 3, 0, 1, 2, 3)
   True         144          0  (1, 2, 3, 0, 0, 3, 2, 0, 1, 2, 2, 0, 1, 0, 1, 3, 3, 1, 2, 2, 2, 0, 0, 3, 1, 1, 3, 1, 0, 2)
   True          41          0  (1, 3, 2, 3, 3, 0, 2, 1, 2, 0, 3, 3, 2, 1, 0, 1, 3, 2, 0, 2, 0, 0, 0, 1, 3, 3, 1, 3, 0, 2)
   True         205          0  (1, 0, 2, 1, 3, 2, 0, 3, 2, 0, 0, 3, 2, 1, 2, 0, 3, 2, 1, 1, 1, 0, 2, 3, 1, 2, 3, 1, 1, 0)
   True          83          0  (0, 3, 1, 2, 3, 2, 1, 0, 0, 3, 1, 1, 2, 3, 2, 3, 0, 2, 1, 2, 1, 1, 1, 0, 2, 2, 0, 2, 1, 3)
   True          65          0  (3, 2, 3, 1, 1, 0, 2, 1, 2, 0, 2, 3, 3, 1, 0, 0, 2, 1, 2, 1, 3, 0, 0, 3, 2, 1, 3, 2, 0, 1)
   True          32          0  (1, 0, 3, 2, 0, 2, 3, 1, 1, 0, 3, 3, 2, 0, 2, 0, 1, 2, 1, 0, 1, 3, 2, 1, 0, 3, 0, 2, 1, 3)
   True         221          0  (2, 1, 2, 1, 0, 0, 1, 3, 2, 0, 1, 1, 2, 3, 2, 0, 1, 2, 3, 0, 3, 3, 2, 1, 3, 2, 1, 2, 3, 0)
   True         637          0  (0, 3, 1, 3, 2, 1, 3, 2, 2, 0, 0, 3, 1, 2, 0, 1, 3, 2, 3, 2, 2, 0, 0, 1, 3, 0, 1, 3, 3, 2)
   True         312          0  (2, 1, 2, 3, 1, 3, 0, 0, 2, 1, 1, 3, 3, 2, 3, 0, 0, 2, 1, 1, 1, 3, 3, 0, 1, 2, 0, 1, 1, 2)
   True         134          0  (2, 1, 3, 0, 3, 3, 1, 0, 1, 2, 2, 0, 1, 0, 2, 3, 3, 1, 0, 2, 1, 0, 1, 3, 2, 2, 3, 2, 1, 0)
   True         267          0  (1, 2, 3, 1, 3, 3, 0, 1, 0, 2, 2, 3, 0, 1, 2, 2, 3, 1, 0, 1, 0, 0, 0, 3, 2, 1, 3, 2, 0, 1)
   True         179          0  (0, 1, 0, 3, 2, 3, 1, 2, 0, 1, 1, 3, 0, 2, 0, 2, 3, 0, 3, 0, 3, 1, 2, 3, 0, 1, 2, 0, 0, 1)
   True         219          0  (2, 0, 3, 0, 3, 3, 0, 1, 3, 2, 0, 0, 3, 2, 1, 2, 0, 3, 1, 3, 0, 1, 1, 0, 2, 3, 0, 2, 2, 3)
  False        5999          1  (1, 3, 0, 3, 0, 2, 3, 1, 0, 2, 0, 3, 3, 1, 2, 1, 0, 0, 2, 2, 3, 1, 3, 0, 2, 0, 3, 2, 2, 1)
   True          99          0  (1, 2, 3, 1, 2, 0, 3, 1, 0, 2, 3, 1, 0, 2, 0, 3, 1, 0, 1, 2, 2, 3, 0, 1, 2, 0, 2, 0, 1, 3)
   True         583          0  (1, 3, 1, 2, 3, 0, 2, 2, 1, 3, 3, 2, 0, 1, 0, 0, 2, 1, 3, 1, 2, 0, 0, 2, 3, 1, 2, 3, 3, 1)
   True          45          0  (3, 0, 2, 1, 1, 2, 0, 1, 2, 0, 3, 1, 2, 1, 2, 3, 3, 2, 0, 1, 0, 0, 2, 3, 0, 1, 3, 2, 2, 1)
   True          21          0  (2, 0, 2, 1, 3, 1, 0, 3, 3, 0, 0, 2, 1, 3, 1, 0, 2, 1, 2, 3, 2, 0, 1, 2, 3, 1, 3, 1, 2, 0)
   True         317          0  (1, 0, 2, 0, 2, 3, 0, 1, 1, 3, 2, 2, 0, 1, 3, 3, 2, 0, 1, 0, 1, 1, 3, 2, 1, 0, 2, 3, 1, 0)
   True          38          0  (1, 0, 3, 1, 0, 2, 3, 1, 0, 2, 0, 1, 3, 1, 2, 2, 0, 3, 1, 3, 0, 1, 1, 0, 2, 3, 0, 2, 1, 3)
   True         161          0  (3, 1, 0, 1, 1, 0, 2, 3, 0, 2, 2, 1, 0, 1, 0, 3, 3, 0, 1, 1, 0, 2, 0, 3, 1, 2, 3, 1, 1, 2)
   True          58          0  (2, 0, 3, 0, 1, 3, 0, 1, 1, 2, 0, 0, 3, 2, 3, 3, 0, 1, 2, 1, 2, 2, 3, 0, 2, 1, 0, 3, 3, 1)
   True         115          0  (3, 2, 0, 2, 1, 0, 2, 1, 1, 3, 3, 2, 0, 1, 0, 0, 2, 1, 2, 1, 2, 3, 3, 0, 2, 1, 0, 2, 3, 1)
   True         273          0  (2, 0, 1, 0, 3, 3, 1, 2, 2, 3, 1, 0, 0, 2, 0, 1, 1, 2, 0, 2, 2, 3, 0, 1, 3, 3, 1, 0, 0, 2)
   True          95          0  (2, 3, 0, 1, 0, 0, 3, 1, 3, 2, 2, 0, 3, 1, 2, 2, 0, 1, 3, 1, 0, 3, 2, 0, 3, 1, 0, 2, 3, 1)
   True          30          0  (1, 3, 0, 3, 0, 0, 3, 1, 1, 2, 2, 0, 3, 1, 2, 2, 0, 3, 1, 3, 1, 2, 2, 0, 1, 3, 0, 1, 1, 3)
   True        1918          0  (0, 3, 1, 0, 3, 2, 1, 0, 1, 2, 1, 0, 3, 0, 2, 2, 1, 3, 1, 3, 3, 0, 2, 1, 3, 0, 2, 3, 3, 0)
   True         298          0  (3, 1, 0, 1, 0, 0, 1, 3, 0, 2, 2, 3, 1, 3, 2, 2, 0, 1, 3, 2, 3, 3, 1, 0, 2, 1, 2, 1, 0, 3)
   True         143          0  (0, 1, 3, 2, 2, 3, 1, 2, 3, 0, 1, 2, 3, 0, 3, 0, 2, 1, 2, 1, 2, 0, 3, 2, 1, 1, 3, 1, 2, 0)
   True         134          0  (3, 1, 0, 2, 2, 2, 0, 3, 3, 1, 1, 2, 0, 3, 1, 0, 2, 3, 1, 3, 1, 1, 1, 0, 2, 3, 0, 2, 1, 3)
   True          32          0  (2, 3, 0, 2, 0, 1, 3, 2, 0, 3, 3, 2, 1, 0, 1, 1, 2, 0, 2, 0, 0, 3, 3, 1, 2, 3, 1, 2, 2, 0)
   True         292          0  (2, 0, 3, 2, 3, 3, 1, 1, 3, 0, 2, 2, 3, 0, 2, 0, 1, 3, 1, 3, 1, 2, 2, 0, 1, 3, 0, 1, 2, 3)
   True          51          0  (2, 1, 2, 0, 1, 3, 0, 0, 3, 1, 1, 0, 3, 2, 3, 1, 0, 2, 3, 1, 3, 3, 2, 0, 3, 2, 0, 2, 3, 1)
   True          68          0  (3, 2, 0, 3, 2, 1, 0, 3, 1, 2, 0, 3, 1, 2, 3, 0, 0, 1, 2, 2, 2, 3, 1, 0, 3, 3, 0, 1, 1, 2)
   True         481          0  (1, 3, 0, 3, 2, 2, 0, 1, 1, 2, 0, 3, 3, 1, 3, 2, 0, 1, 0, 3, 0, 2, 1, 0, 3, 1, 3, 1, 0, 2)
   True          81          0  (3, 2, 1, 2, 1, 0, 2, 3, 1, 0, 1, 2, 2, 3, 0, 0, 1, 3, 1, 0, 3, 2, 3, 1, 0, 2, 0, 3, 3, 2)
   True         334          0  (3, 2, 0, 3, 1, 0, 2, 3, 1, 2, 1, 0, 0, 3, 0, 2, 1, 3, 1, 3, 1, 0, 0, 2, 1, 3, 2, 1, 1, 3)
   True          13          0  (1, 2, 1, 0, 0, 0, 3, 3, 1, 2, 2, 0, 0, 1, 2, 3, 3, 1, 0, 0, 2, 2, 1, 3, 2, 1, 3, 1, 2, 0)
   True          32          0  (3, 1, 2, 3, 2, 2, 0, 3, 0, 1, 1, 3, 0, 3, 1, 2, 2, 0, 3, 0, 3, 3, 1, 2, 0, 0, 1, 0, 2, 3)
   True          72          0  (2, 3, 2, 1, 1, 0, 3, 1, 2, 0, 2, 1, 3, 1, 0, 0, 2, 3, 1, 3, 2, 1, 0, 2, 3, 3, 2, 3, 0, 1)
   True          96          0  (3, 2, 0, 1, 1, 0, 2, 1, 2, 3, 3, 1, 2, 1, 3, 0, 0, 2, 3, 2, 1, 1, 3, 0, 1, 2, 0, 3, 3, 2)
   True          54          0  (1, 0, 2, 0, 3, 2, 0, 1, 2, 3, 0, 0, 2, 3, 2, 1, 1, 2, 0, 3, 2, 0, 2, 1, 3, 3, 1, 2, 2, 0)
   True         275          0  (1, 2, 3, 0, 0, 0, 3, 1, 1, 2, 3, 0, 0, 2, 1, 3, 3, 1, 0, 0, 1, 2, 2, 3, 1, 2, 3, 1, 1, 0)
   True         205          0  (3, 1, 2, 0, 2, 2, 0, 0, 2, 1, 1, 0, 2, 3, 1, 1, 0, 2, 3, 2, 3, 3, 3, 1, 0, 2, 1, 0, 3, 2)
   True          95          0  (3, 2, 1, 3, 0, 1, 2, 0, 1, 2, 2, 3, 1, 3, 1, 2, 0, 1, 3, 1, 1, 3, 2, 0, 1, 0, 2, 1, 1, 3)
   True          38          0  (3, 2, 3, 0, 2, 0, 1, 1, 1, 2, 3, 0, 0, 2, 0, 3, 3, 1, 2, 0, 2, 2, 2, 3, 0, 1, 3, 0, 2, 1)
   True          55          0  (3, 0, 2, 3, 2, 2, 1, 3, 2, 0, 1, 3, 2, 3, 0, 1, 1, 2, 0, 2, 0, 0, 0, 1, 3, 3, 1, 3, 0, 2)
   True         236          0  (0, 2, 3, 2, 2, 1, 3, 0, 0, 1, 2, 2, 3, 0, 1, 3, 2, 0, 1, 1, 1, 3, 3, 2, 1, 0, 2, 1, 3, 0)
   True          34          0  (3, 2, 1, 0, 1, 1, 2, 0, 1, 3, 2, 2, 1, 3, 0, 3, 2, 1, 0, 3, 0, 0, 0, 2, 3, 1, 2, 3, 0, 1)
   True         559          0  (0, 1, 2, 0, 2, 2, 1, 0, 2, 3, 3, 0, 1, 0, 3, 3, 2, 1, 0, 1, 0, 0, 0, 2, 3, 1, 2, 3, 0, 1)
   True         103          0  (2, 1, 3, 2, 3, 3, 0, 2, 0, 1, 1, 2, 0, 2, 1, 3, 3, 0, 1, 1, 0, 2, 0, 3, 1, 2, 3, 1, 1, 2)
   True         130          0  (0, 1, 2, 1, 1, 2, 3, 3, 3, 0, 1, 1, 2, 0, 2, 0, 1, 3, 1, 3, 2, 0, 0, 2, 1, 3, 2, 1, 1, 3)
   True          68          0  (3, 1, 2, 1, 2, 2, 1, 3, 3, 0, 0, 2, 1, 3, 0, 0, 2, 3, 2, 0, 2, 1, 3, 2, 0, 1, 0, 3, 3, 1)
   True          72          0  (1, 2, 3, 1, 2, 0, 3, 1, 0, 2, 3, 1, 0, 2, 0, 3, 1, 0, 2, 0, 1, 2, 3, 1, 0, 0, 3, 0, 1, 2)
   True          83          0  (0, 2, 0, 3, 2, 3, 1, 1, 1, 2, 0, 3, 3, 2, 3, 0, 0, 1, 2, 1, 3, 2, 2, 0, 3, 1, 0, 3, 2, 1)
   True          29          0  (3, 2, 1, 2, 0, 1, 2, 0, 0, 3, 2, 2, 1, 0, 1, 3, 2, 1, 0, 3, 2, 0, 1, 2, 3, 1, 2, 3, 3, 0)
   True          41          0  (0, 3, 1, 3, 3, 1, 2, 2, 1, 0, 0, 3, 1, 3, 0, 2, 2, 1, 0, 1, 3, 3, 0, 2, 3, 1, 2, 0, 0, 1)
   True         134          0  (1, 3, 0, 1, 0, 0, 3, 1, 0, 2, 2, 1, 3, 1, 2, 2, 0, 3, 0, 3, 1, 2, 2, 1, 0, 3, 1, 0, 0, 3)
   True         435          0  (0, 1, 0, 2, 2, 3, 1, 2, 1, 3, 0, 2, 1, 2, 3, 0, 0, 1, 2, 3, 2, 2, 1, 0, 3, 3, 0, 1, 1, 2)
   True          42          0  (1, 3, 2, 0, 3, 2, 0, 1, 1, 3, 3, 0, 2, 1, 2, 2, 0, 1, 3, 1, 1, 3, 3, 2, 0, 0, 2, 0, 3, 1)
   True          92          0  (1, 0, 2, 1, 2, 2, 3, 1, 0, 3, 3, 2, 0, 1, 0, 3, 2, 1, 2, 0, 0, 3, 1, 2, 0, 1, 0, 1, 2, 3)
   True         165          0  (2, 0, 2, 1, 3, 3, 1, 1, 2, 0, 2, 1, 3, 0, 2, 0, 1, 2, 1, 0, 3, 3, 2, 1, 0, 2, 0, 2, 1, 3)
   True         337          0  (0, 1, 2, 0, 2, 2, 3, 0, 3, 1, 1, 2, 3, 0, 1, 1, 2, 0, 3, 1, 3, 3, 3, 2, 1, 0, 2, 1, 1, 0)
   True         123          0  (3, 0, 2, 0, 1, 1, 0, 3, 3, 1, 0, 0, 2, 3, 2, 2, 0, 3, 1, 3, 1, 1, 2, 0, 3, 0, 2, 3, 3, 1)
   True          18          0  (1, 2, 1, 0, 3, 0, 2, 3, 3, 2, 2, 1, 0, 1, 0, 2, 3, 0, 3, 0, 3, 1, 2, 3, 0, 1, 2, 0, 0, 1)
   True         158          0  (0, 2, 3, 0, 2, 3, 1, 0, 2, 1, 2, 3, 3, 0, 3, 1, 2, 0, 3, 1, 2, 3, 3, 2, 1, 0, 2, 1, 1, 0)
   True         627          0  (2, 3, 0, 1, 1, 1, 0, 2, 0, 3, 0, 1, 1, 3, 2, 3, 0, 2, 1, 3, 1, 1, 2, 0, 3, 2, 0, 3, 3, 1)
   True         115          0  (1, 3, 0, 1, 3, 2, 0, 1, 0, 2, 3, 1, 0, 1, 2, 2, 3, 0, 1, 2, 0, 1, 0, 3, 2, 3, 2, 0, 0, 1)
   True          52          0  (2, 0, 1, 3, 0, 3, 1, 2, 1, 0, 1, 3, 3, 0, 3, 2, 2, 1, 0, 1, 3, 0, 3, 2, 1, 1, 3, 1, 2, 0)
   True         400          0  (3, 0, 1, 0, 0, 1, 2, 2, 1, 3, 0, 2, 1, 3, 1, 3, 2, 0, 2, 0, 1, 3, 3, 1, 2, 0, 1, 2, 2, 0)
   True         225          0  (1, 0, 2, 1, 3, 2, 0, 3, 2, 0, 0, 3, 2, 3, 2, 0, 1, 2, 3, 2, 3, 3, 0, 1, 2, 1, 0, 2, 2, 3)
   True         322          0  (1, 3, 1, 2, 0, 0, 2, 2, 1, 3, 3, 2, 0, 1, 3, 0, 2, 1, 2, 1, 2, 0, 0, 3, 2, 1, 3, 2, 0, 1)
   True         311          0  (1, 0, 3, 0, 2, 3, 0, 2, 2, 1, 1, 0, 0, 2, 1, 3, 3, 2, 1, 2, 1, 0, 0, 3, 1, 2, 3, 1, 0, 2)
   True         143          0  (3, 2, 3, 0, 2, 1, 0, 0, 3, 2, 3, 1, 1, 2, 1, 2, 3, 0, 3, 0, 3, 2, 2, 1, 3, 0, 1, 3, 2, 0)
   True          56          0  (2, 1, 0, 1, 0, 0, 3, 2, 2, 3, 3, 1, 1, 2, 1, 0, 0, 2, 1, 2, 1, 3, 1, 0, 2, 3, 0, 2, 2, 3)
   True          39          0  (1, 0, 1, 2, 2, 3, 0, 2, 1, 0, 0, 2, 1, 2, 1, 3, 3, 1, 2, 1, 0, 2, 0, 3, 1, 1, 0, 1, 3, 2)
   True          26          0  (2, 1, 2, 1, 3, 0, 1, 3, 2, 0, 2, 1, 1, 3, 0, 0, 2, 3, 1, 3, 2, 1, 1, 0, 2, 3, 0, 2, 2, 3)
   True          89          0  (1, 3, 2, 3, 3, 2, 0, 0, 0, 1, 3, 3, 2, 1, 2, 2, 3, 0, 1, 2, 3, 1, 0, 3, 2, 0, 3, 0, 2, 1)
   True         134          0  (0, 2, 3, 1, 1, 3, 2, 0, 3, 2, 2, 1, 3, 1, 3, 2, 0, 3, 1, 1, 1, 2, 3, 0, 1, 3, 0, 3, 1, 2)
   True         599          0  (2, 1, 3, 2, 0, 3, 1, 2, 1, 0, 1, 2, 3, 0, 3, 3, 2, 1, 0, 3, 0, 0, 1, 2, 3, 2, 3, 1, 1, 0)
   True          25          0  (2, 1, 2, 1, 3, 0, 1, 3, 3, 0, 1, 2, 2, 3, 0, 0, 1, 3, 1, 3, 3, 2, 0, 1, 3, 2, 0, 3, 1, 2)
   True         219          0  (1, 0, 1, 3, 2, 3, 0, 2, 2, 0, 0, 3, 3, 2, 3, 1, 1, 2, 0, 2, 3, 0, 3, 1, 2, 2, 3, 2, 1, 0)
   True         131          0  (3, 0, 2, 3, 2, 2, 0, 3, 2, 1, 1, 3, 0, 3, 1, 1, 2, 0, 3, 0, 3, 1, 3, 2, 1, 0, 2, 3, 3, 0)
   True         114          0  (0, 2, 1, 2, 2, 1, 3, 3, 1, 0, 0, 2, 1, 2, 1, 3, 3, 1, 0, 2, 0, 0, 1, 3, 2, 1, 2, 1, 3, 0)
   True          42          0  (0, 2, 0, 1, 1, 3, 2, 1, 3, 2, 2, 1, 3, 1, 3, 2, 0, 3, 1, 2, 0, 1, 3, 0, 1, 3, 0, 3, 1, 2)
   True          39          0  (3, 2, 1, 2, 0, 1, 2, 3, 1, 0, 2, 3, 1, 0, 1, 0, 3, 1, 3, 1, 2, 2, 0, 3, 1, 1, 0, 1, 3, 2)
   True         101          0  (2, 1, 2, 0, 0, 3, 1, 0, 1, 3, 2, 0, 1, 0, 3, 2, 2, 1, 3, 3, 1, 0, 0, 2, 3, 0, 2, 3, 3, 1)
   True          79          0  (3, 0, 2, 0, 1, 2, 0, 1, 2, 3, 0, 0, 2, 1, 2, 1, 0, 2, 3, 2, 3, 3, 1, 0, 2, 0, 1, 2, 2, 3)
   True         101          0  (2, 1, 3, 2, 3, 3, 0, 2, 0, 1, 1, 2, 0, 2, 1, 3, 3, 0, 2, 0, 2, 1, 1, 3, 2, 1, 3, 2, 2, 0)
   True          42          0  (2, 3, 0, 3, 0, 0, 3, 1, 1, 2, 3, 3, 0, 1, 2, 0, 3, 1, 2, 0, 2, 2, 1, 3, 2, 1, 3, 1, 2, 0)
   True         230          0  (3, 2, 1, 3, 2, 0, 1, 3, 2, 0, 2, 1, 1, 3, 0, 0, 2, 3, 1, 3, 2, 1, 0, 2, 1, 3, 2, 0, 1, 3)
   True         164          0  (0, 1, 2, 0, 2, 2, 1, 0, 2, 3, 1, 0, 2, 0, 3, 1, 1, 2, 3, 2, 0, 3, 3, 0, 1, 2, 0, 1, 3, 2)
   True         325          0  (3, 0, 2, 1, 0, 2, 1, 3, 3, 0, 1, 2, 2, 0, 2, 0, 3, 1, 3, 1, 2, 0, 0, 2, 3, 1, 2, 3, 3, 1)
   True         116          0  (0, 1, 3, 2, 2, 2, 3, 0, 0, 1, 3, 2, 2, 0, 1, 3, 3, 0, 1, 0, 2, 2, 2, 3, 1, 0, 3, 1, 1, 0)
   True         109          0  (3, 0, 2, 3, 1, 2, 0, 1, 1, 0, 0, 3, 3, 1, 3, 2, 2, 1, 0, 1, 0, 0, 3, 2, 1, 1, 2, 3, 3, 0)
   True         682          0  (2, 3, 2, 0, 0, 1, 3, 0, 3, 1, 3, 2, 2, 0, 1, 1, 3, 0, 2, 1, 2, 2, 0, 3, 1, 3, 1, 0, 0, 2)
   True         252          0  (0, 1, 2, 3, 3, 3, 2, 0, 2, 1, 1, 3, 2, 0, 1, 1, 3, 0, 3, 0, 2, 1, 1, 2, 3, 0, 2, 3, 3, 0)
   True          57          0  (1, 0, 3, 2, 3, 3, 0, 2, 3, 1, 0, 2, 3, 1, 2, 0, 0, 3, 1, 3, 2, 1, 1, 2, 0, 3, 2, 0, 0, 3)
   True         211          0  (1, 3, 0, 3, 3, 0, 2, 2, 2, 1, 1, 0, 0, 3, 1, 1, 2, 3, 0, 3, 2, 1, 1, 2, 0, 3, 2, 0, 0, 3)
   True          36          0  (3, 1, 2, 0, 0, 0, 2, 3, 3, 1, 2, 0, 0, 1, 3, 1, 2, 3, 0, 1, 0, 0, 3, 2, 1, 3, 2, 1, 1, 0)
   True         147          0  (2, 3, 0, 1, 0, 0, 3, 1, 2, 3, 3, 0, 2, 1, 2, 3, 0, 1, 2, 1, 2, 3, 2, 0, 3, 1, 0, 2, 3, 1)
   True          66          0  (1, 0, 3, 1, 2, 3, 0, 2, 2, 0, 1, 1, 3, 2, 3, 0, 1, 2, 3, 3, 1, 0, 0, 1, 3, 2, 1, 3, 0, 2)
   True         114          0  (3, 2, 1, 2, 1, 1, 2, 0, 0, 3, 2, 2, 1, 3, 0, 1, 2, 0, 3, 0, 3, 3, 1, 2, 0, 2, 1, 0, 0, 3)
   True          71          0  (3, 0, 1, 3, 0, 1, 2, 3, 1, 0, 2, 3, 1, 0, 1, 2, 2, 1, 3, 3, 3, 0, 1, 2, 3, 1, 2, 3, 3, 0)
   True         194          0  (3, 1, 2, 3, 2, 2, 1, 3, 2, 0, 1, 1, 2, 3, 0, 0, 1, 2, 3, 0, 3, 3, 2, 1, 0, 2, 1, 0, 0, 3)
   True         148          0  (3, 2, 0, 3, 0, 0, 2, 3, 2, 1, 1, 3, 2, 3, 1, 1, 0, 2, 3, 1, 3, 3, 2, 0, 1, 2, 0, 2, 1, 3)
   True          37          0  (0, 2, 1, 2, 1, 1, 3, 0, 0, 3, 3, 2, 2, 0, 2, 1, 1, 0, 3, 3, 3, 2, 2, 1, 0, 2, 1, 0, 0, 3)
   True         916          0  (2, 0, 3, 1, 0, 1, 3, 2, 3, 0, 3, 1, 1, 0, 1, 0, 3, 2, 1, 0, 3, 1, 1, 3, 0, 2, 3, 0, 1, 2)
   True          23          0  (0, 1, 2, 1, 2, 3, 1, 0, 0, 3, 2, 1, 1, 0, 3, 2, 2, 0, 3, 0, 3, 1, 1, 2, 3, 0, 2, 3, 1, 0)
   True         211          0  (2, 3, 0, 1, 0, 0, 3, 1, 3, 2, 2, 0, 3, 1, 2, 2, 0, 1, 0, 1, 1, 3, 3, 2, 0, 3, 2, 0, 0, 1)
   True         176          0  (0, 1, 2, 0, 3, 2, 1, 3, 3, 1, 1, 2, 0, 3, 0, 1, 2, 0, 3, 1, 3, 3, 0, 2, 1, 0, 1, 0, 2, 3)
   True          23          0  (1, 3, 0, 2, 3, 0, 2, 2, 3, 1, 3, 2, 0, 1, 0, 1, 3, 0, 2, 0, 0, 2, 1, 3, 0, 3, 1, 0, 0, 2)
   True          57          0  (2, 3, 0, 2, 0, 1, 3, 2, 0, 1, 3, 2, 0, 2, 1, 3, 3, 0, 2, 2, 1, 1, 1, 3, 2, 0, 3, 2, 2, 0)
  False        5999          1  (3, 0, 2, 3, 0, 1, 2, 3, 0, 1, 0, 3, 2, 3, 1, 2, 0, 1, 0, 1, 0, 3, 2, 0, 1, 3, 2, 1, 0, 3)
   True          75          0  (0, 2, 3, 1, 3, 3, 2, 1, 2, 0, 0, 1, 2, 1, 0, 0, 3, 2, 1, 1, 1, 0, 0, 3, 1, 2, 3, 1, 0, 2)
   True         103          0  (1, 0, 3, 1, 3, 3, 0, 1, 0, 2, 0, 1, 3, 2, 1, 2, 0, 3, 0, 3, 1, 2, 2, 1, 0, 3, 1, 0, 0, 3)
   True         306          0  (0, 3, 0, 1, 1, 2, 3, 1, 0, 3, 3, 1, 2, 0, 2, 3, 1, 0, 2, 0, 2, 3, 2, 1, 3, 0, 1, 2, 2, 0)
   True        1955          0  (3, 2, 0, 2, 2, 0, 1, 1, 0, 3, 2, 2, 0, 3, 0, 3, 2, 1, 2, 0, 0, 3, 1, 2, 0, 1, 0, 1, 2, 3)
   True         181          0  (0, 3, 2, 3, 2, 2, 3, 1, 2, 0, 3, 3, 2, 0, 1, 0, 3, 1, 2, 0, 2, 2, 1, 3, 0, 1, 0, 1, 3, 2)
   True          25          0  (1, 0, 1, 3, 0, 3, 2, 2, 1, 0, 1, 3, 3, 0, 1, 2, 2, 1, 0, 0, 0, 3, 1, 2, 0, 1, 2, 0, 0, 3)
   True         356          0  (0, 2, 3, 0, 2, 3, 1, 0, 3, 1, 1, 0, 3, 2, 3, 2, 0, 3, 1, 2, 1, 1, 3, 0, 2, 0, 2, 3, 3, 1)
   True          80          0  (2, 3, 0, 2, 1, 0, 3, 2, 0, 1, 3, 3, 0, 1, 0, 1, 2, 0, 3, 1, 2, 3, 0, 2, 3, 0, 2, 0, 3, 1)
   True          39          0  (1, 0, 2, 1, 2, 3, 0, 1, 3, 0, 0, 2, 3, 1, 3, 0, 2, 3, 2, 3, 1, 0, 1, 2, 3, 3, 1, 3, 2, 0)
   True         378          0  (1, 2, 3, 0, 0, 0, 3, 1, 1, 2, 2, 0, 0, 1, 2, 3, 3, 1, 0, 0, 0, 2, 1, 3, 2, 1, 3, 1, 2, 0)
   True          31          0  (2, 0, 1, 2, 3, 3, 1, 2, 1, 0, 0, 2, 3, 2, 0, 0, 1, 3, 1, 3, 3, 2, 2, 0, 1, 2, 0, 1, 1, 3)
   True          33          0  (0, 1, 3, 0, 2, 3, 1, 0, 3, 1, 1, 0, 3, 0, 3, 2, 2, 3, 1, 3, 1, 0, 1, 2, 3, 0, 2, 1, 3, 0)
   True          56          0  (3, 2, 1, 0, 2, 0, 1, 3, 3, 2, 1, 0, 0, 2, 0, 2, 3, 1, 0, 0, 3, 2, 1, 3, 0, 1, 3, 0, 0, 2)
   True         444          0  (2, 3, 1, 2, 1, 0, 3, 2, 1, 3, 3, 2, 0, 1, 0, 0, 2, 1, 3, 0, 2, 3, 1, 2, 0, 1, 2, 0, 0, 3)
   True         106          0  (1, 2, 3, 0, 2, 0, 3, 1, 3, 2, 3, 0, 0, 2, 0, 1, 1, 3, 2, 2, 3, 0, 3, 1, 0, 0, 1, 3, 3, 2)
   True          99          0  (2, 3, 0, 1, 3, 0, 1, 1, 2, 3, 2, 0, 0, 3, 0, 3, 2, 1, 0, 1, 2, 3, 0, 2, 3, 1, 2, 0, 0, 1)
   True          28          0  (2, 1, 2, 3, 3, 0, 1, 3, 2, 0, 1, 3, 2, 3, 0, 1, 1, 2, 0, 0, 2, 3, 2, 1, 0, 3, 1, 0, 2, 3)
   True         112          0  (3, 0, 3, 1, 0, 1, 2, 2, 3, 0, 3, 1, 1, 0, 1, 2, 2, 3, 0, 3, 0, 0, 0, 2, 1, 1, 2, 1, 0, 3)
   True          79          0  (1, 3, 0, 3, 3, 0, 2, 2, 0, 1, 3, 3, 0, 1, 0, 2, 2, 0, 3, 3, 3, 1, 0, 2, 3, 1, 2, 3, 0, 1)
  False        5999          1  (1, 3, 2, 1, 2, 2, 0, 0, 0, 3, 1, 1, 2, 3, 1, 2, 0, 0, 3, 1, 1, 2, 3, 0, 1, 0, 1, 3, 3, 2)
   True          21          0  (2, 0, 1, 3, 3, 1, 0, 3, 1, 2, 2, 3, 0, 3, 2, 2, 1, 0, 1, 0, 1, 2, 2, 3, 1, 0, 3, 1, 1, 0)
   True         222          0  (1, 2, 1, 0, 3, 0, 2, 3, 1, 2, 2, 3, 0, 1, 0, 2, 3, 1, 3, 0, 3, 2, 1, 3, 0, 1, 0, 1, 3, 2)
   True          94          0  (0, 1, 0, 3, 1, 2, 3, 3, 2, 1, 0, 3, 2, 1, 2, 1, 0, 2, 0, 1, 2, 3, 2, 0, 1, 3, 1, 2, 0, 3)
   True         136          0  (1, 2, 3, 1, 3, 3, 2, 0, 0, 2, 2, 1, 1, 0, 1, 3, 3, 0, 1, 0, 1, 1, 1, 3, 2, 0, 3, 2, 1, 0)
   True         684          0  (1, 2, 3, 0, 2, 3, 0, 0, 3, 1, 1, 0, 3, 2, 1, 2, 0, 3, 0, 3, 0, 1, 1, 2, 0, 1, 2, 0, 0, 3)
   True         150          0  (1, 3, 2, 0, 0, 0, 2, 1, 2, 3, 2, 0, 0, 1, 3, 3, 2, 1, 2, 3, 1, 0, 1, 2, 3, 0, 3, 1, 1, 0)
   True          66          0  (2, 1, 0, 3, 1, 0, 3, 3, 2, 1, 1, 3, 0, 2, 0, 1, 3, 0, 2, 1, 2, 2, 2, 3, 0, 0, 3, 0, 2, 1)
   True         246          0  (1, 2, 1, 2, 3, 0, 2, 3, 3, 0, 2, 2, 1, 3, 1, 0, 2, 3, 1, 3, 1, 0, 1, 2, 0, 3, 2, 1, 1, 3)
   True          51          0  (3, 1, 3, 2, 2, 0, 1, 2, 3, 1, 1, 2, 3, 2, 3, 0, 0, 3, 2, 3, 1, 1, 2, 0, 3, 3, 0, 3, 2, 1)
   True         157          0  (0, 1, 3, 1, 1, 3, 2, 0, 3, 2, 2, 1, 3, 1, 3, 0, 0, 3, 2, 3, 1, 1, 2, 0, 3, 3, 0, 2, 2, 1)
   True         166          0  (2, 3, 0, 3, 0, 0, 3, 1, 1, 2, 2, 0, 3, 1, 2, 2, 0, 3, 0, 3, 0, 1, 2, 0, 3, 3, 2, 3, 0, 1)
   True         174          0  (0, 2, 3, 2, 3, 3, 2, 1, 3, 0, 0, 1, 2, 1, 0, 0, 3, 2, 1, 0, 1, 1, 2, 3, 0, 2, 3, 0, 0, 1)
   True          41          0  (1, 3, 2, 0, 0, 0, 2, 1, 1, 3, 3, 0, 2, 1, 3, 3, 0, 1, 2, 3, 0, 2, 1, 0, 3, 1, 0, 1, 3, 2)
   True         503          0  (2, 3, 0, 1, 1, 0, 3, 2, 0, 3, 3, 1, 0, 1, 0, 2, 2, 0, 3, 3, 0, 1, 0, 2, 3, 1, 2, 3, 0, 1)
   True         318          0  (1, 0, 3, 0, 3, 3, 0, 1, 3, 2, 0, 0, 3, 1, 2, 2, 0, 3, 0, 3, 0, 1, 1, 2, 0, 3, 2, 0, 1, 3)
   True         111          0  (3, 0, 1, 2, 1, 1, 2, 2, 3, 0, 0, 2, 1, 3, 0, 0, 2, 1, 3, 3, 3, 0, 0, 2, 3, 1, 2, 3, 0, 1)
   True          79          0  (0, 3, 2, 3, 1, 2, 3, 1, 2, 0, 3, 3, 2, 0, 2, 0, 1, 2, 3, 0, 3, 3, 3, 1, 2, 2, 1, 2, 3, 0)
