Test Parameters:
	filename: graph60.txt
	numRuns: 20
	colors: 4
	max generations: 12000
	population size: 20
	mutation chance: 0.8
	tournament size: 10
	tournament chance: 0.6

Summary:
20 tests were run. 95.0% of them succeeded.
Of the successes, the average number iterations was 1605.89 (min 294, max 4964).
Of the failures, the average conflicts in the best result was 1.00 (min 1, max 1)

All results:
Success  Iterations  Conflicts  Color Sequence
   True        1338          0  (0, 1, 2, 2, 0, 2, 1, 3, 1, 1, 1, 1, 1, 0, 0, 2, 2, 3, 3, 2, 0, 1, 3, 3, 2, 0, 3, 1, 2, 0, 1, 0, 2, 3, 2, 3, 1, 0, 3, 2, 0, 3, 1, 2, 3, 1, 0, 3, 3, 2, 1, 3, 2, 2, 2, 1, 1, 0, 0, 2)
   True        2896          0  (2, 0, 3, 0, 2, 3, 1, 1, 0, 0, 3, 0, 1, 2, 2, 0, 0, 2, 3, 2, 0, 2, 3, 1, 3, 3, 1, 0, 1, 1, 2, 3, 0, 2, 1, 2, 0, 2, 3, 0, 1, 1, 3, 3, 1, 2, 2, 2, 0, 1, 0, 1, 3, 2, 3, 0, 0, 1, 2, 3)
   True        3223          0  (1, 3, 2, 2, 0, 1, 3, 2, 0, 2, 0, 1, 3, 3, 1, 1, 2, 0, 0, 3, 0, 3, 0, 1, 3, 0, 2, 1, 3, 2, 1, 0, 1, 2, 3, 1, 0, 2, 1, 3, 2, 0, 1, 3, 0, 2, 2, 2, 1, 3, 2, 0, 3, 3, 3, 0, 2, 1, 1, 3)
   True         420          0  (2, 0, 3, 1, 2, 1, 0, 3, 2, 2, 0, 0, 0, 0, 2, 3, 3, 2, 1, 1, 0, 2, 1, 3, 1, 0, 2, 3, 3, 0, 3, 1, 2, 2, 0, 3, 1, 3, 2, 2, 0, 0, 1, 1, 2, 2, 3, 0, 0, 1, 1, 2, 3, 3, 3, 2, 0, 1, 0, 3)
   True        1009          0  (3, 1, 0, 2, 3, 3, 2, 2, 1, 1, 1, 1, 0, 0, 3, 0, 0, 3, 1, 0, 3, 3, 1, 2, 0, 3, 2, 1, 0, 2, 1, 3, 3, 2, 0, 1, 3, 2, 1, 0, 2, 1, 1, 3, 3, 2, 2, 2, 1, 3, 2, 3, 0, 0, 0, 0, 1, 3, 1, 2)
   True         566          0  (1, 2, 3, 2, 1, 3, 0, 0, 1, 2, 3, 2, 0, 0, 1, 3, 0, 1, 2, 2, 1, 1, 2, 3, 3, 0, 0, 3, 1, 0, 2, 1, 3, 2, 0, 2, 3, 0, 0, 3, 1, 1, 2, 3, 1, 2, 2, 2, 1, 3, 2, 0, 1, 3, 0, 0, 2, 3, 3, 1)
   True         515          0  (0, 2, 3, 3, 0, 0, 1, 3, 2, 1, 2, 1, 2, 3, 0, 3, 1, 0, 3, 1, 0, 0, 2, 0, 2, 2, 2, 3, 3, 1, 3, 0, 0, 1, 2, 1, 0, 1, 2, 2, 3, 2, 0, 0, 2, 3, 3, 0, 2, 1, 0, 2, 3, 1, 0, 2, 3, 1, 1, 0)
  False       11999          1  (1, 3, 2, 2, 1, 2, 0, 0, 3, 1, 3, 3, 0, 0, 1, 2, 0, 1, 3, 1, 3, 1, 3, 2, 2, 3, 2, 0, 0, 0, 1, 3, 2, 2, 1, 0, 3, 1, 2, 2, 1, 0, 3, 2, 3, 3, 3, 3, 0, 1, 1, 3, 0, 0, 1, 2, 2, 0, 2, 1)
   True         611          0  (1, 2, 3, 3, 1, 1, 2, 0, 2, 2, 2, 2, 2, 3, 1, 1, 3, 0, 0, 3, 2, 1, 0, 0, 1, 1, 1, 2, 3, 3, 0, 3, 3, 0, 1, 0, 2, 1, 0, 2, 1, 0, 3, 2, 0, 1, 1, 1, 3, 2, 1, 3, 2, 2, 2, 3, 1, 0, 0, 2)
   True         904          0  (3, 1, 2, 2, 0, 0, 0, 3, 1, 3, 1, 1, 0, 2, 3, 1, 0, 3, 1, 2, 0, 3, 2, 0, 2, 1, 1, 3, 2, 0, 3, 0, 2, 0, 2, 3, 1, 3, 3, 2, 0, 0, 1, 1, 0, 3, 3, 3, 2, 0, 1, 0, 2, 2, 1, 2, 3, 0, 3, 1)
   True         683          0  (3, 0, 1, 2, 3, 1, 0, 2, 3, 2, 0, 0, 0, 0, 3, 1, 1, 2, 2, 0, 3, 0, 2, 1, 1, 3, 1, 2, 0, 3, 2, 3, 1, 1, 0, 2, 3, 3, 2, 1, 0, 0, 2, 2, 0, 3, 3, 3, 0, 2, 3, 0, 1, 1, 1, 0, 3, 2, 2, 1)
   True        1841          0  (0, 2, 3, 3, 0, 0, 1, 1, 2, 3, 2, 2, 1, 1, 0, 2, 1, 0, 2, 3, 0, 0, 3, 0, 3, 1, 1, 2, 2, 1, 2, 0, 3, 0, 1, 2, 3, 0, 0, 3, 1, 1, 2, 3, 1, 0, 0, 0, 1, 2, 1, 2, 3, 3, 3, 1, 0, 2, 0, 3)
   True         513          0  (3, 2, 0, 1, 1, 1, 2, 0, 3, 3, 0, 2, 0, 0, 3, 0, 2, 1, 1, 1, 2, 3, 1, 2, 3, 0, 3, 2, 2, 2, 1, 0, 2, 1, 3, 1, 0, 0, 1, 3, 2, 3, 1, 2, 2, 1, 1, 0, 0, 3, 0, 2, 1, 3, 0, 2, 1, 3, 3, 0)
   True        1292          0  (1, 0, 2, 0, 3, 3, 3, 1, 0, 0, 2, 0, 3, 2, 1, 0, 3, 1, 2, 2, 0, 1, 2, 1, 2, 3, 3, 0, 1, 3, 1, 2, 0, 2, 1, 3, 0, 1, 3, 0, 2, 2, 3, 3, 2, 0, 1, 1, 2, 3, 2, 3, 1, 1, 1, 2, 0, 3, 0, 1)
   True        4447          0  (0, 3, 1, 3, 2, 2, 3, 0, 1, 3, 2, 3, 1, 0, 0, 1, 1, 2, 2, 3, 2, 0, 2, 2, 1, 1, 1, 0, 0, 3, 0, 2, 3, 2, 3, 0, 1, 0, 3, 1, 2, 2, 3, 3, 1, 1, 0, 1, 2, 3, 1, 3, 0, 0, 3, 2, 2, 0, 2, 1)
   True        3807          0  (1, 2, 3, 3, 0, 0, 2, 3, 1, 2, 2, 1, 0, 3, 1, 1, 3, 0, 2, 2, 0, 1, 0, 0, 2, 1, 3, 0, 0, 3, 1, 2, 3, 3, 1, 3, 2, 1, 3, 0, 1, 0, 3, 3, 0, 2, 2, 2, 0, 3, 1, 0, 2, 2, 1, 1, 3, 0, 3, 2)
   True         479          0  (0, 1, 2, 3, 3, 3, 3, 0, 2, 2, 1, 1, 2, 0, 0, 2, 3, 0, 1, 1, 3, 0, 1, 3, 2, 0, 2, 3, 3, 3, 0, 1, 3, 2, 0, 3, 1, 0, 2, 2, 0, 2, 3, 3, 2, 0, 1, 1, 2, 3, 0, 3, 1, 1, 1, 2, 0, 3, 2, 1)
   True        4964          0  (1, 3, 2, 0, 1, 0, 0, 2, 3, 1, 2, 0, 1, 2, 3, 2, 0, 3, 2, 1, 0, 1, 3, 0, 1, 3, 3, 2, 0, 0, 2, 0, 3, 1, 3, 1, 2, 0, 1, 3, 0, 1, 1, 0, 2, 2, 2, 3, 3, 0, 2, 0, 1, 3, 3, 1, 1, 0, 3, 2)
   True         294          0  (0, 2, 3, 3, 0, 0, 2, 3, 1, 3, 2, 2, 2, 2, 0, 0, 1, 1, 3, 2, 1, 0, 3, 0, 0, 1, 0, 3, 0, 2, 3, 1, 0, 2, 0, 2, 3, 1, 2, 0, 1, 3, 2, 2, 0, 0, 1, 1, 3, 2, 1, 0, 2, 3, 1, 0, 2, 3, 3, 1)
   True         710          0  (0, 2, 1, 2, 3, 3, 3, 1, 0, 0, 3, 0, 1, 2, 0, 0, 1, 2, 2, 2, 0, 3, 2, 1, 3, 3, 3, 1, 1, 1, 2, 0, 3, 2, 3, 2, 0, 0, 2, 3, 1, 2, 2, 1, 3, 0, 0, 0, 3, 2, 3, 1, 0, 0, 1, 1, 2, 3, 2, 0)
